^P:\LIBS\CEGUI-0.8.7\SAMPLES\FONTDEMO\SAMPLE_FONTDEMO.CPP
C:\WINDOWS\GLOBALIZATION\SORTING\SORTDEFAULT.NLS
C:\PROGRAM FILES (X86)\VC\BIN\1033\CLUI.DLL
C:\WINDOWS\SYSTEM32\TZRES.DLL
P:\LIBS\CEGUI-0.8.7\SAMPLES\FONTDEMO\SAMPLE_FONTDEMO.H
P:\LIBS\CEGUI-0.8.7\SAMPLES\COMMON\INCLUDE\SAMPLEBASE.H
P:\LIBS\CEGUI-0.8.7\SAMPLES\COMMON\INCLUDE\SAMPLE.H
P:\LIBS\CEGUI-0.8.7\CEGUI\INCLUDE\CEGUI\STRING.H
P:\LIBS\CEGUI-0.8.7\CEGUI\INCLUDE\CEGUI\BASE.H
P:\LIBS\CEGUI-0.8.7\BUILD\CEGUI\INCLUDE\CEGUI\CONFIG.H
P:\LIBS\CEGUI-0.8.7\BUILD\CEGUI\INCLUDE\CEGUI\VERSION.H
C:\PROGRAM FILES (X86)\VC\INCLUDE\CASSERT
C:\PROGRAM FILES (X86)\VC\INCLUDE\YVALS.H
C:\PROGRAM FILES (X86)\VC\INCLUDE\XKEYCHECK.H
C:\PROGRAM FILES (X86)\VC\INCLUDE\CRTDEFS.H
C:\PROGRAM FILES (X86)\VC\INCLUDE\VCRUNTIME.H
C:\PROGRAM FILES (X86)\VC\INCLUDE\SAL.H
C:\PROGRAM FILES (X86)\VC\INCLUDE\CONCURRENCYSAL.H
C:\PROGRAM FILES (X86)\VC\INCLUDE\VADEFS.H
C:\PROGRAM FILES (X86)\WINDOWS KITS\10\INCLUDE\10.0.10240.0\UCRT\CORECRT.H
C:\PROGRAM FILES (X86)\VC\INCLUDE\USE_ANSI.H
C:\PROGRAM FILES (X86)\WINDOWS KITS\10\INCLUDE\10.0.10240.0\UCRT\ASSERT.H
C:\PROGRAM FILES (X86)\VC\INCLUDE\ALGORITHM
C:\PROGRAM FILES (X86)\VC\INCLUDE\XMEMORY
C:\PROGRAM FILES (X86)\VC\INCLUDE\XMEMORY0
C:\PROGRAM FILES (X86)\VC\INCLUDE\CSTDINT
C:\PROGRAM FILES (X86)\VC\INCLUDE\STDINT.H
C:\PROGRAM FILES (X86)\VC\INCLUDE\CSTDLIB
C:\PROGRAM FILES (X86)\WINDOWS KITS\10\INCLUDE\10.0.10240.0\UCRT\STDLIB.H
C:\PROGRAM FILES (X86)\WINDOWS KITS\10\INCLUDE\10.0.10240.0\UCRT\CORECRT_MALLOC.H
C:\PROGRAM FILES (X86)\WINDOWS KITS\10\INCLUDE\10.0.10240.0\UCRT\CORECRT_SEARCH.H
C:\PROGRAM FILES (X86)\WINDOWS KITS\10\INCLUDE\10.0.10240.0\UCRT\STDDEF.H
C:\PROGRAM FILES (X86)\WINDOWS KITS\10\INCLUDE\10.0.10240.0\UCRT\CORECRT_WSTDLIB.H
C:\PROGRAM FILES (X86)\VC\INCLUDE\LIMITS.H
C:\PROGRAM FILES (X86)\VC\INCLUDE\LIMITS
C:\PROGRAM FILES (X86)\VC\INCLUDE\YMATH.H
C:\PROGRAM FILES (X86)\VC\INCLUDE\CFLOAT
C:\PROGRAM FILES (X86)\WINDOWS KITS\10\INCLUDE\10.0.10240.0\UCRT\FLOAT.H
C:\PROGRAM FILES (X86)\VC\INCLUDE\CLIMITS
C:\PROGRAM FILES (X86)\VC\INCLUDE\CMATH
C:\PROGRAM FILES (X86)\WINDOWS KITS\10\INCLUDE\10.0.10240.0\UCRT\MATH.H
C:\PROGRAM FILES (X86)\VC\INCLUDE\XTGMATH.H
C:\PROGRAM FILES (X86)\VC\INCLUDE\XTR1COMMON
C:\PROGRAM FILES (X86)\VC\INCLUDE\CWCHAR
C:\PROGRAM FILES (X86)\WINDOWS KITS\10\INCLUDE\10.0.10240.0\UCRT\WCHAR.H
C:\PROGRAM FILES (X86)\WINDOWS KITS\10\INCLUDE\10.0.10240.0\UCRT\CORECRT_MEMCPY_S.H
C:\PROGRAM FILES (X86)\WINDOWS KITS\10\INCLUDE\10.0.10240.0\UCRT\ERRNO.H
C:\PROGRAM FILES (X86)\VC\INCLUDE\VCRUNTIME_STRING.H
C:\PROGRAM FILES (X86)\WINDOWS KITS\10\INCLUDE\10.0.10240.0\UCRT\CORECRT_WCONIO.H
C:\PROGRAM FILES (X86)\WINDOWS KITS\10\INCLUDE\10.0.10240.0\UCRT\CORECRT_STDIO_CONFIG.H
C:\PROGRAM FILES (X86)\WINDOWS KITS\10\INCLUDE\10.0.10240.0\UCRT\CORECRT_WCTYPE.H
C:\PROGRAM FILES (X86)\WINDOWS KITS\10\INCLUDE\10.0.10240.0\UCRT\CORECRT_WDIRECT.H
C:\PROGRAM FILES (X86)\WINDOWS KITS\10\INCLUDE\10.0.10240.0\UCRT\CORECRT_WIO.H
C:\PROGRAM FILES (X86)\WINDOWS KITS\10\INCLUDE\10.0.10240.0\UCRT\CORECRT_SHARE.H
C:\PROGRAM FILES (X86)\WINDOWS KITS\10\INCLUDE\10.0.10240.0\UCRT\CORECRT_WPROCESS.H
C:\PROGRAM FILES (X86)\WINDOWS KITS\10\INCLUDE\10.0.10240.0\UCRT\CORECRT_WSTDIO.H
C:\PROGRAM FILES (X86)\WINDOWS KITS\10\INCLUDE\10.0.10240.0\UCRT\CORECRT_WSTRING.H
C:\PROGRAM FILES (X86)\WINDOWS KITS\10\INCLUDE\10.0.10240.0\UCRT\CORECRT_WTIME.H
C:\PROGRAM FILES (X86)\WINDOWS KITS\10\INCLUDE\10.0.10240.0\UCRT\SYS\STAT.H
C:\PROGRAM FILES (X86)\WINDOWS KITS\10\INCLUDE\10.0.10240.0\UCRT\SYS\TYPES.H
C:\PROGRAM FILES (X86)\VC\INCLUDE\XSTDDEF
C:\PROGRAM FILES (X86)\VC\INCLUDE\CSTDDEF
C:\PROGRAM FILES (X86)\VC\INCLUDE\INITIALIZER_LIST
C:\PROGRAM FILES (X86)\VC\INCLUDE\NEW
C:\PROGRAM FILES (X86)\VC\INCLUDE\EXCEPTION
C:\PROGRAM FILES (X86)\VC\INCLUDE\TYPE_TRAITS
C:\PROGRAM FILES (X86)\WINDOWS KITS\10\INCLUDE\10.0.10240.0\UCRT\MALLOC.H
C:\PROGRAM FILES (X86)\VC\INCLUDE\VCRUNTIME_EXCEPTION.H
C:\PROGRAM FILES (X86)\VC\INCLUDE\EH.H
C:\PROGRAM FILES (X86)\WINDOWS KITS\10\INCLUDE\10.0.10240.0\UCRT\CORECRT_TERMINATE.H
C:\PROGRAM FILES (X86)\VC\INCLUDE\VCRUNTIME_NEW.H
C:\PROGRAM FILES (X86)\VC\INCLUDE\XUTILITY
C:\PROGRAM FILES (X86)\VC\INCLUDE\UTILITY
C:\PROGRAM FILES (X86)\VC\INCLUDE\IOSFWD
C:\PROGRAM FILES (X86)\VC\INCLUDE\CSTDIO
C:\PROGRAM FILES (X86)\WINDOWS KITS\10\INCLUDE\10.0.10240.0\UCRT\STDIO.H
C:\PROGRAM FILES (X86)\VC\INCLUDE\CSTRING
C:\PROGRAM FILES (X86)\WINDOWS KITS\10\INCLUDE\10.0.10240.0\UCRT\STRING.H
C:\PROGRAM FILES (X86)\WINDOWS KITS\10\INCLUDE\10.0.10240.0\UCRT\CORECRT_MEMORY.H
C:\PROGRAM FILES (X86)\WINDOWS KITS\10\INCLUDE\10.0.10240.0\UCRT\CRTDBG.H
C:\PROGRAM FILES (X86)\VC\INCLUDE\VCRUNTIME_NEW_DEBUG.H
C:\PROGRAM FILES (X86)\VC\INCLUDE\XATOMIC0.H
C:\PROGRAM FILES (X86)\VC\INCLUDE\INTRIN.H
C:\PROGRAM FILES (X86)\VC\INCLUDE\SETJMP.H
C:\PROGRAM FILES (X86)\VC\INCLUDE\IMMINTRIN.H
C:\PROGRAM FILES (X86)\VC\INCLUDE\WMMINTRIN.H
C:\PROGRAM FILES (X86)\VC\INCLUDE\NMMINTRIN.H
C:\PROGRAM FILES (X86)\VC\INCLUDE\SMMINTRIN.H
C:\PROGRAM FILES (X86)\VC\INCLUDE\TMMINTRIN.H
C:\PROGRAM FILES (X86)\VC\INCLUDE\PMMINTRIN.H
C:\PROGRAM FILES (X86)\VC\INCLUDE\EMMINTRIN.H
C:\PROGRAM FILES (X86)\VC\INCLUDE\XMMINTRIN.H
C:\PROGRAM FILES (X86)\VC\INCLUDE\MMINTRIN.H
C:\PROGRAM FILES (X86)\VC\INCLUDE\AMMINTRIN.H
C:\PROGRAM FILES (X86)\VC\INCLUDE\MM3DNOW.H
C:\PROGRAM FILES (X86)\VC\INCLUDE\STRING
C:\PROGRAM FILES (X86)\VC\INCLUDE\ISTREAM
C:\PROGRAM FILES (X86)\VC\INCLUDE\OSTREAM
C:\PROGRAM FILES (X86)\VC\INCLUDE\IOS
C:\PROGRAM FILES (X86)\VC\INCLUDE\XLOCNUM
C:\PROGRAM FILES (X86)\VC\INCLUDE\STREAMBUF
C:\PROGRAM FILES (X86)\VC\INCLUDE\XIOSBASE
C:\PROGRAM FILES (X86)\VC\INCLUDE\XLOCALE
C:\PROGRAM FILES (X86)\VC\INCLUDE\STDEXCEPT
C:\PROGRAM FILES (X86)\VC\INCLUDE\XSTRING
C:\PROGRAM FILES (X86)\VC\INCLUDE\TYPEINFO
C:\PROGRAM FILES (X86)\VC\INCLUDE\VCRUNTIME_TYPEINFO.H
C:\PROGRAM FILES (X86)\VC\INCLUDE\XLOCINFO
C:\PROGRAM FILES (X86)\VC\INCLUDE\XLOCINFO.H
C:\PROGRAM FILES (X86)\WINDOWS KITS\10\INCLUDE\10.0.10240.0\UCRT\CTYPE.H
C:\PROGRAM FILES (X86)\WINDOWS KITS\10\INCLUDE\10.0.10240.0\UCRT\LOCALE.H
C:\PROGRAM FILES (X86)\VC\INCLUDE\XFACET
C:\PROGRAM FILES (X86)\VC\INCLUDE\SYSTEM_ERROR
C:\PROGRAM FILES (X86)\VC\INCLUDE\CERRNO
C:\PROGRAM FILES (X86)\WINDOWS KITS\10\INCLUDE\10.0.10240.0\UCRT\SHARE.H
P:\LIBS\CEGUI-0.8.7\CEGUI\INCLUDE\CEGUI\FORWARDREFS.H
P:\LIBS\CEGUI-0.8.7\CEGUI\INCLUDE\CEGUI\MEMORYALLOCATION.H
P:\LIBS\CEGUI-0.8.7\CEGUI\INCLUDE\CEGUI\MEMORYALLOCATEDOBJECT.H
P:\LIBS\CEGUI-0.8.7\CEGUI\INCLUDE\CEGUI\MEMORYSTLWRAPPER.H
C:\PROGRAM FILES (X86)\VC\INCLUDE\VECTOR
C:\PROGRAM FILES (X86)\VC\INCLUDE\MAP
C:\PROGRAM FILES (X86)\VC\INCLUDE\TUPLE
C:\PROGRAM FILES (X86)\VC\INCLUDE\XTREE
P:\LIBS\CEGUI-0.8.7\SAMPLES\FONTDEMO\LANGUAGESTRINGS.H
P:\LIBS\CEGUI-0.8.7\CEGUI\INCLUDE\CEGUI\CEGUI.H
P:\LIBS\CEGUI-0.8.7\CEGUI\INCLUDE\CEGUI\AFFECTOR.H
P:\LIBS\CEGUI-0.8.7\CEGUI\INCLUDE\CEGUI\KEYFRAME.H
P:\LIBS\CEGUI-0.8.7\CEGUI\INCLUDE\CEGUI\ANIMATION.H
P:\LIBS\CEGUI-0.8.7\CEGUI\INCLUDE\CEGUI\ANIMATIONINSTANCE.H
P:\LIBS\CEGUI-0.8.7\CEGUI\INCLUDE\CEGUI\EVENTARGS.H
P:\LIBS\CEGUI-0.8.7\CEGUI\INCLUDE\CEGUI\EVENT.H
P:\LIBS\CEGUI-0.8.7\CEGUI\INCLUDE\CEGUI\BOUNDSLOT.H
P:\LIBS\CEGUI-0.8.7\CEGUI\INCLUDE\CEGUI\SUBSCRIBERSLOT.H
P:\LIBS\CEGUI-0.8.7\CEGUI\INCLUDE\CEGUI\FREEFUNCTIONSLOT.H
P:\LIBS\CEGUI-0.8.7\CEGUI\INCLUDE\CEGUI\SLOTFUNCTORBASE.H
P:\LIBS\CEGUI-0.8.7\CEGUI\INCLUDE\CEGUI\FUNCTORCOPYSLOT.H
P:\LIBS\CEGUI-0.8.7\CEGUI\INCLUDE\CEGUI\FUNCTORREFERENCESLOT.H
P:\LIBS\CEGUI-0.8.7\CEGUI\INCLUDE\CEGUI\FUNCTORPOINTERSLOT.H
P:\LIBS\CEGUI-0.8.7\CEGUI\INCLUDE\CEGUI\MEMBERFUNCTIONSLOT.H
P:\LIBS\CEGUI-0.8.7\CEGUI\INCLUDE\CEGUI\FUNCTORREFERENCEBINDER.H
P:\LIBS\CEGUI-0.8.7\CEGUI\INCLUDE\CEGUI\REFCOUNTED.H
P:\LIBS\CEGUI-0.8.7\CEGUI\INCLUDE\CEGUI\ANIMATIONMANAGER.H
P:\LIBS\CEGUI-0.8.7\CEGUI\INCLUDE\CEGUI\SINGLETON.H
P:\LIBS\CEGUI-0.8.7\CEGUI\INCLUDE\CEGUI\BASICIMAGE.H
P:\LIBS\CEGUI-0.8.7\CEGUI\INCLUDE\CEGUI\IMAGE.H
P:\LIBS\CEGUI-0.8.7\CEGUI\INCLUDE\CEGUI\CHAINEDXMLHANDLER.H
P:\LIBS\CEGUI-0.8.7\CEGUI\INCLUDE\CEGUI\XMLHANDLER.H
P:\LIBS\CEGUI-0.8.7\CEGUI\INCLUDE\CEGUI\COLOURRECT.H
P:\LIBS\CEGUI-0.8.7\CEGUI\INCLUDE\CEGUI\COLOUR.H
P:\LIBS\CEGUI-0.8.7\CEGUI\INCLUDE\CEGUI\RECT.H
P:\LIBS\CEGUI-0.8.7\CEGUI\INCLUDE\CEGUI\VECTOR.H
P:\LIBS\CEGUI-0.8.7\CEGUI\INCLUDE\CEGUI\UDIM.H
P:\LIBS\CEGUI-0.8.7\CEGUI\INCLUDE\CEGUI\SIZE.H
P:\LIBS\CEGUI-0.8.7\CEGUI\INCLUDE\CEGUI\BASICRENDEREDSTRINGPARSER.H
P:\LIBS\CEGUI-0.8.7\CEGUI\INCLUDE\CEGUI\RENDEREDSTRINGPARSER.H
P:\LIBS\CEGUI-0.8.7\CEGUI\INCLUDE\CEGUI\RENDEREDSTRING.H
P:\LIBS\CEGUI-0.8.7\CEGUI\INCLUDE\CEGUI\FALAGARD\ENUMS.H
P:\LIBS\CEGUI-0.8.7\CEGUI\INCLUDE\CEGUI\PROPERTYHELPER.H
P:\LIBS\CEGUI-0.8.7\CEGUI\INCLUDE\CEGUI\QUATERNION.H
P:\LIBS\CEGUI-0.8.7\CEGUI\INCLUDE\CEGUI\INTERPOLATOR.H
C:\PROGRAM FILES (X86)\VC\INCLUDE\SSTREAM
P:\LIBS\CEGUI-0.8.7\CEGUI\INCLUDE\CEGUI\BIDIVISUALMAPPING.H
P:\LIBS\CEGUI-0.8.7\CEGUI\INCLUDE\CEGUI\CENTREDRENDEREDSTRING.H
P:\LIBS\CEGUI-0.8.7\CEGUI\INCLUDE\CEGUI\FORMATTEDRENDEREDSTRING.H
P:\LIBS\CEGUI-0.8.7\CEGUI\INCLUDE\CEGUI\CLIPBOARD.H
P:\LIBS\CEGUI-0.8.7\CEGUI\INCLUDE\CEGUI\COORDCONVERTER.H
P:\LIBS\CEGUI-0.8.7\CEGUI\INCLUDE\CEGUI\DATACONTAINER.H
P:\LIBS\CEGUI-0.8.7\CEGUI\INCLUDE\CEGUI\DEFAULTLOGGER.H
P:\LIBS\CEGUI-0.8.7\CEGUI\INCLUDE\CEGUI\LOGGER.H
C:\PROGRAM FILES (X86)\VC\INCLUDE\FSTREAM
P:\LIBS\CEGUI-0.8.7\CEGUI\INCLUDE\CEGUI\DEFAULTRENDEREDSTRINGPARSER.H
P:\LIBS\CEGUI-0.8.7\CEGUI\INCLUDE\CEGUI\DEFAULTRESOURCEPROVIDER.H
P:\LIBS\CEGUI-0.8.7\CEGUI\INCLUDE\CEGUI\RESOURCEPROVIDER.H
P:\LIBS\CEGUI-0.8.7\CEGUI\INCLUDE\CEGUI\DYNAMICMODULE.H
P:\LIBS\CEGUI-0.8.7\CEGUI\INCLUDE\CEGUI\ELEMENT.H
P:\LIBS\CEGUI-0.8.7\CEGUI\INCLUDE\CEGUI\PROPERTYSET.H
P:\LIBS\CEGUI-0.8.7\CEGUI\INCLUDE\CEGUI\ITERATORBASE.H
P:\LIBS\CEGUI-0.8.7\CEGUI\INCLUDE\CEGUI\PROPERTY.H
P:\LIBS\CEGUI-0.8.7\CEGUI\INCLUDE\CEGUI\XMLSERIALIZER.H
P:\LIBS\CEGUI-0.8.7\CEGUI\INCLUDE\CEGUI\TYPEDPROPERTY.H
P:\LIBS\CEGUI-0.8.7\CEGUI\INCLUDE\CEGUI\EXCEPTIONS.H
P:\LIBS\CEGUI-0.8.7\CEGUI\INCLUDE\CEGUI\TPLWINDOWPROPERTY.H
P:\LIBS\CEGUI-0.8.7\CEGUI\INCLUDE\CEGUI\TPLPROPERTY.H
P:\LIBS\CEGUI-0.8.7\CEGUI\INCLUDE\CEGUI\EVENTSET.H
P:\LIBS\CEGUI-0.8.7\CEGUI\INCLUDE\CEGUI\FACTORYMODULE.H
P:\LIBS\CEGUI-0.8.7\CEGUI\INCLUDE\CEGUI\FACTORYREGISTERER.H
P:\LIBS\CEGUI-0.8.7\CEGUI\INCLUDE\CEGUI\FONT.H
P:\LIBS\CEGUI-0.8.7\CEGUI\INCLUDE\CEGUI\FONTGLYPH.H
P:\LIBS\CEGUI-0.8.7\CEGUI\INCLUDE\CEGUI\FONTMANAGER.H
P:\LIBS\CEGUI-0.8.7\CEGUI\INCLUDE\CEGUI\NAMEDXMLRESOURCEMANAGER.H
P:\LIBS\CEGUI-0.8.7\CEGUI\INCLUDE\CEGUI\INPUTEVENT.H
P:\LIBS\CEGUI-0.8.7\CEGUI\INCLUDE\CEGUI\SYSTEM.H
P:\LIBS\CEGUI-0.8.7\CEGUI\INCLUDE\CEGUI\RENDERER.H
P:\LIBS\CEGUI-0.8.7\CEGUI\INCLUDE\CEGUI\WIN32STRINGTRANSCODER.H
P:\LIBS\CEGUI-0.8.7\CEGUI\INCLUDE\CEGUI\STRINGTRANSCODER.H
P:\LIBS\CEGUI-0.8.7\CEGUI\INCLUDE\CEGUI\FONT_XMLHANDLER.H
P:\LIBS\CEGUI-0.8.7\CEGUI\INCLUDE\CEGUI\GEOMETRYBUFFER.H
P:\LIBS\CEGUI-0.8.7\CEGUI\INCLUDE\CEGUI\GLOBALEVENTSET.H
P:\LIBS\CEGUI-0.8.7\CEGUI\INCLUDE\CEGUI\GUICONTEXT.H
P:\LIBS\CEGUI-0.8.7\CEGUI\INCLUDE\CEGUI\RENDERINGSURFACE.H
P:\LIBS\CEGUI-0.8.7\CEGUI\INCLUDE\CEGUI\RENDERQUEUE.H
P:\LIBS\CEGUI-0.8.7\CEGUI\INCLUDE\CEGUI\INJECTEDINPUTRECEIVER.H
P:\LIBS\CEGUI-0.8.7\CEGUI\INCLUDE\CEGUI\MOUSECURSOR.H
P:\LIBS\CEGUI-0.8.7\CEGUI\INCLUDE\CEGUI\SYSTEMKEYS.H
P:\LIBS\CEGUI-0.8.7\CEGUI\INCLUDE\CEGUI\IMAGECODEC.H
P:\LIBS\CEGUI-0.8.7\CEGUI\INCLUDE\CEGUI\TEXTURE.H
P:\LIBS\CEGUI-0.8.7\CEGUI\INCLUDE\CEGUI\IMAGEMANAGER.H
P:\LIBS\CEGUI-0.8.7\CEGUI\INCLUDE\CEGUI\IMAGEFACTORY.H
P:\LIBS\CEGUI-0.8.7\CEGUI\INCLUDE\CEGUI\JUSTIFIEDRENDEREDSTRING.H
P:\LIBS\CEGUI-0.8.7\CEGUI\INCLUDE\CEGUI\LEFTALIGNEDRENDEREDSTRING.H
P:\LIBS\CEGUI-0.8.7\CEGUI\INCLUDE\CEGUI\LINKEDEVENT.H
P:\LIBS\CEGUI-0.8.7\CEGUI\INCLUDE\CEGUI\NAMEDELEMENT.H
P:\LIBS\CEGUI-0.8.7\CEGUI\INCLUDE\CEGUI\REGEXMATCHER.H
P:\LIBS\CEGUI-0.8.7\CEGUI\INCLUDE\CEGUI\RENDEREDSTRINGIMAGECOMPONENT.H
P:\LIBS\CEGUI-0.8.7\CEGUI\INCLUDE\CEGUI\RENDEREDSTRINGCOMPONENT.H
P:\LIBS\CEGUI-0.8.7\CEGUI\INCLUDE\CEGUI\RENDEREDSTRINGTEXTCOMPONENT.H
P:\LIBS\CEGUI-0.8.7\CEGUI\INCLUDE\CEGUI\RENDEREDSTRINGWIDGETCOMPONENT.H
P:\LIBS\CEGUI-0.8.7\CEGUI\INCLUDE\CEGUI\RENDEREDSTRINGWORDWRAPPER.H
P:\LIBS\CEGUI-0.8.7\CEGUI\INCLUDE\CEGUI\RENDEREFFECT.H
P:\LIBS\CEGUI-0.8.7\CEGUI\INCLUDE\CEGUI\RENDEREFFECTMANAGER.H
P:\LIBS\CEGUI-0.8.7\CEGUI\INCLUDE\CEGUI\RENDEREFFECTFACTORY.H
P:\LIBS\CEGUI-0.8.7\CEGUI\INCLUDE\CEGUI\RENDERINGCONTEXT.H
P:\LIBS\CEGUI-0.8.7\CEGUI\INCLUDE\CEGUI\RENDERINGWINDOW.H
P:\LIBS\CEGUI-0.8.7\CEGUI\INCLUDE\CEGUI\RENDERTARGET.H
P:\LIBS\CEGUI-0.8.7\CEGUI\INCLUDE\CEGUI\RIGHTALIGNEDRENDEREDSTRING.H
P:\LIBS\CEGUI-0.8.7\CEGUI\INCLUDE\CEGUI\SCHEME.H
P:\LIBS\CEGUI-0.8.7\CEGUI\INCLUDE\CEGUI\SCHEMEMANAGER.H
P:\LIBS\CEGUI-0.8.7\CEGUI\INCLUDE\CEGUI\SCHEME_XMLHANDLER.H
P:\LIBS\CEGUI-0.8.7\CEGUI\INCLUDE\CEGUI\SCRIPTMODULE.H
P:\LIBS\CEGUI-0.8.7\CEGUI\INCLUDE\CEGUI\SIMPLETIMER.H
P:\LIBS\CEGUI-0.8.7\CEGUI\INCLUDE\CEGUI\TEXTURETARGET.H
P:\LIBS\CEGUI-0.8.7\CEGUI\INCLUDE\CEGUI\TEXTUTILS.H
P:\LIBS\CEGUI-0.8.7\CEGUI\INCLUDE\CEGUI\TPLINTERPOLATORS.H
P:\LIBS\CEGUI-0.8.7\CEGUI\INCLUDE\CEGUI\TPLWINDOWFACTORY.H
P:\LIBS\CEGUI-0.8.7\CEGUI\INCLUDE\CEGUI\WINDOWFACTORY.H
P:\LIBS\CEGUI-0.8.7\CEGUI\INCLUDE\CEGUI\WINDOW.H
P:\LIBS\CEGUI-0.8.7\CEGUI\INCLUDE\CEGUI\WINDOWRENDERER.H
C:\PROGRAM FILES (X86)\VC\INCLUDE\SET
P:\LIBS\CEGUI-0.8.7\CEGUI\INCLUDE\CEGUI\TPLWINDOWRENDERERFACTORY.H
P:\LIBS\CEGUI-0.8.7\CEGUI\INCLUDE\CEGUI\TPLWINDOWFACTORYREGISTERER.H
P:\LIBS\CEGUI-0.8.7\CEGUI\INCLUDE\CEGUI\WINDOWFACTORYMANAGER.H
P:\LIBS\CEGUI-0.8.7\CEGUI\INCLUDE\CEGUI\TPLWRFACTORYREGISTERER.H
P:\LIBS\CEGUI-0.8.7\CEGUI\INCLUDE\CEGUI\WINDOWRENDERERMANAGER.H
P:\LIBS\CEGUI-0.8.7\CEGUI\INCLUDE\CEGUI\VERTEX.H
P:\LIBS\CEGUI-0.8.7\CEGUI\INCLUDE\CEGUI\WINDOWMANAGER.H
P:\LIBS\CEGUI-0.8.7\CEGUI\INCLUDE\CEGUI\XMLATTRIBUTES.H
P:\LIBS\CEGUI-0.8.7\CEGUI\INCLUDE\CEGUI\XMLPARSER.H
P:\LIBS\CEGUI-0.8.7\CEGUI\INCLUDE\CEGUI\FALAGARD\WIDGETLOOKMANAGER.H
P:\LIBS\CEGUI-0.8.7\CEGUI\INCLUDE\CEGUI\FALAGARD\WIDGETLOOKFEEL.H
P:\LIBS\CEGUI-0.8.7\CEGUI\INCLUDE\CEGUI\FALAGARD\STATEIMAGERY.H
P:\LIBS\CEGUI-0.8.7\CEGUI\INCLUDE\CEGUI\FALAGARD\LAYERSPECIFICATION.H
P:\LIBS\CEGUI-0.8.7\CEGUI\INCLUDE\CEGUI\FALAGARD\SECTIONSPECIFICATION.H
P:\LIBS\CEGUI-0.8.7\CEGUI\INCLUDE\CEGUI\FALAGARD\WIDGETCOMPONENT.H
P:\LIBS\CEGUI-0.8.7\CEGUI\INCLUDE\CEGUI\FALAGARD\DIMENSIONS.H
P:\LIBS\CEGUI-0.8.7\CEGUI\INCLUDE\CEGUI\FALAGARD\PROPERTYINITIALISER.H
P:\LIBS\CEGUI-0.8.7\CEGUI\INCLUDE\CEGUI\FALAGARD\EVENTACTION.H
P:\LIBS\CEGUI-0.8.7\CEGUI\INCLUDE\CEGUI\FALAGARD\IMAGERYSECTION.H
P:\LIBS\CEGUI-0.8.7\CEGUI\INCLUDE\CEGUI\FALAGARD\IMAGERYCOMPONENT.H
P:\LIBS\CEGUI-0.8.7\CEGUI\INCLUDE\CEGUI\FALAGARD\COMPONENTBASE.H
P:\LIBS\CEGUI-0.8.7\CEGUI\INCLUDE\CEGUI\FALAGARD\FORMATTINGSETTING.H
P:\LIBS\CEGUI-0.8.7\CEGUI\INCLUDE\CEGUI\FALAGARD\XMLENUMHELPER.H
P:\LIBS\CEGUI-0.8.7\CEGUI\INCLUDE\CEGUI\FALAGARD\TEXTCOMPONENT.H
P:\LIBS\CEGUI-0.8.7\CEGUI\INCLUDE\CEGUI\FALAGARD\FRAMECOMPONENT.H
P:\LIBS\CEGUI-0.8.7\CEGUI\INCLUDE\CEGUI\FALAGARD\PROPERTYDEFINITION.H
P:\LIBS\CEGUI-0.8.7\CEGUI\INCLUDE\CEGUI\FALAGARD\FALAGARDPROPERTYBASE.H
P:\LIBS\CEGUI-0.8.7\CEGUI\INCLUDE\CEGUI\FALAGARD\PROPERTYDEFINITIONBASE.H
P:\LIBS\CEGUI-0.8.7\CEGUI\INCLUDE\CEGUI\FALAGARD\XMLHANDLER.H
P:\LIBS\CEGUI-0.8.7\CEGUI\INCLUDE\CEGUI\FALAGARD\PROPERTYLINKDEFINITION.H
P:\LIBS\CEGUI-0.8.7\CEGUI\INCLUDE\CEGUI\FALAGARD\EVENTLINKDEFINITION.H
P:\LIBS\CEGUI-0.8.7\CEGUI\INCLUDE\CEGUI\FALAGARD\NAMEDAREA.H
P:\LIBS\CEGUI-0.8.7\CEGUI\INCLUDE\CEGUI\FALAGARD\NAMEDDEFINITIONCOLLATOR.H
P:\LIBS\CEGUI-0.8.7\CEGUI\INCLUDE\CEGUI\WIDGETS\ALL.H
P:\LIBS\CEGUI-0.8.7\CEGUI\INCLUDE\CEGUI\WIDGETS\CLIPPEDCONTAINER.H
P:\LIBS\CEGUI-0.8.7\CEGUI\INCLUDE\CEGUI\WIDGETS\COMBOBOX.H
P:\LIBS\CEGUI-0.8.7\CEGUI\INCLUDE\CEGUI\WIDGETS\COMBODROPLIST.H
P:\LIBS\CEGUI-0.8.7\CEGUI\INCLUDE\CEGUI\WIDGETS\LISTBOX.H
P:\LIBS\CEGUI-0.8.7\CEGUI\INCLUDE\CEGUI\WIDGETS\DEFAULTWINDOW.H
P:\LIBS\CEGUI-0.8.7\CEGUI\INCLUDE\CEGUI\WIDGETS\DRAGCONTAINER.H
P:\LIBS\CEGUI-0.8.7\CEGUI\INCLUDE\CEGUI\WIDGETS\EDITBOX.H
P:\LIBS\CEGUI-0.8.7\CEGUI\INCLUDE\CEGUI\WIDGETS\FRAMEWINDOW.H
P:\LIBS\CEGUI-0.8.7\CEGUI\INCLUDE\CEGUI\WIDGETS\GRIDLAYOUTCONTAINER.H
P:\LIBS\CEGUI-0.8.7\CEGUI\INCLUDE\CEGUI\WIDGETS\LAYOUTCONTAINER.H
P:\LIBS\CEGUI-0.8.7\CEGUI\INCLUDE\CEGUI\WIDGETS\GROUPBOX.H
P:\LIBS\CEGUI-0.8.7\CEGUI\INCLUDE\CEGUI\WIDGETS\HORIZONTALLAYOUTCONTAINER.H
P:\LIBS\CEGUI-0.8.7\CEGUI\INCLUDE\CEGUI\WIDGETS\SEQUENTIALLAYOUTCONTAINER.H
P:\LIBS\CEGUI-0.8.7\CEGUI\INCLUDE\CEGUI\WIDGETS\ITEMENTRY.H
P:\LIBS\CEGUI-0.8.7\CEGUI\INCLUDE\CEGUI\WIDGETS\ITEMLISTBOX.H
P:\LIBS\CEGUI-0.8.7\CEGUI\INCLUDE\CEGUI\WIDGETS\SCROLLEDITEMLISTBASE.H
P:\LIBS\CEGUI-0.8.7\CEGUI\INCLUDE\CEGUI\WIDGETS\ITEMLISTBASE.H
P:\LIBS\CEGUI-0.8.7\CEGUI\INCLUDE\CEGUI\WIDGETS\SCROLLBAR.H
P:\LIBS\CEGUI-0.8.7\CEGUI\INCLUDE\CEGUI\WIDGETS\LAYOUTCELL.H
P:\LIBS\CEGUI-0.8.7\CEGUI\INCLUDE\CEGUI\WIDGETS\LISTBOXITEM.H
P:\LIBS\CEGUI-0.8.7\CEGUI\INCLUDE\CEGUI\WIDGETS\LISTBOXTEXTITEM.H
P:\LIBS\CEGUI-0.8.7\CEGUI\INCLUDE\CEGUI\WIDGETS\LISTHEADER.H
P:\LIBS\CEGUI-0.8.7\CEGUI\INCLUDE\CEGUI\WIDGETS\LISTHEADERSEGMENT.H
P:\LIBS\CEGUI-0.8.7\CEGUI\INCLUDE\CEGUI\WIDGETS\MENUBAR.H
P:\LIBS\CEGUI-0.8.7\CEGUI\INCLUDE\CEGUI\WIDGETS\MENUBASE.H
P:\LIBS\CEGUI-0.8.7\CEGUI\INCLUDE\CEGUI\WIDGETS\MENUITEM.H
P:\LIBS\CEGUI-0.8.7\CEGUI\INCLUDE\CEGUI\WIDGETS\MULTICOLUMNLIST.H
P:\LIBS\CEGUI-0.8.7\CEGUI\INCLUDE\CEGUI\WIDGETS\MULTILINEEDITBOX.H
P:\LIBS\CEGUI-0.8.7\CEGUI\INCLUDE\CEGUI\WIDGETS\POPUPMENU.H
P:\LIBS\CEGUI-0.8.7\CEGUI\INCLUDE\CEGUI\WIDGETS\PROGRESSBAR.H
P:\LIBS\CEGUI-0.8.7\CEGUI\INCLUDE\CEGUI\WIDGETS\PUSHBUTTON.H
P:\LIBS\CEGUI-0.8.7\CEGUI\INCLUDE\CEGUI\WIDGETS\BUTTONBASE.H
P:\LIBS\CEGUI-0.8.7\CEGUI\INCLUDE\CEGUI\WIDGETS\RADIOBUTTON.H
P:\LIBS\CEGUI-0.8.7\CEGUI\INCLUDE\CEGUI\WIDGETS\TOGGLEBUTTON.H
P:\LIBS\CEGUI-0.8.7\CEGUI\INCLUDE\CEGUI\WIDGETS\SCROLLABLEPANE.H
P:\LIBS\CEGUI-0.8.7\CEGUI\INCLUDE\CEGUI\WIDGETS\SCROLLEDCONTAINER.H
P:\LIBS\CEGUI-0.8.7\CEGUI\INCLUDE\CEGUI\WIDGETS\SLIDER.H
P:\LIBS\CEGUI-0.8.7\CEGUI\INCLUDE\CEGUI\WIDGETS\SPINNER.H
P:\LIBS\CEGUI-0.8.7\CEGUI\INCLUDE\CEGUI\WIDGETS\TABBUTTON.H
P:\LIBS\CEGUI-0.8.7\CEGUI\INCLUDE\CEGUI\WIDGETS\TABCONTROL.H
P:\LIBS\CEGUI-0.8.7\CEGUI\INCLUDE\CEGUI\WIDGETS\THUMB.H
P:\LIBS\CEGUI-0.8.7\CEGUI\INCLUDE\CEGUI\WIDGETS\TITLEBAR.H
P:\LIBS\CEGUI-0.8.7\CEGUI\INCLUDE\CEGUI\WIDGETS\TOOLTIP.H
P:\LIBS\CEGUI-0.8.7\CEGUI\INCLUDE\CEGUI\WIDGETS\TREE.H
P:\LIBS\CEGUI-0.8.7\CEGUI\INCLUDE\CEGUI\WIDGETS\TREEITEM.H
P:\LIBS\CEGUI-0.8.7\CEGUI\INCLUDE\CEGUI\WIDGETS\VERTICALLAYOUTCONTAINER.H
