^P:\libs\cegui-0.8.7\build\samples\CommonDialogsDemo\CEGUICommonDialogsDemo.vcxproj
P:\libs\cegui-0.8.7\build\lib\CEGUICommonDialogsDemo_d.lib
P:\libs\cegui-0.8.7\build\lib\CEGUICommonDialogsDemo_d.exp
