^P:\LIBS\CEGUI-CEGUI-DEPENDENCIES-0ECDF3A9E49B\BUILD\SRC\EXPAT-2.0.1\CEGUI-BUILD\LIBEXPAT.DIR\DEBUG\XMLPARSE.OBJ|P:\LIBS\CEGUI-CEGUI-DEPENDENCIES-0ECDF3A9E49B\BUILD\SRC\EXPAT-2.0.1\CEGUI-BUILD\LIBEXPAT.DIR\DEBUG\XMLROLE.OBJ|P:\LIBS\CEGUI-CEGUI-DEPENDENCIES-0ECDF3A9E49B\BUILD\SRC\EXPAT-2.0.1\CEGUI-BUILD\LIBEXPAT.DIR\DEBUG\XMLTOK.OBJ
C:\WINDOWS\GLOBALIZATION\SORTING\SORTDEFAULT.NLS
C:\PROGRAM FILES (X86)\WINDOWS KITS\8.1\LIB\WINV6.3\UM\X86\KERNEL32.LIB
C:\PROGRAM FILES (X86)\WINDOWS KITS\8.1\LIB\WINV6.3\UM\X86\USER32.LIB
C:\PROGRAM FILES (X86)\WINDOWS KITS\8.1\LIB\WINV6.3\UM\X86\GDI32.LIB
C:\PROGRAM FILES (X86)\WINDOWS KITS\8.1\LIB\WINV6.3\UM\X86\WINSPOOL.LIB
C:\PROGRAM FILES (X86)\WINDOWS KITS\8.1\LIB\WINV6.3\UM\X86\SHELL32.LIB
C:\PROGRAM FILES (X86)\WINDOWS KITS\8.1\LIB\WINV6.3\UM\X86\OLE32.LIB
C:\PROGRAM FILES (X86)\WINDOWS KITS\8.1\LIB\WINV6.3\UM\X86\OLEAUT32.LIB
C:\PROGRAM FILES (X86)\WINDOWS KITS\8.1\LIB\WINV6.3\UM\X86\UUID.LIB
C:\PROGRAM FILES (X86)\WINDOWS KITS\8.1\LIB\WINV6.3\UM\X86\COMDLG32.LIB
C:\PROGRAM FILES (X86)\WINDOWS KITS\8.1\LIB\WINV6.3\UM\X86\ADVAPI32.LIB
P:\LIBS\CEGUI-CEGUI-DEPENDENCIES-0ECDF3A9E49B\BUILD\SRC\EXPAT-2.0.1\CEGUI-BUILD\LIBEXPAT.DIR\DEBUG\XMLROLE.OBJ
P:\LIBS\CEGUI-CEGUI-DEPENDENCIES-0ECDF3A9E49B\BUILD\SRC\EXPAT-2.0.1\CEGUI-BUILD\LIBEXPAT.DIR\DEBUG\XMLTOK.OBJ
P:\LIBS\CEGUI-CEGUI-DEPENDENCIES-0ECDF3A9E49B\BUILD\SRC\EXPAT-2.0.1\CEGUI-BUILD\LIBEXPAT.DIR\DEBUG\XMLPARSE.OBJ
C:\PROGRAM FILES (X86)\VC\LIB\MSVCRTD.LIB
C:\PROGRAM FILES (X86)\VC\LIB\OLDNAMES.LIB
C:\PROGRAM FILES (X86)\VC\LIB\VCRUNTIMED.LIB
C:\PROGRAM FILES (X86)\WINDOWS KITS\10\LIB\10.0.10240.0\UCRT\X86\UCRTD.LIB
P:\LIBS\CEGUI-CEGUI-DEPENDENCIES-0ECDF3A9E49B\SRC\EXPAT-2.0.1\LIB\LIBEXPAT_D.DEF
C:\WINDOWS\SYSTEM32\TZRES.DLL
C:\PROGRAM FILES (X86)\VC\BIN\1033\LINKUI.DLL
C:\PROGRAM FILES (X86)\WINDOWS KITS\8.1\BIN\X86\RC.EXE
C:\PROGRAM FILES (X86)\VC\BIN\CVTRES.EXE
