^P:\LIBS\CEGUI-0.8.7\BUILD\CEGUI\SRC\COMMONDIALOGS\CEGUICOMMONDIALOGS-0.DIR\DEBUG\COLOURPICKER.OBJ|P:\LIBS\CEGUI-0.8.7\BUILD\CEGUI\SRC\COMMONDIALOGS\CEGUICOMMONDIALOGS-0.DIR\DEBUG\CONTROLS.OBJ|P:\LIBS\CEGUI-0.8.7\BUILD\CEGUI\SRC\COMMONDIALOGS\CEGUICOMMONDIALOGS-0.DIR\DEBUG\CONVERSIONS.OBJ|P:\LIBS\CEGUI-0.8.7\BUILD\CEGUI\SRC\COMMONDIALOGS\CEGUICOMMONDIALOGS-0.DIR\DEBUG\MODULE.OBJ|P:\LIBS\CEGUI-0.8.7\BUILD\CEGUI\SRC\COMMONDIALOGS\CEGUICOMMONDIALOGS-0.DIR\DEBUG\TYPES.OBJ
P:\LIBS\CEGUI-0.8.7\BUILD\BIN\CEGUICOMMONDIALOGS-0_D.ILK
P:\LIBS\CEGUI-0.8.7\BUILD\BIN\CEGUICOMMONDIALOGS-0_D.DLL
P:\LIBS\CEGUI-0.8.7\BUILD\BIN\CEGUICOMMONDIALOGS-0_D.PDB
