^P:\libs\cegui-0.8.7\build\samples\LookNFeelOverview\CEGUILookNFeelOverviewDemo.vcxproj
P:\libs\cegui-0.8.7\build\lib\CEGUILookNFeelOverviewDemo.lib
P:\libs\cegui-0.8.7\build\lib\CEGUILookNFeelOverviewDemo.exp
