^P:\LIBS\CEGUI-CEGUI-DEPENDENCIES-0ECDF3A9E49B\BUILD\SRC\SILLY\CEGUI-BUILD\SILLY.DIR\DEBUG\SILLYDATASOURCE.OBJ|P:\LIBS\CEGUI-CEGUI-DEPENDENCIES-0ECDF3A9E49B\BUILD\SRC\SILLY\CEGUI-BUILD\SILLY.DIR\DEBUG\SILLYFILEDATASOURCE.OBJ|P:\LIBS\CEGUI-CEGUI-DEPENDENCIES-0ECDF3A9E49B\BUILD\SRC\SILLY\CEGUI-BUILD\SILLY.DIR\DEBUG\SILLYIMAGE.OBJ|P:\LIBS\CEGUI-CEGUI-DEPENDENCIES-0ECDF3A9E49B\BUILD\SRC\SILLY\CEGUI-BUILD\SILLY.DIR\DEBUG\SILLYIMAGECONTEXT.OBJ|P:\LIBS\CEGUI-CEGUI-DEPENDENCIES-0ECDF3A9E49B\BUILD\SRC\SILLY\CEGUI-BUILD\SILLY.DIR\DEBUG\SILLYIMAGELOADER.OBJ|P:\LIBS\CEGUI-CEGUI-DEPENDENCIES-0ECDF3A9E49B\BUILD\SRC\SILLY\CEGUI-BUILD\SILLY.DIR\DEBUG\SILLYIMAGELOADERMANAGER.OBJ|P:\LIBS\CEGUI-CEGUI-DEPENDENCIES-0ECDF3A9E49B\BUILD\SRC\SILLY\CEGUI-BUILD\SILLY.DIR\DEBUG\SILLYJPGIMAGECONTEXT.OBJ|P:\LIBS\CEGUI-CEGUI-DEPENDENCIES-0ECDF3A9E49B\BUILD\SRC\SILLY\CEGUI-BUILD\SILLY.DIR\DEBUG\SILLYJPGIMAGELOADER.OBJ|P:\LIBS\CEGUI-CEGUI-DEPENDENCIES-0ECDF3A9E49B\BUILD\SRC\SILLY\CEGUI-BUILD\SILLY.DIR\DEBUG\SILLYMEMORYDATASOURCE.OBJ|P:\LIBS\CEGUI-CEGUI-DEPENDENCIES-0ECDF3A9E49B\BUILD\SRC\SILLY\CEGUI-BUILD\SILLY.DIR\DEBUG\SILLYPNGIMAGECONTEXT.OBJ|P:\LIBS\CEGUI-CEGUI-DEPENDENCIES-0ECDF3A9E49B\BUILD\SRC\SILLY\CEGUI-BUILD\SILLY.DIR\DEBUG\SILLYPNGIMAGELOADER.OBJ|P:\LIBS\CEGUI-CEGUI-DEPENDENCIES-0ECDF3A9E49B\BUILD\SRC\SILLY\CEGUI-BUILD\SILLY.DIR\DEBUG\SILLYTGAIMAGECONTEXT.OBJ|P:\LIBS\CEGUI-CEGUI-DEPENDENCIES-0ECDF3A9E49B\BUILD\SRC\SILLY\CEGUI-BUILD\SILLY.DIR\DEBUG\SILLYTGAIMAGELOADER.OBJ
P:\LIBS\CEGUI-CEGUI-DEPENDENCIES-0ECDF3A9E49B\BUILD\DEPENDENCIES\BIN\SILLY_D.ILK
P:\LIBS\CEGUI-CEGUI-DEPENDENCIES-0ECDF3A9E49B\BUILD\DEPENDENCIES\BIN\SILLY_D.DLL
P:\LIBS\CEGUI-CEGUI-DEPENDENCIES-0ECDF3A9E49B\BUILD\DEPENDENCIES\BIN\SILLY_D.PDB
