# Blender v2.73 (sub 0) OBJ File: ''
# www.blender.org
o Cube
v 1.000000 0.000259 -1.000000
v 1.000000 0.000259 1.000000
v -1.000000 0.000259 1.000000
v -1.000000 0.000259 -1.000000
v 1.000000 -0.000259 -0.999999
v 0.999999 -0.000259 1.000001
v -1.000000 -0.000259 1.000000
v -1.000000 -0.000259 -1.000000
vt 1.000000 0.000000
vt 1.000000 1.000000
vt 0.000000 1.000000
vt 0.000000 0.000000
vn -0.577800 -0.577200 -0.577000
vn 0.577200 -0.577400 -0.577400
vn 0.577100 -0.577300 0.577600
vn 0.577600 0.577400 0.577000
vn 0.577400 0.577300 -0.577200
vn -0.576800 0.577500 -0.577600
vn -0.577600 0.577400 0.577000
vn -0.577000 -0.577400 0.577600
s 1
f 2/1/1 3/2/2 4/3/3
f 8/1/4 7/2/5 6/3/6
f 5/1/7 6/2/6 2/3/1
f 6/1/6 7/2/5 3/3/2
f 7/1/5 8/2/4 4/3/3
f 1/1/8 4/2/3 8/3/4
f 1/4/8 2/1/1 4/3/3
f 5/4/7 8/1/4 6/3/6
f 1/4/8 5/1/7 2/3/1
f 2/4/1 6/1/6 3/3/2
f 3/4/2 7/1/5 4/3/3
f 5/4/7 1/1/8 8/3/4
