^C:\USERS\BRAP\DOWNLOADS\LEARNMODERN3D\TUTORIAL 0.3.8\GLSDK\GLUTIL\DEBUG\DEBUG.OBJ|C:\USERS\BRAP\DOWNLOADS\LEARNMODERN3D\TUTORIAL 0.3.8\GLSDK\GLUTIL\DEBUG\MATRIXSTACK.OBJ|C:\USERS\BRAP\DOWNLOADS\LEARNMODERN3D\TUTORIAL 0.3.8\GLSDK\GLUTIL\DEBUG\MOUSEPOLES.OBJ|C:\USERS\BRAP\DOWNLOADS\LEARNMODERN3D\TUTORIAL 0.3.8\GLSDK\GLUTIL\DEBUG\SHADER.OBJ|C:\USERS\BRAP\DOWNLOADS\LEARNMODERN3D\TUTORIAL 0.3.8\GLSDK\GLUTIL\DEBUG\WINDOWPOS.OBJ
C:\WINDOWS\SYSTEM32\TZRES.DLL
C:\USERS\BRAP\DOWNLOADS\LEARNMODERN3D\TUTORIAL 0.3.8\GLSDK\GLUTIL\DEBUG\DEBUG.OBJ
C:\USERS\BRAP\DOWNLOADS\LEARNMODERN3D\TUTORIAL 0.3.8\GLSDK\GLUTIL\DEBUG\MATRIXSTACK.OBJ
C:\USERS\BRAP\DOWNLOADS\LEARNMODERN3D\TUTORIAL 0.3.8\GLSDK\GLUTIL\DEBUG\MOUSEPOLES.OBJ
C:\USERS\BRAP\DOWNLOADS\LEARNMODERN3D\TUTORIAL 0.3.8\GLSDK\GLUTIL\DEBUG\SHADER.OBJ
C:\USERS\BRAP\DOWNLOADS\LEARNMODERN3D\TUTORIAL 0.3.8\GLSDK\GLUTIL\DEBUG\WINDOWPOS.OBJ
C:\WINDOWS\GLOBALIZATION\SORTING\SORTDEFAULT.NLS
