^P:\LIBS\CEGUI-0.8.7\CEGUI\SRC\WINDOWRENDERERSETS\CORE\BUTTON.CPP
/c /I"P:\LIBS\CEGUI-0.8.7\BUILD\CEGUI\INCLUDE" /I"P:\LIBS\CEGUI-0.8.7\CEGUI\INCLUDE" /I"P:\LIBS\CEGUI-0.8.7\CEGUI\INCLUDE\WINDOWRENDERERSETS\CORE" /nologo /W3 /WX- /O2 /Ob2 /Oy- /D WIN32 /D _WINDOWS /D NDEBUG /D _CRT_SECURE_NO_WARNINGS /D NOMINMAX /D "CMAKE_INTDIR=\"Release\"" /D CEGUICOREWINDOWRENDERERSET_EXPORTS /D _WINDLL /D _MBCS /Gm- /EHsc /MD /GS /fp:precise /Zc:wchar_t /Zc:forScope /Zc:inline /GR /Fo"CEGUICOREWINDOWRENDERERSET.DIR\RELEASE\\" /Fd"CEGUICOREWINDOWRENDERERSET.DIR\RELEASE\VC140.PDB" /Gd /TP /analyze- P:\LIBS\CEGUI-0.8.7\CEGUI\SRC\WINDOWRENDERERSETS\CORE\BUTTON.CPP
^P:\LIBS\CEGUI-0.8.7\CEGUI\SRC\WINDOWRENDERERSETS\CORE\DEFAULT.CPP
/c /I"P:\LIBS\CEGUI-0.8.7\BUILD\CEGUI\INCLUDE" /I"P:\LIBS\CEGUI-0.8.7\CEGUI\INCLUDE" /I"P:\LIBS\CEGUI-0.8.7\CEGUI\INCLUDE\WINDOWRENDERERSETS\CORE" /nologo /W3 /WX- /O2 /Ob2 /Oy- /D WIN32 /D _WINDOWS /D NDEBUG /D _CRT_SECURE_NO_WARNINGS /D NOMINMAX /D "CMAKE_INTDIR=\"Release\"" /D CEGUICOREWINDOWRENDERERSET_EXPORTS /D _WINDLL /D _MBCS /Gm- /EHsc /MD /GS /fp:precise /Zc:wchar_t /Zc:forScope /Zc:inline /GR /Fo"CEGUICOREWINDOWRENDERERSET.DIR\RELEASE\\" /Fd"CEGUICOREWINDOWRENDERERSET.DIR\RELEASE\VC140.PDB" /Gd /TP /analyze- P:\LIBS\CEGUI-0.8.7\CEGUI\SRC\WINDOWRENDERERSETS\CORE\DEFAULT.CPP
^P:\LIBS\CEGUI-0.8.7\CEGUI\SRC\WINDOWRENDERERSETS\CORE\EDITBOX.CPP
/c /I"P:\LIBS\CEGUI-0.8.7\BUILD\CEGUI\INCLUDE" /I"P:\LIBS\CEGUI-0.8.7\CEGUI\INCLUDE" /I"P:\LIBS\CEGUI-0.8.7\CEGUI\INCLUDE\WINDOWRENDERERSETS\CORE" /nologo /W3 /WX- /O2 /Ob2 /Oy- /D WIN32 /D _WINDOWS /D NDEBUG /D _CRT_SECURE_NO_WARNINGS /D NOMINMAX /D "CMAKE_INTDIR=\"Release\"" /D CEGUICOREWINDOWRENDERERSET_EXPORTS /D _WINDLL /D _MBCS /Gm- /EHsc /MD /GS /fp:precise /Zc:wchar_t /Zc:forScope /Zc:inline /GR /Fo"CEGUICOREWINDOWRENDERERSET.DIR\RELEASE\\" /Fd"CEGUICOREWINDOWRENDERERSET.DIR\RELEASE\VC140.PDB" /Gd /TP /analyze- P:\LIBS\CEGUI-0.8.7\CEGUI\SRC\WINDOWRENDERERSETS\CORE\EDITBOX.CPP
^P:\LIBS\CEGUI-0.8.7\CEGUI\SRC\WINDOWRENDERERSETS\CORE\FRAMEWINDOW.CPP
/c /I"P:\LIBS\CEGUI-0.8.7\BUILD\CEGUI\INCLUDE" /I"P:\LIBS\CEGUI-0.8.7\CEGUI\INCLUDE" /I"P:\LIBS\CEGUI-0.8.7\CEGUI\INCLUDE\WINDOWRENDERERSETS\CORE" /nologo /W3 /WX- /O2 /Ob2 /Oy- /D WIN32 /D _WINDOWS /D NDEBUG /D _CRT_SECURE_NO_WARNINGS /D NOMINMAX /D "CMAKE_INTDIR=\"Release\"" /D CEGUICOREWINDOWRENDERERSET_EXPORTS /D _WINDLL /D _MBCS /Gm- /EHsc /MD /GS /fp:precise /Zc:wchar_t /Zc:forScope /Zc:inline /GR /Fo"CEGUICOREWINDOWRENDERERSET.DIR\RELEASE\\" /Fd"CEGUICOREWINDOWRENDERERSET.DIR\RELEASE\VC140.PDB" /Gd /TP /analyze- P:\LIBS\CEGUI-0.8.7\CEGUI\SRC\WINDOWRENDERERSETS\CORE\FRAMEWINDOW.CPP
^P:\LIBS\CEGUI-0.8.7\CEGUI\SRC\WINDOWRENDERERSETS\CORE\ITEMENTRY.CPP
/c /I"P:\LIBS\CEGUI-0.8.7\BUILD\CEGUI\INCLUDE" /I"P:\LIBS\CEGUI-0.8.7\CEGUI\INCLUDE" /I"P:\LIBS\CEGUI-0.8.7\CEGUI\INCLUDE\WINDOWRENDERERSETS\CORE" /nologo /W3 /WX- /O2 /Ob2 /Oy- /D WIN32 /D _WINDOWS /D NDEBUG /D _CRT_SECURE_NO_WARNINGS /D NOMINMAX /D "CMAKE_INTDIR=\"Release\"" /D CEGUICOREWINDOWRENDERERSET_EXPORTS /D _WINDLL /D _MBCS /Gm- /EHsc /MD /GS /fp:precise /Zc:wchar_t /Zc:forScope /Zc:inline /GR /Fo"CEGUICOREWINDOWRENDERERSET.DIR\RELEASE\\" /Fd"CEGUICOREWINDOWRENDERERSET.DIR\RELEASE\VC140.PDB" /Gd /TP /analyze- P:\LIBS\CEGUI-0.8.7\CEGUI\SRC\WINDOWRENDERERSETS\CORE\ITEMENTRY.CPP
^P:\LIBS\CEGUI-0.8.7\CEGUI\SRC\WINDOWRENDERERSETS\CORE\ITEMLISTBOX.CPP
/c /I"P:\LIBS\CEGUI-0.8.7\BUILD\CEGUI\INCLUDE" /I"P:\LIBS\CEGUI-0.8.7\CEGUI\INCLUDE" /I"P:\LIBS\CEGUI-0.8.7\CEGUI\INCLUDE\WINDOWRENDERERSETS\CORE" /nologo /W3 /WX- /O2 /Ob2 /Oy- /D WIN32 /D _WINDOWS /D NDEBUG /D _CRT_SECURE_NO_WARNINGS /D NOMINMAX /D "CMAKE_INTDIR=\"Release\"" /D CEGUICOREWINDOWRENDERERSET_EXPORTS /D _WINDLL /D _MBCS /Gm- /EHsc /MD /GS /fp:precise /Zc:wchar_t /Zc:forScope /Zc:inline /GR /Fo"CEGUICOREWINDOWRENDERERSET.DIR\RELEASE\\" /Fd"CEGUICOREWINDOWRENDERERSET.DIR\RELEASE\VC140.PDB" /Gd /TP /analyze- P:\LIBS\CEGUI-0.8.7\CEGUI\SRC\WINDOWRENDERERSETS\CORE\ITEMLISTBOX.CPP
^P:\LIBS\CEGUI-0.8.7\CEGUI\SRC\WINDOWRENDERERSETS\CORE\LISTHEADER.CPP
/c /I"P:\LIBS\CEGUI-0.8.7\BUILD\CEGUI\INCLUDE" /I"P:\LIBS\CEGUI-0.8.7\CEGUI\INCLUDE" /I"P:\LIBS\CEGUI-0.8.7\CEGUI\INCLUDE\WINDOWRENDERERSETS\CORE" /nologo /W3 /WX- /O2 /Ob2 /Oy- /D WIN32 /D _WINDOWS /D NDEBUG /D _CRT_SECURE_NO_WARNINGS /D NOMINMAX /D "CMAKE_INTDIR=\"Release\"" /D CEGUICOREWINDOWRENDERERSET_EXPORTS /D _WINDLL /D _MBCS /Gm- /EHsc /MD /GS /fp:precise /Zc:wchar_t /Zc:forScope /Zc:inline /GR /Fo"CEGUICOREWINDOWRENDERERSET.DIR\RELEASE\\" /Fd"CEGUICOREWINDOWRENDERERSET.DIR\RELEASE\VC140.PDB" /Gd /TP /analyze- P:\LIBS\CEGUI-0.8.7\CEGUI\SRC\WINDOWRENDERERSETS\CORE\LISTHEADER.CPP
^P:\LIBS\CEGUI-0.8.7\CEGUI\SRC\WINDOWRENDERERSETS\CORE\LISTHEADERSEGMENT.CPP
/c /I"P:\LIBS\CEGUI-0.8.7\BUILD\CEGUI\INCLUDE" /I"P:\LIBS\CEGUI-0.8.7\CEGUI\INCLUDE" /I"P:\LIBS\CEGUI-0.8.7\CEGUI\INCLUDE\WINDOWRENDERERSETS\CORE" /nologo /W3 /WX- /O2 /Ob2 /Oy- /D WIN32 /D _WINDOWS /D NDEBUG /D _CRT_SECURE_NO_WARNINGS /D NOMINMAX /D "CMAKE_INTDIR=\"Release\"" /D CEGUICOREWINDOWRENDERERSET_EXPORTS /D _WINDLL /D _MBCS /Gm- /EHsc /MD /GS /fp:precise /Zc:wchar_t /Zc:forScope /Zc:inline /GR /Fo"CEGUICOREWINDOWRENDERERSET.DIR\RELEASE\\" /Fd"CEGUICOREWINDOWRENDERERSET.DIR\RELEASE\VC140.PDB" /Gd /TP /analyze- P:\LIBS\CEGUI-0.8.7\CEGUI\SRC\WINDOWRENDERERSETS\CORE\LISTHEADERSEGMENT.CPP
^P:\LIBS\CEGUI-0.8.7\CEGUI\SRC\WINDOWRENDERERSETS\CORE\LISTBOX.CPP
/c /I"P:\LIBS\CEGUI-0.8.7\BUILD\CEGUI\INCLUDE" /I"P:\LIBS\CEGUI-0.8.7\CEGUI\INCLUDE" /I"P:\LIBS\CEGUI-0.8.7\CEGUI\INCLUDE\WINDOWRENDERERSETS\CORE" /nologo /W3 /WX- /O2 /Ob2 /Oy- /D WIN32 /D _WINDOWS /D NDEBUG /D _CRT_SECURE_NO_WARNINGS /D NOMINMAX /D "CMAKE_INTDIR=\"Release\"" /D CEGUICOREWINDOWRENDERERSET_EXPORTS /D _WINDLL /D _MBCS /Gm- /EHsc /MD /GS /fp:precise /Zc:wchar_t /Zc:forScope /Zc:inline /GR /Fo"CEGUICOREWINDOWRENDERERSET.DIR\RELEASE\\" /Fd"CEGUICOREWINDOWRENDERERSET.DIR\RELEASE\VC140.PDB" /Gd /TP /analyze- P:\LIBS\CEGUI-0.8.7\CEGUI\SRC\WINDOWRENDERERSETS\CORE\LISTBOX.CPP
^P:\LIBS\CEGUI-0.8.7\CEGUI\SRC\WINDOWRENDERERSETS\CORE\MENUITEM.CPP
/c /I"P:\LIBS\CEGUI-0.8.7\BUILD\CEGUI\INCLUDE" /I"P:\LIBS\CEGUI-0.8.7\CEGUI\INCLUDE" /I"P:\LIBS\CEGUI-0.8.7\CEGUI\INCLUDE\WINDOWRENDERERSETS\CORE" /nologo /W3 /WX- /O2 /Ob2 /Oy- /D WIN32 /D _WINDOWS /D NDEBUG /D _CRT_SECURE_NO_WARNINGS /D NOMINMAX /D "CMAKE_INTDIR=\"Release\"" /D CEGUICOREWINDOWRENDERERSET_EXPORTS /D _WINDLL /D _MBCS /Gm- /EHsc /MD /GS /fp:precise /Zc:wchar_t /Zc:forScope /Zc:inline /GR /Fo"CEGUICOREWINDOWRENDERERSET.DIR\RELEASE\\" /Fd"CEGUICOREWINDOWRENDERERSET.DIR\RELEASE\VC140.PDB" /Gd /TP /analyze- P:\LIBS\CEGUI-0.8.7\CEGUI\SRC\WINDOWRENDERERSETS\CORE\MENUITEM.CPP
^P:\LIBS\CEGUI-0.8.7\CEGUI\SRC\WINDOWRENDERERSETS\CORE\MENUBAR.CPP
/c /I"P:\LIBS\CEGUI-0.8.7\BUILD\CEGUI\INCLUDE" /I"P:\LIBS\CEGUI-0.8.7\CEGUI\INCLUDE" /I"P:\LIBS\CEGUI-0.8.7\CEGUI\INCLUDE\WINDOWRENDERERSETS\CORE" /nologo /W3 /WX- /O2 /Ob2 /Oy- /D WIN32 /D _WINDOWS /D NDEBUG /D _CRT_SECURE_NO_WARNINGS /D NOMINMAX /D "CMAKE_INTDIR=\"Release\"" /D CEGUICOREWINDOWRENDERERSET_EXPORTS /D _WINDLL /D _MBCS /Gm- /EHsc /MD /GS /fp:precise /Zc:wchar_t /Zc:forScope /Zc:inline /GR /Fo"CEGUICOREWINDOWRENDERERSET.DIR\RELEASE\\" /Fd"CEGUICOREWINDOWRENDERERSET.DIR\RELEASE\VC140.PDB" /Gd /TP /analyze- P:\LIBS\CEGUI-0.8.7\CEGUI\SRC\WINDOWRENDERERSETS\CORE\MENUBAR.CPP
^P:\LIBS\CEGUI-0.8.7\CEGUI\SRC\WINDOWRENDERERSETS\CORE\MODULE.CPP
/c /I"P:\LIBS\CEGUI-0.8.7\BUILD\CEGUI\INCLUDE" /I"P:\LIBS\CEGUI-0.8.7\CEGUI\INCLUDE" /I"P:\LIBS\CEGUI-0.8.7\CEGUI\INCLUDE\WINDOWRENDERERSETS\CORE" /nologo /W3 /WX- /O2 /Ob2 /Oy- /D WIN32 /D _WINDOWS /D NDEBUG /D _CRT_SECURE_NO_WARNINGS /D NOMINMAX /D "CMAKE_INTDIR=\"Release\"" /D CEGUICOREWINDOWRENDERERSET_EXPORTS /D _WINDLL /D _MBCS /Gm- /EHsc /MD /GS /fp:precise /Zc:wchar_t /Zc:forScope /Zc:inline /GR /Fo"CEGUICOREWINDOWRENDERERSET.DIR\RELEASE\\" /Fd"CEGUICOREWINDOWRENDERERSET.DIR\RELEASE\VC140.PDB" /Gd /TP /analyze- P:\LIBS\CEGUI-0.8.7\CEGUI\SRC\WINDOWRENDERERSETS\CORE\MODULE.CPP
^P:\LIBS\CEGUI-0.8.7\CEGUI\SRC\WINDOWRENDERERSETS\CORE\MULTICOLUMNLIST.CPP
/c /I"P:\LIBS\CEGUI-0.8.7\BUILD\CEGUI\INCLUDE" /I"P:\LIBS\CEGUI-0.8.7\CEGUI\INCLUDE" /I"P:\LIBS\CEGUI-0.8.7\CEGUI\INCLUDE\WINDOWRENDERERSETS\CORE" /nologo /W3 /WX- /O2 /Ob2 /Oy- /D WIN32 /D _WINDOWS /D NDEBUG /D _CRT_SECURE_NO_WARNINGS /D NOMINMAX /D "CMAKE_INTDIR=\"Release\"" /D CEGUICOREWINDOWRENDERERSET_EXPORTS /D _WINDLL /D _MBCS /Gm- /EHsc /MD /GS /fp:precise /Zc:wchar_t /Zc:forScope /Zc:inline /GR /Fo"CEGUICOREWINDOWRENDERERSET.DIR\RELEASE\\" /Fd"CEGUICOREWINDOWRENDERERSET.DIR\RELEASE\VC140.PDB" /Gd /TP /analyze- P:\LIBS\CEGUI-0.8.7\CEGUI\SRC\WINDOWRENDERERSETS\CORE\MULTICOLUMNLIST.CPP
^P:\LIBS\CEGUI-0.8.7\CEGUI\SRC\WINDOWRENDERERSETS\CORE\MULTILINEEDITBOX.CPP
/c /I"P:\LIBS\CEGUI-0.8.7\BUILD\CEGUI\INCLUDE" /I"P:\LIBS\CEGUI-0.8.7\CEGUI\INCLUDE" /I"P:\LIBS\CEGUI-0.8.7\CEGUI\INCLUDE\WINDOWRENDERERSETS\CORE" /nologo /W3 /WX- /O2 /Ob2 /Oy- /D WIN32 /D _WINDOWS /D NDEBUG /D _CRT_SECURE_NO_WARNINGS /D NOMINMAX /D "CMAKE_INTDIR=\"Release\"" /D CEGUICOREWINDOWRENDERERSET_EXPORTS /D _WINDLL /D _MBCS /Gm- /EHsc /MD /GS /fp:precise /Zc:wchar_t /Zc:forScope /Zc:inline /GR /Fo"CEGUICOREWINDOWRENDERERSET.DIR\RELEASE\\" /Fd"CEGUICOREWINDOWRENDERERSET.DIR\RELEASE\VC140.PDB" /Gd /TP /analyze- P:\LIBS\CEGUI-0.8.7\CEGUI\SRC\WINDOWRENDERERSETS\CORE\MULTILINEEDITBOX.CPP
^P:\LIBS\CEGUI-0.8.7\CEGUI\SRC\WINDOWRENDERERSETS\CORE\POPUPMENU.CPP
/c /I"P:\LIBS\CEGUI-0.8.7\BUILD\CEGUI\INCLUDE" /I"P:\LIBS\CEGUI-0.8.7\CEGUI\INCLUDE" /I"P:\LIBS\CEGUI-0.8.7\CEGUI\INCLUDE\WINDOWRENDERERSETS\CORE" /nologo /W3 /WX- /O2 /Ob2 /Oy- /D WIN32 /D _WINDOWS /D NDEBUG /D _CRT_SECURE_NO_WARNINGS /D NOMINMAX /D "CMAKE_INTDIR=\"Release\"" /D CEGUICOREWINDOWRENDERERSET_EXPORTS /D _WINDLL /D _MBCS /Gm- /EHsc /MD /GS /fp:precise /Zc:wchar_t /Zc:forScope /Zc:inline /GR /Fo"CEGUICOREWINDOWRENDERERSET.DIR\RELEASE\\" /Fd"CEGUICOREWINDOWRENDERERSET.DIR\RELEASE\VC140.PDB" /Gd /TP /analyze- P:\LIBS\CEGUI-0.8.7\CEGUI\SRC\WINDOWRENDERERSETS\CORE\POPUPMENU.CPP
^P:\LIBS\CEGUI-0.8.7\CEGUI\SRC\WINDOWRENDERERSETS\CORE\PROGRESSBAR.CPP
/c /I"P:\LIBS\CEGUI-0.8.7\BUILD\CEGUI\INCLUDE" /I"P:\LIBS\CEGUI-0.8.7\CEGUI\INCLUDE" /I"P:\LIBS\CEGUI-0.8.7\CEGUI\INCLUDE\WINDOWRENDERERSETS\CORE" /nologo /W3 /WX- /O2 /Ob2 /Oy- /D WIN32 /D _WINDOWS /D NDEBUG /D _CRT_SECURE_NO_WARNINGS /D NOMINMAX /D "CMAKE_INTDIR=\"Release\"" /D CEGUICOREWINDOWRENDERERSET_EXPORTS /D _WINDLL /D _MBCS /Gm- /EHsc /MD /GS /fp:precise /Zc:wchar_t /Zc:forScope /Zc:inline /GR /Fo"CEGUICOREWINDOWRENDERERSET.DIR\RELEASE\\" /Fd"CEGUICOREWINDOWRENDERERSET.DIR\RELEASE\VC140.PDB" /Gd /TP /analyze- P:\LIBS\CEGUI-0.8.7\CEGUI\SRC\WINDOWRENDERERSETS\CORE\PROGRESSBAR.CPP
^P:\LIBS\CEGUI-0.8.7\CEGUI\SRC\WINDOWRENDERERSETS\CORE\SCROLLABLEPANE.CPP
/c /I"P:\LIBS\CEGUI-0.8.7\BUILD\CEGUI\INCLUDE" /I"P:\LIBS\CEGUI-0.8.7\CEGUI\INCLUDE" /I"P:\LIBS\CEGUI-0.8.7\CEGUI\INCLUDE\WINDOWRENDERERSETS\CORE" /nologo /W3 /WX- /O2 /Ob2 /Oy- /D WIN32 /D _WINDOWS /D NDEBUG /D _CRT_SECURE_NO_WARNINGS /D NOMINMAX /D "CMAKE_INTDIR=\"Release\"" /D CEGUICOREWINDOWRENDERERSET_EXPORTS /D _WINDLL /D _MBCS /Gm- /EHsc /MD /GS /fp:precise /Zc:wchar_t /Zc:forScope /Zc:inline /GR /Fo"CEGUICOREWINDOWRENDERERSET.DIR\RELEASE\\" /Fd"CEGUICOREWINDOWRENDERERSET.DIR\RELEASE\VC140.PDB" /Gd /TP /analyze- P:\LIBS\CEGUI-0.8.7\CEGUI\SRC\WINDOWRENDERERSETS\CORE\SCROLLABLEPANE.CPP
^P:\LIBS\CEGUI-0.8.7\CEGUI\SRC\WINDOWRENDERERSETS\CORE\SCROLLBAR.CPP
/c /I"P:\LIBS\CEGUI-0.8.7\BUILD\CEGUI\INCLUDE" /I"P:\LIBS\CEGUI-0.8.7\CEGUI\INCLUDE" /I"P:\LIBS\CEGUI-0.8.7\CEGUI\INCLUDE\WINDOWRENDERERSETS\CORE" /nologo /W3 /WX- /O2 /Ob2 /Oy- /D WIN32 /D _WINDOWS /D NDEBUG /D _CRT_SECURE_NO_WARNINGS /D NOMINMAX /D "CMAKE_INTDIR=\"Release\"" /D CEGUICOREWINDOWRENDERERSET_EXPORTS /D _WINDLL /D _MBCS /Gm- /EHsc /MD /GS /fp:precise /Zc:wchar_t /Zc:forScope /Zc:inline /GR /Fo"CEGUICOREWINDOWRENDERERSET.DIR\RELEASE\\" /Fd"CEGUICOREWINDOWRENDERERSET.DIR\RELEASE\VC140.PDB" /Gd /TP /analyze- P:\LIBS\CEGUI-0.8.7\CEGUI\SRC\WINDOWRENDERERSETS\CORE\SCROLLBAR.CPP
^P:\LIBS\CEGUI-0.8.7\CEGUI\SRC\WINDOWRENDERERSETS\CORE\SLIDER.CPP
/c /I"P:\LIBS\CEGUI-0.8.7\BUILD\CEGUI\INCLUDE" /I"P:\LIBS\CEGUI-0.8.7\CEGUI\INCLUDE" /I"P:\LIBS\CEGUI-0.8.7\CEGUI\INCLUDE\WINDOWRENDERERSETS\CORE" /nologo /W3 /WX- /O2 /Ob2 /Oy- /D WIN32 /D _WINDOWS /D NDEBUG /D _CRT_SECURE_NO_WARNINGS /D NOMINMAX /D "CMAKE_INTDIR=\"Release\"" /D CEGUICOREWINDOWRENDERERSET_EXPORTS /D _WINDLL /D _MBCS /Gm- /EHsc /MD /GS /fp:precise /Zc:wchar_t /Zc:forScope /Zc:inline /GR /Fo"CEGUICOREWINDOWRENDERERSET.DIR\RELEASE\\" /Fd"CEGUICOREWINDOWRENDERERSET.DIR\RELEASE\VC140.PDB" /Gd /TP /analyze- P:\LIBS\CEGUI-0.8.7\CEGUI\SRC\WINDOWRENDERERSETS\CORE\SLIDER.CPP
^P:\LIBS\CEGUI-0.8.7\CEGUI\SRC\WINDOWRENDERERSETS\CORE\STATIC.CPP
/c /I"P:\LIBS\CEGUI-0.8.7\BUILD\CEGUI\INCLUDE" /I"P:\LIBS\CEGUI-0.8.7\CEGUI\INCLUDE" /I"P:\LIBS\CEGUI-0.8.7\CEGUI\INCLUDE\WINDOWRENDERERSETS\CORE" /nologo /W3 /WX- /O2 /Ob2 /Oy- /D WIN32 /D _WINDOWS /D NDEBUG /D _CRT_SECURE_NO_WARNINGS /D NOMINMAX /D "CMAKE_INTDIR=\"Release\"" /D CEGUICOREWINDOWRENDERERSET_EXPORTS /D _WINDLL /D _MBCS /Gm- /EHsc /MD /GS /fp:precise /Zc:wchar_t /Zc:forScope /Zc:inline /GR /Fo"CEGUICOREWINDOWRENDERERSET.DIR\RELEASE\\" /Fd"CEGUICOREWINDOWRENDERERSET.DIR\RELEASE\VC140.PDB" /Gd /TP /analyze- P:\LIBS\CEGUI-0.8.7\CEGUI\SRC\WINDOWRENDERERSETS\CORE\STATIC.CPP
^P:\LIBS\CEGUI-0.8.7\CEGUI\SRC\WINDOWRENDERERSETS\CORE\STATICIMAGE.CPP
/c /I"P:\LIBS\CEGUI-0.8.7\BUILD\CEGUI\INCLUDE" /I"P:\LIBS\CEGUI-0.8.7\CEGUI\INCLUDE" /I"P:\LIBS\CEGUI-0.8.7\CEGUI\INCLUDE\WINDOWRENDERERSETS\CORE" /nologo /W3 /WX- /O2 /Ob2 /Oy- /D WIN32 /D _WINDOWS /D NDEBUG /D _CRT_SECURE_NO_WARNINGS /D NOMINMAX /D "CMAKE_INTDIR=\"Release\"" /D CEGUICOREWINDOWRENDERERSET_EXPORTS /D _WINDLL /D _MBCS /Gm- /EHsc /MD /GS /fp:precise /Zc:wchar_t /Zc:forScope /Zc:inline /GR /Fo"CEGUICOREWINDOWRENDERERSET.DIR\RELEASE\\" /Fd"CEGUICOREWINDOWRENDERERSET.DIR\RELEASE\VC140.PDB" /Gd /TP /analyze- P:\LIBS\CEGUI-0.8.7\CEGUI\SRC\WINDOWRENDERERSETS\CORE\STATICIMAGE.CPP
^P:\LIBS\CEGUI-0.8.7\CEGUI\SRC\WINDOWRENDERERSETS\CORE\STATICTEXT.CPP
/c /I"P:\LIBS\CEGUI-0.8.7\BUILD\CEGUI\INCLUDE" /I"P:\LIBS\CEGUI-0.8.7\CEGUI\INCLUDE" /I"P:\LIBS\CEGUI-0.8.7\CEGUI\INCLUDE\WINDOWRENDERERSETS\CORE" /nologo /W3 /WX- /O2 /Ob2 /Oy- /D WIN32 /D _WINDOWS /D NDEBUG /D _CRT_SECURE_NO_WARNINGS /D NOMINMAX /D "CMAKE_INTDIR=\"Release\"" /D CEGUICOREWINDOWRENDERERSET_EXPORTS /D _WINDLL /D _MBCS /Gm- /EHsc /MD /GS /fp:precise /Zc:wchar_t /Zc:forScope /Zc:inline /GR /Fo"CEGUICOREWINDOWRENDERERSET.DIR\RELEASE\\" /Fd"CEGUICOREWINDOWRENDERERSET.DIR\RELEASE\VC140.PDB" /Gd /TP /analyze- P:\LIBS\CEGUI-0.8.7\CEGUI\SRC\WINDOWRENDERERSETS\CORE\STATICTEXT.CPP
^P:\LIBS\CEGUI-0.8.7\CEGUI\SRC\WINDOWRENDERERSETS\CORE\TABBUTTON.CPP
/c /I"P:\LIBS\CEGUI-0.8.7\BUILD\CEGUI\INCLUDE" /I"P:\LIBS\CEGUI-0.8.7\CEGUI\INCLUDE" /I"P:\LIBS\CEGUI-0.8.7\CEGUI\INCLUDE\WINDOWRENDERERSETS\CORE" /nologo /W3 /WX- /O2 /Ob2 /Oy- /D WIN32 /D _WINDOWS /D NDEBUG /D _CRT_SECURE_NO_WARNINGS /D NOMINMAX /D "CMAKE_INTDIR=\"Release\"" /D CEGUICOREWINDOWRENDERERSET_EXPORTS /D _WINDLL /D _MBCS /Gm- /EHsc /MD /GS /fp:precise /Zc:wchar_t /Zc:forScope /Zc:inline /GR /Fo"CEGUICOREWINDOWRENDERERSET.DIR\RELEASE\\" /Fd"CEGUICOREWINDOWRENDERERSET.DIR\RELEASE\VC140.PDB" /Gd /TP /analyze- P:\LIBS\CEGUI-0.8.7\CEGUI\SRC\WINDOWRENDERERSETS\CORE\TABBUTTON.CPP
^P:\LIBS\CEGUI-0.8.7\CEGUI\SRC\WINDOWRENDERERSETS\CORE\TABCONTROL.CPP
/c /I"P:\LIBS\CEGUI-0.8.7\BUILD\CEGUI\INCLUDE" /I"P:\LIBS\CEGUI-0.8.7\CEGUI\INCLUDE" /I"P:\LIBS\CEGUI-0.8.7\CEGUI\INCLUDE\WINDOWRENDERERSETS\CORE" /nologo /W3 /WX- /O2 /Ob2 /Oy- /D WIN32 /D _WINDOWS /D NDEBUG /D _CRT_SECURE_NO_WARNINGS /D NOMINMAX /D "CMAKE_INTDIR=\"Release\"" /D CEGUICOREWINDOWRENDERERSET_EXPORTS /D _WINDLL /D _MBCS /Gm- /EHsc /MD /GS /fp:precise /Zc:wchar_t /Zc:forScope /Zc:inline /GR /Fo"CEGUICOREWINDOWRENDERERSET.DIR\RELEASE\\" /Fd"CEGUICOREWINDOWRENDERERSET.DIR\RELEASE\VC140.PDB" /Gd /TP /analyze- P:\LIBS\CEGUI-0.8.7\CEGUI\SRC\WINDOWRENDERERSETS\CORE\TABCONTROL.CPP
^P:\LIBS\CEGUI-0.8.7\CEGUI\SRC\WINDOWRENDERERSETS\CORE\TITLEBAR.CPP
/c /I"P:\LIBS\CEGUI-0.8.7\BUILD\CEGUI\INCLUDE" /I"P:\LIBS\CEGUI-0.8.7\CEGUI\INCLUDE" /I"P:\LIBS\CEGUI-0.8.7\CEGUI\INCLUDE\WINDOWRENDERERSETS\CORE" /nologo /W3 /WX- /O2 /Ob2 /Oy- /D WIN32 /D _WINDOWS /D NDEBUG /D _CRT_SECURE_NO_WARNINGS /D NOMINMAX /D "CMAKE_INTDIR=\"Release\"" /D CEGUICOREWINDOWRENDERERSET_EXPORTS /D _WINDLL /D _MBCS /Gm- /EHsc /MD /GS /fp:precise /Zc:wchar_t /Zc:forScope /Zc:inline /GR /Fo"CEGUICOREWINDOWRENDERERSET.DIR\RELEASE\\" /Fd"CEGUICOREWINDOWRENDERERSET.DIR\RELEASE\VC140.PDB" /Gd /TP /analyze- P:\LIBS\CEGUI-0.8.7\CEGUI\SRC\WINDOWRENDERERSETS\CORE\TITLEBAR.CPP
^P:\LIBS\CEGUI-0.8.7\CEGUI\SRC\WINDOWRENDERERSETS\CORE\TOGGLEBUTTON.CPP
/c /I"P:\LIBS\CEGUI-0.8.7\BUILD\CEGUI\INCLUDE" /I"P:\LIBS\CEGUI-0.8.7\CEGUI\INCLUDE" /I"P:\LIBS\CEGUI-0.8.7\CEGUI\INCLUDE\WINDOWRENDERERSETS\CORE" /nologo /W3 /WX- /O2 /Ob2 /Oy- /D WIN32 /D _WINDOWS /D NDEBUG /D _CRT_SECURE_NO_WARNINGS /D NOMINMAX /D "CMAKE_INTDIR=\"Release\"" /D CEGUICOREWINDOWRENDERERSET_EXPORTS /D _WINDLL /D _MBCS /Gm- /EHsc /MD /GS /fp:precise /Zc:wchar_t /Zc:forScope /Zc:inline /GR /Fo"CEGUICOREWINDOWRENDERERSET.DIR\RELEASE\\" /Fd"CEGUICOREWINDOWRENDERERSET.DIR\RELEASE\VC140.PDB" /Gd /TP /analyze- P:\LIBS\CEGUI-0.8.7\CEGUI\SRC\WINDOWRENDERERSETS\CORE\TOGGLEBUTTON.CPP
^P:\LIBS\CEGUI-0.8.7\CEGUI\SRC\WINDOWRENDERERSETS\CORE\TOOLTIP.CPP
/c /I"P:\LIBS\CEGUI-0.8.7\BUILD\CEGUI\INCLUDE" /I"P:\LIBS\CEGUI-0.8.7\CEGUI\INCLUDE" /I"P:\LIBS\CEGUI-0.8.7\CEGUI\INCLUDE\WINDOWRENDERERSETS\CORE" /nologo /W3 /WX- /O2 /Ob2 /Oy- /D WIN32 /D _WINDOWS /D NDEBUG /D _CRT_SECURE_NO_WARNINGS /D NOMINMAX /D "CMAKE_INTDIR=\"Release\"" /D CEGUICOREWINDOWRENDERERSET_EXPORTS /D _WINDLL /D _MBCS /Gm- /EHsc /MD /GS /fp:precise /Zc:wchar_t /Zc:forScope /Zc:inline /GR /Fo"CEGUICOREWINDOWRENDERERSET.DIR\RELEASE\\" /Fd"CEGUICOREWINDOWRENDERERSET.DIR\RELEASE\VC140.PDB" /Gd /TP /analyze- P:\LIBS\CEGUI-0.8.7\CEGUI\SRC\WINDOWRENDERERSETS\CORE\TOOLTIP.CPP
^P:\LIBS\CEGUI-0.8.7\CEGUI\SRC\WINDOWRENDERERSETS\CORE\TREE.CPP
/c /I"P:\LIBS\CEGUI-0.8.7\BUILD\CEGUI\INCLUDE" /I"P:\LIBS\CEGUI-0.8.7\CEGUI\INCLUDE" /I"P:\LIBS\CEGUI-0.8.7\CEGUI\INCLUDE\WINDOWRENDERERSETS\CORE" /nologo /W3 /WX- /O2 /Ob2 /Oy- /D WIN32 /D _WINDOWS /D NDEBUG /D _CRT_SECURE_NO_WARNINGS /D NOMINMAX /D "CMAKE_INTDIR=\"Release\"" /D CEGUICOREWINDOWRENDERERSET_EXPORTS /D _WINDLL /D _MBCS /Gm- /EHsc /MD /GS /fp:precise /Zc:wchar_t /Zc:forScope /Zc:inline /GR /Fo"CEGUICOREWINDOWRENDERERSET.DIR\RELEASE\\" /Fd"CEGUICOREWINDOWRENDERERSET.DIR\RELEASE\VC140.PDB" /Gd /TP /analyze- P:\LIBS\CEGUI-0.8.7\CEGUI\SRC\WINDOWRENDERERSETS\CORE\TREE.CPP
