^P:\LIBS\CEGUI-0.8.7\BUILD\CEGUI\SRC\COMMONDIALOGS\CEGUICOMMONDIALOGS-0.DIR\RELEASE\COLOURPICKER.OBJ|P:\LIBS\CEGUI-0.8.7\BUILD\CEGUI\SRC\COMMONDIALOGS\CEGUICOMMONDIALOGS-0.DIR\RELEASE\CONTROLS.OBJ|P:\LIBS\CEGUI-0.8.7\BUILD\CEGUI\SRC\COMMONDIALOGS\CEGUICOMMONDIALOGS-0.DIR\RELEASE\CONVERSIONS.OBJ|P:\LIBS\CEGUI-0.8.7\BUILD\CEGUI\SRC\COMMONDIALOGS\CEGUICOMMONDIALOGS-0.DIR\RELEASE\MODULE.OBJ|P:\LIBS\CEGUI-0.8.7\BUILD\CEGUI\SRC\COMMONDIALOGS\CEGUICOMMONDIALOGS-0.DIR\RELEASE\TYPES.OBJ
C:\WINDOWS\GLOBALIZATION\SORTING\SORTDEFAULT.NLS
C:\PROGRAM FILES (X86)\WINDOWS KITS\8.1\LIB\WINV6.3\UM\X86\KERNEL32.LIB
C:\PROGRAM FILES (X86)\WINDOWS KITS\8.1\LIB\WINV6.3\UM\X86\USER32.LIB
C:\PROGRAM FILES (X86)\WINDOWS KITS\8.1\LIB\WINV6.3\UM\X86\GDI32.LIB
C:\PROGRAM FILES (X86)\WINDOWS KITS\8.1\LIB\WINV6.3\UM\X86\WINSPOOL.LIB
C:\PROGRAM FILES (X86)\WINDOWS KITS\8.1\LIB\WINV6.3\UM\X86\SHELL32.LIB
C:\PROGRAM FILES (X86)\WINDOWS KITS\8.1\LIB\WINV6.3\UM\X86\OLE32.LIB
C:\PROGRAM FILES (X86)\WINDOWS KITS\8.1\LIB\WINV6.3\UM\X86\OLEAUT32.LIB
C:\PROGRAM FILES (X86)\WINDOWS KITS\8.1\LIB\WINV6.3\UM\X86\UUID.LIB
C:\PROGRAM FILES (X86)\WINDOWS KITS\8.1\LIB\WINV6.3\UM\X86\COMDLG32.LIB
C:\PROGRAM FILES (X86)\WINDOWS KITS\8.1\LIB\WINV6.3\UM\X86\ADVAPI32.LIB
P:\LIBS\CEGUI-0.8.7\BUILD\LIB\CEGUIBASE-0.LIB
P:\LIBS\CEGUI-0.8.7\DEPENDENCIES\LIB\DYNAMIC\FREETYPE.LIB
P:\LIBS\CEGUI-0.8.7\DEPENDENCIES\LIB\DYNAMIC\PCRE.LIB
C:\PROGRAM FILES (X86)\WINDOWS KITS\8.1\LIB\WINV6.3\UM\X86\WINMM.LIB
P:\LIBS\CEGUI-0.8.7\BUILD\CEGUI\SRC\COMMONDIALOGS\CEGUICOMMONDIALOGS-0.DIR\RELEASE\MODULE.OBJ
P:\LIBS\CEGUI-0.8.7\BUILD\CEGUI\SRC\COMMONDIALOGS\CEGUICOMMONDIALOGS-0.DIR\RELEASE\COLOURPICKER.OBJ
P:\LIBS\CEGUI-0.8.7\BUILD\CEGUI\SRC\COMMONDIALOGS\CEGUICOMMONDIALOGS-0.DIR\RELEASE\CONTROLS.OBJ
P:\LIBS\CEGUI-0.8.7\BUILD\CEGUI\SRC\COMMONDIALOGS\CEGUICOMMONDIALOGS-0.DIR\RELEASE\CONVERSIONS.OBJ
P:\LIBS\CEGUI-0.8.7\BUILD\CEGUI\SRC\COMMONDIALOGS\CEGUICOMMONDIALOGS-0.DIR\RELEASE\TYPES.OBJ
C:\PROGRAM FILES (X86)\VC\LIB\MSVCPRT.LIB
C:\PROGRAM FILES (X86)\VC\LIB\MSVCRT.LIB
C:\PROGRAM FILES (X86)\VC\LIB\OLDNAMES.LIB
C:\PROGRAM FILES (X86)\VC\LIB\VCRUNTIME.LIB
C:\PROGRAM FILES (X86)\WINDOWS KITS\10\LIB\10.0.10240.0\UCRT\X86\UCRT.LIB
C:\WINDOWS\SYSTEM32\TZRES.DLL
C:\PROGRAM FILES (X86)\VC\BIN\1033\LINKUI.DLL
C:\PROGRAM FILES (X86)\WINDOWS KITS\8.1\BIN\X86\RC.EXE
C:\PROGRAM FILES (X86)\VC\BIN\CVTRES.EXE
