^P:\LIBS\CEGUI-0.8.7\SAMPLES\EFFECTSDEMO\EFFECTSDEMO.CPP
P:\LIBS\CEGUI-0.8.7\BUILD\SAMPLES\EFFECTSDEMO\CEGUIEFFECTSDEMO.DIR\DEBUG\VC140.PDB
P:\LIBS\CEGUI-0.8.7\BUILD\SAMPLES\EFFECTSDEMO\CEGUIEFFECTSDEMO.DIR\DEBUG\EFFECTSDEMO.OBJ
