^P:\LIBS\CEGUI-0.8.7\BUILD\SAMPLES\EFFECTSDEMO\CEGUIEFFECTSDEMO.DIR\DEBUG\EFFECTSDEMO.OBJ
P:\LIBS\CEGUI-0.8.7\BUILD\BIN\CEGUIEFFECTSDEMO_D.ILK
P:\LIBS\CEGUI-0.8.7\BUILD\BIN\CEGUIEFFECTSDEMO_D.DLL
P:\LIBS\CEGUI-0.8.7\BUILD\BIN\CEGUIEFFECTSDEMO_D.PDB
