^P:\LIBS\CEGUI-0.8.7\BUILD\SAMPLES\GAMEMENU\CEGUIGAMEMENUDEMO.DIR\DEBUG\GAMEMENU.OBJ
P:\LIBS\CEGUI-0.8.7\BUILD\BIN\CEGUIGAMEMENUDEMO_D.ILK
P:\LIBS\CEGUI-0.8.7\BUILD\BIN\CEGUIGAMEMENUDEMO_D.DLL
P:\LIBS\CEGUI-0.8.7\BUILD\BIN\CEGUIGAMEMENUDEMO_D.PDB
