^P:\LIBS\CEGUI-CEGUI-DEPENDENCIES-0ECDF3A9E49B\CMAKELISTS.TXT
P:\LIBS\CEGUI-CEGUI-DEPENDENCIES-0ECDF3A9E49B\BUILD\CMAKEFILES\GENERATE.STAMP
^P:\LIBS\CEGUI-CEGUI-DEPENDENCIES-0ECDF3A9E49B\BUILD\CMAKEFILES\87465F86125B022F0CCBC5D660879810\POST_BUILD_CLEANUP.RULE
P:\LIBS\CEGUI-CEGUI-DEPENDENCIES-0ECDF3A9E49B\BUILD\CMAKEFILES\POST_BUILD_CLEANUP
