^P:\LIBS\CEGUI-0.8.7\CMAKELISTS.TXT
P:\LIBS\CEGUI-0.8.7\BUILD\CMAKEFILES\3.7.1\CMAKESYSTEM.CMAKE
F:\CMAKE-3.7.1-WIN64-X64\SHARE\CMAKE-3.7\MODULES\CMAKESYSTEMSPECIFICINITIALIZE.CMAKE
P:\LIBS\CEGUI-0.8.7\BUILD\CMAKEFILES\3.7.1\CMAKECCOMPILER.CMAKE
P:\LIBS\CEGUI-0.8.7\BUILD\CMAKEFILES\3.7.1\CMAKECXXCOMPILER.CMAKE
F:\CMAKE-3.7.1-WIN64-X64\SHARE\CMAKE-3.7\MODULES\CMAKESYSTEMSPECIFICINFORMATION.CMAKE
F:\CMAKE-3.7.1-WIN64-X64\SHARE\CMAKE-3.7\MODULES\CMAKEGENERICSYSTEM.CMAKE
F:\CMAKE-3.7.1-WIN64-X64\SHARE\CMAKE-3.7\MODULES\PLATFORM\WINDOWS.CMAKE
F:\CMAKE-3.7.1-WIN64-X64\SHARE\CMAKE-3.7\MODULES\PLATFORM\WINDOWSPATHS.CMAKE
F:\CMAKE-3.7.1-WIN64-X64\SHARE\CMAKE-3.7\MODULES\CMAKECINFORMATION.CMAKE
F:\CMAKE-3.7.1-WIN64-X64\SHARE\CMAKE-3.7\MODULES\CMAKELANGUAGEINFORMATION.CMAKE
F:\CMAKE-3.7.1-WIN64-X64\SHARE\CMAKE-3.7\MODULES\PLATFORM\WINDOWS-MSVC-C.CMAKE
F:\CMAKE-3.7.1-WIN64-X64\SHARE\CMAKE-3.7\MODULES\PLATFORM\WINDOWS-MSVC.CMAKE
P:\LIBS\CEGUI-0.8.7\BUILD\CMAKEFILES\3.7.1\CMAKERCCOMPILER.CMAKE
F:\CMAKE-3.7.1-WIN64-X64\SHARE\CMAKE-3.7\MODULES\CMAKERCINFORMATION.CMAKE
F:\CMAKE-3.7.1-WIN64-X64\SHARE\CMAKE-3.7\MODULES\CMAKECOMMONLANGUAGEINCLUDE.CMAKE
F:\CMAKE-3.7.1-WIN64-X64\SHARE\CMAKE-3.7\MODULES\CMAKECXXINFORMATION.CMAKE
F:\CMAKE-3.7.1-WIN64-X64\SHARE\CMAKE-3.7\MODULES\COMPILER\MSVC-CXX.CMAKE
F:\CMAKE-3.7.1-WIN64-X64\SHARE\CMAKE-3.7\MODULES\PLATFORM\WINDOWS-MSVC-CXX.CMAKE
P:\LIBS\CEGUI-0.8.7\CMAKE\CEGUIMACROS.CMAKE
F:\CMAKE-3.7.1-WIN64-X64\SHARE\CMAKE-3.7\MODULES\FINDPACKAGEHANDLESTANDARDARGS.CMAKE
F:\CMAKE-3.7.1-WIN64-X64\SHARE\CMAKE-3.7\MODULES\FINDPACKAGEMESSAGE.CMAKE
F:\CMAKE-3.7.1-WIN64-X64\SHARE\CMAKE-3.7\MODULES\CMAKEPARSEARGUMENTS.CMAKE
F:\CMAKE-3.7.1-WIN64-X64\SHARE\CMAKE-3.7\MODULES\CMAKEDEPENDENTOPTION.CMAKE
P:\LIBS\CEGUI-0.8.7\CMAKE\FINDPCRE.CMAKE
P:\LIBS\CEGUI-0.8.7\CMAKE\FINDFREETYPE.CMAKE
P:\LIBS\CEGUI-0.8.7\CMAKE\FINDMINIZIP.CMAKE
P:\LIBS\CEGUI-0.8.7\CMAKE\FINDFRIBIDI.CMAKE
P:\LIBS\CEGUI-0.8.7\CMAKE\CEGUIFINDHELPERS.CMAKE
F:\CMAKE-3.7.1-WIN64-X64\SHARE\CMAKE-3.7\MODULES\FINDPKGCONFIG.CMAKE
F:\CMAKE-3.7.1-WIN64-X64\SHARE\CMAKE-3.7\MODULES\FINDOPENGL.CMAKE
P:\LIBS\CEGUI-0.8.7\CMAKE\FINDGLEW.CMAKE
P:\LIBS\CEGUI-0.8.7\CMAKE\FINDGLM.CMAKE
P:\LIBS\CEGUI-0.8.7\CMAKE\FINDGLFW.CMAKE
P:\LIBS\CEGUI-0.8.7\CMAKE\FINDGLFW3.CMAKE
P:\LIBS\CEGUI-0.8.7\CMAKE\FINDSDL2.CMAKE
F:\CMAKE-3.7.1-WIN64-X64\SHARE\CMAKE-3.7\MODULES\FINDTHREADS.CMAKE
F:\CMAKE-3.7.1-WIN64-X64\SHARE\CMAKE-3.7\MODULES\CHECKLIBRARYEXISTS.CMAKE
F:\CMAKE-3.7.1-WIN64-X64\SHARE\CMAKE-3.7\MODULES\CHECKSYMBOLEXISTS.CMAKE
F:\CMAKE-3.7.1-WIN64-X64\SHARE\CMAKE-3.7\MODULES\CHECKINCLUDEFILE.CMAKE
P:\LIBS\CEGUI-0.8.7\CMAKE\FINDSDL2_IMAGE.CMAKE
P:\LIBS\CEGUI-0.8.7\CMAKE\FINDDIRECTXSDK.CMAKE
P:\LIBS\CEGUI-0.8.7\CMAKE\FINDD3DX11EFFECTS.CMAKE
P:\LIBS\CEGUI-0.8.7\CMAKE\FINDIRRLICHT.CMAKE
P:\LIBS\CEGUI-0.8.7\CMAKE\FINDOGRE.CMAKE
P:\LIBS\CEGUI-0.8.7\CMAKE\FINDOIS.CMAKE
P:\LIBS\CEGUI-0.8.7\CMAKE\FINDDIRECTFB.CMAKE
P:\LIBS\CEGUI-0.8.7\CMAKE\FINDOPENGLES.CMAKE
P:\LIBS\CEGUI-0.8.7\CMAKE\FINDEPOXY.CMAKE
P:\LIBS\CEGUI-0.8.7\CMAKE\FINDEXPAT.CMAKE
P:\LIBS\CEGUI-0.8.7\CMAKE\FINDXERCESC.CMAKE
F:\CMAKE-3.7.1-WIN64-X64\SHARE\CMAKE-3.7\MODULES\FINDLIBXML2.CMAKE
P:\LIBS\CEGUI-0.8.7\CMAKE\FINDTINYXML.CMAKE
F:\CMAKE-3.7.1-WIN64-X64\SHARE\CMAKE-3.7\MODULES\CHECKCXXSOURCECOMPILES.CMAKE
P:\LIBS\CEGUI-0.8.7\CMAKE\FINDRAPIDXML.CMAKE
P:\LIBS\CEGUI-0.8.7\CMAKE\FINDDEVIL.CMAKE
P:\LIBS\CEGUI-0.8.7\CMAKE\FINDFREEIMAGE.CMAKE
P:\LIBS\CEGUI-0.8.7\CMAKE\FINDSILLY.CMAKE
P:\LIBS\CEGUI-0.8.7\CMAKE\FINDCORONA.CMAKE
P:\LIBS\CEGUI-0.8.7\CMAKE\FINDPVRTOOLS.CMAKE
P:\LIBS\CEGUI-0.8.7\CMAKE\FINDLUA51.CMAKE
P:\LIBS\CEGUI-0.8.7\CMAKE\FINDTOLUAPP.CMAKE
F:\CMAKE-3.7.1-WIN64-X64\SHARE\CMAKE-3.7\MODULES\FINDPYTHONINTERP.CMAKE
P:\LIBS\CEGUI-0.8.7\CMAKE\FINDPYTHONVERSION.CMAKE
F:\CMAKE-3.7.1-WIN64-X64\SHARE\CMAKE-3.7\MODULES\FINDPYTHONLIBS.CMAKE
F:\CMAKE-3.7.1-WIN64-X64\SHARE\CMAKE-3.7\MODULES\CMAKEFINDFRAMEWORKS.CMAKE
F:\CMAKE-3.7.1-WIN64-X64\SHARE\CMAKE-3.7\MODULES\SELECTLIBRARYCONFIGURATIONS.CMAKE
F:\CMAKE-3.7.1-WIN64-X64\SHARE\CMAKE-3.7\MODULES\FINDBOOST.CMAKE
F:\CMAKE-3.7.1-WIN64-X64\SHARE\CMAKE-3.7\MODULES\FINDDOXYGEN.CMAKE
F:\CMAKE-3.7.1-WIN64-X64\SHARE\CMAKE-3.7\MODULES\FINDGTK2.CMAKE
P:\LIBS\CEGUI-0.8.7\CEGUI\INCLUDE\CEGUI\VERSION.H.IN
P:\LIBS\CEGUI-0.8.7\CEGUI\INCLUDE\CEGUI\CONFIG.H.IN
P:\LIBS\CEGUI-0.8.7\CEGUI\INCLUDE\CEGUI\MODULECONFIG.H.IN
P:\LIBS\CEGUI-0.8.7\SAMPLES\COMMON\INCLUDE\CEGUISAMPLESCONFIG.H.IN
P:\LIBS\CEGUI-0.8.7\DOC\DOXYGEN\DOXYFILE.IN
F:\CMAKE-3.7.1-WIN64-X64\SHARE\CMAKE-3.7\MODULES\CPACK.CMAKE
F:\CMAKE-3.7.1-WIN64-X64\SHARE\CMAKE-3.7\MODULES\CPACKCOMPONENT.CMAKE
F:\CMAKE-3.7.1-WIN64-X64\SHARE\CMAKE-3.7\TEMPLATES\CPACKCONFIG.CMAKE.IN
