# Blender v2.73 (sub 0) OBJ File: 'bumpy-plane.blend'
# www.blender.org
o Cube
v 0.555556 0.000000 1.000000
v 0.333333 0.000000 1.000000
v 0.111111 0.000000 1.000000
v -0.111111 0.000000 1.000000
v -0.333333 0.000000 1.000000
v -0.555556 0.000000 1.000000
v -0.777778 0.000000 1.000000
v -1.000000 0.000000 1.000000
v 0.777778 0.000000 1.000000
v 1.000000 0.000000 1.000000
v -1.000000 0.000000 0.777778
v -0.777778 0.074452 0.777778
v -0.555556 0.074452 0.777778
v -0.333333 0.000000 0.777778
v -0.111111 0.000000 0.777778
v 0.111111 0.000000 0.777778
v 0.333333 0.000000 0.777778
v 0.555556 0.074452 0.777778
v 0.777778 0.074452 0.777778
v 1.000000 0.000000 0.777778
v -1.000000 0.000000 0.555556
v -0.777778 0.074452 0.555556
v -0.555556 0.074452 0.555556
v -0.333333 0.000000 0.555556
v -0.111111 0.000000 0.555556
v 0.111111 0.000000 0.555556
v 0.333333 0.000000 0.555556
v 0.555556 0.074452 0.555556
v 0.777778 0.074452 0.555556
v 1.000000 0.000000 0.555556
v -1.000000 0.000000 0.333333
v -0.777778 0.000000 0.333333
v -0.555556 0.000000 0.333333
v -0.333333 0.000000 0.333333
v -0.111111 0.000000 0.333333
v 0.111111 0.000000 0.333333
v 0.333333 0.000000 0.333333
v 0.555556 0.000000 0.333333
v 0.777778 0.000000 0.333333
v 1.000000 0.000000 0.333333
v -1.000000 0.000000 0.111111
v -0.777778 0.000000 0.111111
v -0.555556 0.000000 0.111111
v -0.333333 0.000000 0.111111
v -0.111111 -0.107167 0.111111
v 0.111111 -0.107167 0.111111
v 0.333333 0.000000 0.111111
v 0.555556 0.000000 0.111111
v 0.777778 0.000000 0.111111
v 1.000000 0.000000 0.111111
v -1.000000 0.000000 -0.111111
v -0.777778 0.000000 -0.111111
v -0.555556 0.000000 -0.111111
v -0.333333 0.000000 -0.111111
v -0.111111 -0.107167 -0.111111
v 0.111111 -0.107167 -0.111111
v 0.333333 0.000000 -0.111111
v 0.555556 0.000000 -0.111111
v 0.777778 0.000000 -0.111111
v 1.000000 0.000000 -0.111111
v -1.000000 0.000000 -0.333333
v -0.777778 0.000000 -0.333333
v -0.555556 0.000000 -0.333333
v -0.333333 0.000000 -0.333333
v -0.111111 0.000000 -0.333333
v 0.111111 0.000000 -0.333333
v 0.333333 0.000000 -0.333333
v 0.555556 0.000000 -0.333333
v 0.777778 0.000000 -0.333333
v 1.000000 0.000000 -0.333333
v -1.000000 0.000000 -0.555556
v -0.777778 0.074452 -0.555556
v -0.555556 0.074452 -0.555556
v -0.333333 0.000000 -0.555556
v -0.111111 0.000000 -0.555556
v 0.111111 0.000000 -0.555556
v 0.333333 0.000000 -0.555556
v 0.555556 0.074452 -0.555556
v 0.777778 0.074452 -0.555556
v 1.000000 0.000000 -0.555556
v -1.000000 0.000000 -0.777778
v -0.777778 0.074452 -0.777778
v -0.555556 0.074452 -0.777778
v -0.333333 0.000000 -0.777778
v -0.111111 0.000000 -0.777778
v 0.111111 0.000000 -0.777778
v 0.333333 0.000000 -0.777778
v 0.555556 0.074452 -0.777778
v 0.777778 0.074452 -0.777778
v 1.000000 0.000000 -0.777778
v -1.000000 0.000000 -1.000000
v -0.777778 0.000000 -1.000000
v -0.555556 0.000000 -1.000000
v -0.333333 0.000000 -1.000000
v -0.111111 0.000000 -1.000000
v 0.111111 0.000000 -1.000000
v 0.333333 0.000000 -1.000000
v 0.555556 0.000000 -1.000000
v 0.777778 0.000000 -1.000000
v 1.000000 0.000000 -1.000000
vt 0.555544 0.000100
vt 0.555544 0.111189
vt 0.444456 0.111189
vt 0.111189 0.000100
vt 0.111189 0.111189
vt 0.000100 0.111189
vt 0.666633 0.000100
vt 0.666633 0.111189
vt 0.222278 0.000100
vt 0.333367 0.000100
vt 0.333367 0.111189
vt 0.222278 0.111189
vt 0.444455 0.000100
vt 0.777722 0.000100
vt 0.777722 0.111189
vt 0.888811 0.000100
vt 0.888811 0.111189
vt 0.999900 0.000100
vt 0.999900 0.111189
vt 0.111189 0.222278
vt 0.000100 0.222278
vt 0.222278 0.222278
vt 0.333367 0.222278
vt 0.444456 0.222278
vt 0.555544 0.222278
vt 0.666633 0.222278
vt 0.777722 0.222278
vt 0.888811 0.222278
vt 0.999900 0.222278
vt 0.111189 0.333367
vt 0.222278 0.333367
vt 0.333367 0.333367
vt 0.444456 0.333367
vt 0.555544 0.333367
vt 0.666633 0.333367
vt 0.777722 0.333367
vt 0.888811 0.333367
vt 0.999900 0.333367
vt 0.111189 0.444456
vt 0.000100 0.444456
vt 0.222278 0.444456
vt 0.333367 0.444456
vt 0.444456 0.444456
vt 0.555544 0.444456
vt 0.666633 0.444456
vt 0.777722 0.444456
vt 0.888811 0.444456
vt 0.999900 0.444456
vt 0.111189 0.555544
vt 0.000100 0.555544
vt 0.222278 0.555544
vt 0.333367 0.555544
vt 0.444456 0.555544
vt 0.555544 0.555544
vt 0.666633 0.555544
vt 0.777722 0.555545
vt 0.888811 0.555545
vt 0.999900 0.555545
vt 0.111189 0.666633
vt 0.000100 0.666633
vt 0.222278 0.666633
vt 0.333367 0.666633
vt 0.444456 0.666633
vt 0.555544 0.666633
vt 0.666633 0.666633
vt 0.777722 0.666633
vt 0.888811 0.666633
vt 0.999900 0.666633
vt 0.111189 0.777722
vt 0.000100 0.777722
vt 0.222278 0.777722
vt 0.333367 0.777722
vt 0.444456 0.777722
vt 0.555544 0.777722
vt 0.666633 0.777722
vt 0.777722 0.777722
vt 0.888811 0.777722
vt 0.999900 0.777722
vt 0.111189 0.888811
vt 0.000100 0.888811
vt 0.222278 0.888811
vt 0.333367 0.888811
vt 0.444456 0.888811
vt 0.555544 0.888811
vt 0.666633 0.888811
vt 0.777722 0.888811
vt 0.888811 0.888811
vt 0.999900 0.888811
vt 0.111189 0.999900
vt 0.222278 0.999900
vt 0.333367 0.999900
vt 0.444455 0.999900
vt 0.555544 0.999900
vt 0.666633 0.999900
vt 0.777722 0.999900
vt 0.888811 0.999900
vt 0.999900 0.999900
vt 0.000100 0.000100
vt 0.000100 0.333367
vt 0.000100 0.999900
vn 0.000000 1.000000 0.000000
vn -0.080800 0.967400 0.240100
vn -0.156600 0.975200 0.156600
vn -0.240100 0.967400 0.080800
vn -0.120900 0.991800 0.040700
vn 0.080800 0.967400 0.240100
vn 0.120900 0.991800 0.040700
vn 0.156600 0.975200 0.156600
vn 0.240100 0.967400 0.080800
vn -0.156600 0.975200 -0.156600
vn -0.240100 0.967400 -0.080800
vn 0.156600 0.975200 -0.156600
vn 0.120900 0.991800 -0.040700
vn -0.120900 0.991800 -0.040700
vn 0.240100 0.967400 -0.080800
vn -0.040700 0.991800 -0.120900
vn 0.040700 0.991800 -0.120900
vn 0.056900 0.984200 -0.167500
vn -0.056900 0.984200 -0.167500
vn 0.167500 0.984200 -0.056900
vn 0.212200 0.953900 -0.212200
vn -0.212200 0.953900 -0.212200
vn -0.167500 0.984200 -0.056900
vn 0.167500 0.984200 0.056900
vn 0.212200 0.953900 0.212200
vn -0.212200 0.953900 0.212200
vn -0.167500 0.984200 0.056900
vn -0.040700 0.991800 0.120900
vn 0.040700 0.991800 0.120900
vn 0.056900 0.984200 0.167500
vn -0.056900 0.984200 0.167500
vn -0.080800 0.967400 -0.240100
vn 0.080800 0.967400 -0.240100
s 1
f 3/1/1 16/2/1 15/3/1
f 7/4/2 12/5/3 11/6/4
f 2/7/1 17/8/5 16/2/1
f 6/9/6 5/10/1 14/11/7
f 6/9/6 13/12/8 12/5/3
f 4/13/1 15/3/1 14/11/7
f 1/14/2 18/15/3 17/8/5
f 9/16/6 19/17/8 18/15/3
f 9/16/6 10/18/1 20/19/9
f 12/5/3 22/20/10 21/21/11
f 13/12/8 23/22/12 22/20/10
f 14/11/7 24/23/13 23/22/12
f 15/3/1 25/24/1 24/23/13
f 16/2/1 26/25/1 25/24/1
f 17/8/5 27/26/14 26/25/1
f 18/15/3 28/27/10 27/26/14
f 19/17/8 29/28/12 28/27/10
f 20/19/9 30/29/15 29/28/12
f 21/21/11 22/20/10 32/30/16
f 23/22/12 33/31/17 32/30/16
f 24/23/13 34/32/1 33/31/17
f 25/24/1 35/33/18 34/32/1
f 26/25/1 36/34/19 35/33/18
f 27/26/14 37/35/1 36/34/19
f 27/26/14 28/27/10 38/36/16
f 29/28/12 39/37/17 38/36/16
f 30/29/15 40/38/1 39/37/17
f 32/30/16 42/39/1 41/40/1
f 33/31/17 43/41/1 42/39/1
f 34/32/1 44/42/20 43/41/1
f 35/33/18 45/43/21 44/42/20
f 36/34/19 46/44/22 45/43/21
f 36/34/19 37/35/1 47/45/23
f 38/36/16 48/46/1 47/45/23
f 39/37/17 49/47/1 48/46/1
f 40/38/1 50/48/1 49/47/1
f 42/39/1 52/49/1 51/50/1
f 43/41/1 53/51/1 52/49/1
f 44/42/20 54/52/24 53/51/1
f 45/43/21 55/53/25 54/52/24
f 46/44/22 56/54/26 55/53/25
f 47/45/23 57/55/27 56/54/26
f 48/46/1 58/56/1 57/55/27
f 49/47/1 59/57/1 58/56/1
f 50/48/1 60/58/1 59/57/1
f 52/49/1 62/59/28 61/60/1
f 53/51/1 63/61/29 62/59/28
f 54/52/24 64/62/1 63/61/29
f 54/52/24 55/53/25 65/63/30
f 56/54/26 66/64/31 65/63/30
f 57/55/27 67/65/1 66/64/31
f 58/56/1 68/66/28 67/65/1
f 59/57/1 69/67/29 68/66/28
f 60/58/1 70/68/1 69/67/29
f 62/59/28 72/69/3 71/70/4
f 63/61/29 73/71/8 72/69/3
f 63/61/29 64/62/1 74/72/7
f 65/63/30 75/73/1 74/72/7
f 66/64/31 76/74/1 75/73/1
f 67/65/1 77/75/5 76/74/1
f 68/66/28 78/76/3 77/75/5
f 69/67/29 79/77/8 78/76/3
f 69/67/29 70/68/1 80/78/9
f 72/69/3 82/79/10 81/80/11
f 73/71/8 83/81/12 82/79/10
f 74/72/7 84/82/13 83/81/12
f 75/73/1 85/83/1 84/82/13
f 76/74/1 86/84/1 85/83/1
f 77/75/5 87/85/14 86/84/1
f 78/76/3 88/86/10 87/85/14
f 79/77/8 89/87/12 88/86/10
f 80/78/9 90/88/15 89/87/12
f 81/80/11 82/79/10 92/89/32
f 83/81/12 93/90/33 92/89/32
f 84/82/13 94/91/1 93/90/33
f 85/83/1 95/92/1 94/91/1
f 86/84/1 96/93/1 95/92/1
f 87/85/14 97/94/1 96/93/1
f 87/85/14 88/86/10 98/95/32
f 89/87/12 99/96/33 98/95/32
f 90/88/15 100/97/1 99/96/33
f 4/13/1 3/1/1 15/3/1
f 8/98/1 7/4/2 11/6/4
f 3/1/1 2/7/1 16/2/1
f 13/12/8 6/9/6 14/11/7
f 7/4/2 6/9/6 12/5/3
f 5/10/1 4/13/1 14/11/7
f 2/7/1 1/14/2 17/8/5
f 1/14/2 9/16/6 18/15/3
f 19/17/8 9/16/6 20/19/9
f 11/6/4 12/5/3 21/21/11
f 12/5/3 13/12/8 22/20/10
f 13/12/8 14/11/7 23/22/12
f 14/11/7 15/3/1 24/23/13
f 15/3/1 16/2/1 25/24/1
f 16/2/1 17/8/5 26/25/1
f 17/8/5 18/15/3 27/26/14
f 18/15/3 19/17/8 28/27/10
f 19/17/8 20/19/9 29/28/12
f 31/99/1 21/21/11 32/30/16
f 22/20/10 23/22/12 32/30/16
f 23/22/12 24/23/13 33/31/17
f 24/23/13 25/24/1 34/32/1
f 25/24/1 26/25/1 35/33/18
f 26/25/1 27/26/14 36/34/19
f 37/35/1 27/26/14 38/36/16
f 28/27/10 29/28/12 38/36/16
f 29/28/12 30/29/15 39/37/17
f 31/99/1 32/30/16 41/40/1
f 32/30/16 33/31/17 42/39/1
f 33/31/17 34/32/1 43/41/1
f 34/32/1 35/33/18 44/42/20
f 35/33/18 36/34/19 45/43/21
f 46/44/22 36/34/19 47/45/23
f 37/35/1 38/36/16 47/45/23
f 38/36/16 39/37/17 48/46/1
f 39/37/17 40/38/1 49/47/1
f 41/40/1 42/39/1 51/50/1
f 42/39/1 43/41/1 52/49/1
f 43/41/1 44/42/20 53/51/1
f 44/42/20 45/43/21 54/52/24
f 45/43/21 46/44/22 55/53/25
f 46/44/22 47/45/23 56/54/26
f 47/45/23 48/46/1 57/55/27
f 48/46/1 49/47/1 58/56/1
f 49/47/1 50/48/1 59/57/1
f 51/50/1 52/49/1 61/60/1
f 52/49/1 53/51/1 62/59/28
f 53/51/1 54/52/24 63/61/29
f 64/62/1 54/52/24 65/63/30
f 55/53/25 56/54/26 65/63/30
f 56/54/26 57/55/27 66/64/31
f 57/55/27 58/56/1 67/65/1
f 58/56/1 59/57/1 68/66/28
f 59/57/1 60/58/1 69/67/29
f 61/60/1 62/59/28 71/70/4
f 62/59/28 63/61/29 72/69/3
f 73/71/8 63/61/29 74/72/7
f 64/62/1 65/63/30 74/72/7
f 65/63/30 66/64/31 75/73/1
f 66/64/31 67/65/1 76/74/1
f 67/65/1 68/66/28 77/75/5
f 68/66/28 69/67/29 78/76/3
f 79/77/8 69/67/29 80/78/9
f 71/70/4 72/69/3 81/80/11
f 72/69/3 73/71/8 82/79/10
f 73/71/8 74/72/7 83/81/12
f 74/72/7 75/73/1 84/82/13
f 75/73/1 76/74/1 85/83/1
f 76/74/1 77/75/5 86/84/1
f 77/75/5 78/76/3 87/85/14
f 78/76/3 79/77/8 88/86/10
f 79/77/8 80/78/9 89/87/12
f 91/100/1 81/80/11 92/89/32
f 82/79/10 83/81/12 92/89/32
f 83/81/12 84/82/13 93/90/33
f 84/82/13 85/83/1 94/91/1
f 85/83/1 86/84/1 95/92/1
f 86/84/1 87/85/14 96/93/1
f 97/94/1 87/85/14 98/95/32
f 88/86/10 89/87/12 98/95/32
f 89/87/12 90/88/15 99/96/33
