# Blender v2.73 (sub 0) OBJ File: 'testMonkey.blend'
# www.blender.org
o Suzanne
v 0.437500 -0.765625 0.164062
v -0.437500 -0.765625 0.164062
v 0.500000 -0.687500 0.093750
v -0.500000 -0.687500 0.093750
v 0.546875 -0.578125 0.054687
v -0.546875 -0.578125 0.054687
v 0.351562 -0.617188 -0.023438
v -0.351562 -0.617188 -0.023438
v 0.351562 -0.718750 0.031250
v -0.351562 -0.718750 0.031250
v 0.351562 -0.781250 0.132812
v -0.351562 -0.781250 0.132812
v 0.273438 -0.796875 0.164062
v -0.273438 -0.796875 0.164062
v 0.203125 -0.742188 0.093750
v -0.203125 -0.742188 0.093750
v 0.156250 -0.648438 0.054687
v -0.156250 -0.648438 0.054687
v 0.078125 -0.656250 0.242187
v -0.078125 -0.656250 0.242187
v 0.140625 -0.742188 0.242187
v -0.140625 -0.742188 0.242187
v 0.242188 -0.796875 0.242187
v -0.242188 -0.796875 0.242187
v 0.273438 -0.796875 0.328125
v -0.273438 -0.796875 0.328125
v 0.203125 -0.742188 0.390625
v -0.203125 -0.742188 0.390625
v 0.156250 -0.648438 0.437500
v -0.156250 -0.648438 0.437500
v 0.351562 -0.617188 0.515625
v -0.351562 -0.617188 0.515625
v 0.351562 -0.718750 0.453125
v -0.351562 -0.718750 0.453125
v 0.351562 -0.781250 0.359375
v -0.351562 -0.781250 0.359375
v 0.437500 -0.765625 0.328125
v -0.437500 -0.765625 0.328125
v 0.500000 -0.687500 0.390625
v -0.500000 -0.687500 0.390625
v 0.546875 -0.578125 0.437500
v -0.546875 -0.578125 0.437500
v 0.625000 -0.562500 0.242187
v -0.625000 -0.562500 0.242187
v 0.562500 -0.671875 0.242187
v -0.562500 -0.671875 0.242187
v 0.468750 -0.757812 0.242187
v -0.468750 -0.757812 0.242187
v 0.476562 -0.773438 0.242187
v -0.476562 -0.773438 0.242187
v 0.445312 -0.781250 0.335937
v -0.445312 -0.781250 0.335937
v 0.351562 -0.804688 0.375000
v -0.351562 -0.804688 0.375000
v 0.265625 -0.820312 0.335937
v -0.265625 -0.820312 0.335937
v 0.226562 -0.820312 0.242187
v -0.226562 -0.820312 0.242187
v 0.265625 -0.820312 0.156250
v -0.265625 -0.820312 0.156250
v 0.351562 -0.828125 0.242187
v -0.351562 -0.828125 0.242187
v 0.351562 -0.804688 0.117187
v -0.351562 -0.804688 0.117187
v 0.445312 -0.781250 0.156250
v -0.445312 -0.781250 0.156250
v 0.000000 -0.742188 0.429687
v 0.000000 -0.820312 0.351562
v 0.000000 -0.734375 -0.679688
v 0.000000 -0.781250 -0.320313
v 0.000000 -0.796875 -0.187500
v 0.000000 -0.718750 -0.773438
v 0.000000 -0.601562 0.406250
v 0.000000 -0.570312 0.570312
v 0.000000 0.546875 0.898438
v 0.000000 0.851562 0.562500
v 0.000000 0.828125 0.070313
v 0.000000 0.351563 -0.382812
v 0.203125 -0.562500 -0.187500
v -0.203125 -0.562500 -0.187500
v 0.312500 -0.570312 -0.437500
v -0.312500 -0.570312 -0.437500
v 0.351562 -0.570312 -0.695312
v -0.351562 -0.570312 -0.695312
v 0.367188 -0.531250 -0.890625
v -0.367188 -0.531250 -0.890625
v 0.328125 -0.523437 -0.945312
v -0.328125 -0.523437 -0.945312
v 0.179688 -0.554687 -0.968750
v -0.179688 -0.554687 -0.968750
v 0.000000 -0.578125 -0.984375
v 0.437500 -0.531250 -0.140625
v -0.437500 -0.531250 -0.140625
v 0.632812 -0.539062 -0.039063
v -0.632812 -0.539062 -0.039063
v 0.828125 -0.445312 0.148437
v -0.828125 -0.445312 0.148437
v 0.859375 -0.593750 0.429687
v -0.859375 -0.593750 0.429687
v 0.710938 -0.625000 0.484375
v -0.710938 -0.625000 0.484375
v 0.492188 -0.687500 0.601562
v -0.492188 -0.687500 0.601562
v 0.320312 -0.734375 0.757812
v -0.320312 -0.734375 0.757812
v 0.156250 -0.757813 0.718750
v -0.156250 -0.757813 0.718750
v 0.062500 -0.750000 0.492187
v -0.062500 -0.750000 0.492187
v 0.164062 -0.773438 0.414062
v -0.164062 -0.773438 0.414062
v 0.125000 -0.765625 0.304687
v -0.125000 -0.765625 0.304687
v 0.203125 -0.742188 0.093750
v -0.203125 -0.742188 0.093750
v 0.375000 -0.703125 0.015625
v -0.375000 -0.703125 0.015625
v 0.492188 -0.671875 0.062500
v -0.492188 -0.671875 0.062500
v 0.625000 -0.648438 0.187500
v -0.625000 -0.648438 0.187500
v 0.640625 -0.648438 0.296875
v -0.640625 -0.648438 0.296875
v 0.601562 -0.664062 0.375000
v -0.601562 -0.664062 0.375000
v 0.429688 -0.718750 0.437500
v -0.429688 -0.718750 0.437500
v 0.250000 -0.757812 0.468750
v -0.250000 -0.757812 0.468750
v 0.000000 -0.734375 -0.765625
v 0.109375 -0.734375 -0.718750
v -0.109375 -0.734375 -0.718750
v 0.117188 -0.710937 -0.835938
v -0.117188 -0.710937 -0.835938
v 0.062500 -0.695312 -0.882813
v -0.062500 -0.695312 -0.882813
v 0.000000 -0.687500 -0.890625
v 0.000000 -0.750000 -0.195313
v 0.000000 -0.742188 -0.140625
v 0.101562 -0.742188 -0.148438
v -0.101562 -0.742188 -0.148438
v 0.125000 -0.750000 -0.226563
v -0.125000 -0.750000 -0.226563
v 0.085938 -0.742188 -0.289063
v -0.085938 -0.742188 -0.289063
v 0.398438 -0.671875 -0.046875
v -0.398438 -0.671875 -0.046875
v 0.617188 -0.625000 0.054687
v -0.617188 -0.625000 0.054687
v 0.726562 -0.601562 0.203125
v -0.726562 -0.601562 0.203125
v 0.742188 -0.656250 0.375000
v -0.742188 -0.656250 0.375000
v 0.687500 -0.726562 0.414062
v -0.687500 -0.726562 0.414062
v 0.437500 -0.796875 0.546875
v -0.437500 -0.796875 0.546875
v 0.312500 -0.835938 0.640625
v -0.312500 -0.835938 0.640625
v 0.203125 -0.851562 0.617187
v -0.203125 -0.851562 0.617187
v 0.101562 -0.843750 0.429687
v -0.101562 -0.843750 0.429687
v 0.125000 -0.812500 -0.101563
v -0.125000 -0.812500 -0.101563
v 0.210938 -0.710938 -0.445313
v -0.210938 -0.710938 -0.445313
v 0.250000 -0.687500 -0.703125
v -0.250000 -0.687500 -0.703125
v 0.265625 -0.664062 -0.820312
v -0.265625 -0.664062 -0.820312
v 0.234375 -0.632812 -0.914062
v -0.234375 -0.632812 -0.914062
v 0.164062 -0.632812 -0.929688
v -0.164062 -0.632812 -0.929688
v 0.000000 -0.640625 -0.945312
v 0.000000 -0.726562 0.046875
v 0.000000 -0.765625 0.210937
v 0.328125 -0.742188 0.476562
v -0.328125 -0.742188 0.476562
v 0.164062 -0.750000 0.140625
v -0.164062 -0.750000 0.140625
v 0.132812 -0.757812 0.210937
v -0.132812 -0.757812 0.210937
v 0.117188 -0.734375 -0.687500
v -0.117188 -0.734375 -0.687500
v 0.078125 -0.750000 -0.445313
v -0.078125 -0.750000 -0.445313
v 0.000000 -0.750000 -0.445313
v 0.000000 -0.742188 -0.328125
v 0.093750 -0.781250 -0.273438
v -0.093750 -0.781250 -0.273438
v 0.132812 -0.796875 -0.226563
v -0.132812 -0.796875 -0.226563
v 0.109375 -0.781250 -0.132813
v -0.109375 -0.781250 -0.132813
v 0.039062 -0.781250 -0.125000
v -0.039062 -0.781250 -0.125000
v 0.000000 -0.828125 -0.203125
v 0.046875 -0.812500 -0.148438
v -0.046875 -0.812500 -0.148438
v 0.093750 -0.812500 -0.156250
v -0.093750 -0.812500 -0.156250
v 0.109375 -0.828125 -0.226563
v -0.109375 -0.828125 -0.226563
v 0.078125 -0.804688 -0.250000
v -0.078125 -0.804688 -0.250000
v 0.000000 -0.804688 -0.289063
v 0.257812 -0.554688 -0.312500
v -0.257812 -0.554688 -0.312500
v 0.164062 -0.710938 -0.242188
v -0.164062 -0.710938 -0.242188
v 0.179688 -0.710938 -0.312500
v -0.179688 -0.710938 -0.312500
v 0.234375 -0.554688 -0.250000
v -0.234375 -0.554688 -0.250000
v 0.000000 -0.687500 -0.875000
v 0.046875 -0.687500 -0.867188
v -0.046875 -0.687500 -0.867188
v 0.093750 -0.710937 -0.820313
v -0.093750 -0.710937 -0.820313
v 0.093750 -0.726562 -0.742188
v -0.093750 -0.726562 -0.742188
v 0.000000 -0.656250 -0.781250
v 0.093750 -0.664062 -0.750000
v -0.093750 -0.664062 -0.750000
v 0.093750 -0.640625 -0.812500
v -0.093750 -0.640625 -0.812500
v 0.046875 -0.632812 -0.851562
v -0.046875 -0.632812 -0.851562
v 0.000000 -0.632812 -0.859375
v 0.171875 -0.781250 0.218750
v -0.171875 -0.781250 0.218750
v 0.187500 -0.773438 0.156250
v -0.187500 -0.773438 0.156250
v 0.335938 -0.757812 0.429687
v -0.335938 -0.757812 0.429687
v 0.273438 -0.773438 0.421875
v -0.273438 -0.773438 0.421875
v 0.421875 -0.773438 0.398437
v -0.421875 -0.773438 0.398437
v 0.562500 -0.695312 0.351562
v -0.562500 -0.695312 0.351562
v 0.585938 -0.687500 0.289062
v -0.585938 -0.687500 0.289062
v 0.578125 -0.679688 0.195312
v -0.578125 -0.679688 0.195312
v 0.476562 -0.718750 0.101562
v -0.476562 -0.718750 0.101562
v 0.375000 -0.742188 0.062500
v -0.375000 -0.742188 0.062500
v 0.226562 -0.781250 0.109375
v -0.226562 -0.781250 0.109375
v 0.179688 -0.781250 0.296875
v -0.179688 -0.781250 0.296875
v 0.210938 -0.781250 0.375000
v -0.210938 -0.781250 0.375000
v 0.234375 -0.757812 0.359375
v -0.234375 -0.757812 0.359375
v 0.195312 -0.757812 0.296875
v -0.195312 -0.757812 0.296875
v 0.242188 -0.757812 0.125000
v -0.242188 -0.757812 0.125000
v 0.375000 -0.726562 0.085937
v -0.375000 -0.726562 0.085937
v 0.460938 -0.703125 0.117187
v -0.460938 -0.703125 0.117187
v 0.546875 -0.671875 0.210937
v -0.546875 -0.671875 0.210937
v 0.554688 -0.671875 0.281250
v -0.554688 -0.671875 0.281250
v 0.531250 -0.679688 0.335937
v -0.531250 -0.679688 0.335937
v 0.414062 -0.750000 0.390625
v -0.414062 -0.750000 0.390625
v 0.281250 -0.765625 0.398437
v -0.281250 -0.765625 0.398437
v 0.335938 -0.750000 0.406250
v -0.335938 -0.750000 0.406250
v 0.203125 -0.750000 0.171875
v -0.203125 -0.750000 0.171875
v 0.195312 -0.750000 0.226562
v -0.195312 -0.750000 0.226562
v 0.109375 -0.609375 0.460937
v -0.109375 -0.609375 0.460937
v 0.195312 -0.617188 0.664062
v -0.195312 -0.617188 0.664062
v 0.335938 -0.593750 0.687500
v -0.335938 -0.593750 0.687500
v 0.484375 -0.554688 0.554688
v -0.484375 -0.554688 0.554688
v 0.679688 -0.492188 0.453125
v -0.679688 -0.492188 0.453125
v 0.796875 -0.460938 0.406250
v -0.796875 -0.460938 0.406250
v 0.773438 -0.375000 0.164062
v -0.773438 -0.375000 0.164062
v 0.601562 -0.414062 -0.000000
v -0.601562 -0.414062 -0.000000
v 0.437500 -0.468750 -0.093750
v -0.437500 -0.468750 -0.093750
v 0.000000 -0.289063 0.898438
v 0.000000 0.078125 0.984375
v 0.000000 0.671875 -0.195312
v 0.000000 -0.187500 -0.460938
v 0.000000 -0.460937 -0.976562
v 0.000000 -0.343750 -0.804688
v 0.000000 -0.320312 -0.570312
v 0.000000 -0.281250 -0.484375
v 0.851562 -0.054688 0.234375
v -0.851562 -0.054688 0.234375
v 0.859375 0.046875 0.320312
v -0.859375 0.046875 0.320312
v 0.773438 0.437500 0.265625
v -0.773438 0.437500 0.265625
v 0.460938 0.703125 0.437500
v -0.460938 0.703125 0.437500
v 0.734375 -0.070312 -0.046875
v -0.734375 -0.070312 -0.046875
v 0.593750 0.164062 -0.125000
v -0.593750 0.164062 -0.125000
v 0.640625 0.429688 -0.007812
v -0.640625 0.429688 -0.007812
v 0.335938 0.664062 0.054688
v -0.335938 0.664062 0.054688
v 0.234375 -0.406250 -0.351563
v -0.234375 -0.406250 -0.351563
v 0.179688 -0.257812 -0.414062
v -0.179688 -0.257812 -0.414062
v 0.289062 -0.382812 -0.710938
v -0.289062 -0.382812 -0.710938
v 0.250000 -0.390625 -0.500000
v -0.250000 -0.390625 -0.500000
v 0.328125 -0.398437 -0.914062
v -0.328125 -0.398437 -0.914062
v 0.140625 -0.367187 -0.757812
v -0.140625 -0.367187 -0.757812
v 0.125000 -0.359375 -0.539062
v -0.125000 -0.359375 -0.539062
v 0.164062 -0.437500 -0.945312
v -0.164062 -0.437500 -0.945312
v 0.218750 -0.429688 -0.281250
v -0.218750 -0.429688 -0.281250
v 0.210938 -0.468750 -0.226563
v -0.210938 -0.468750 -0.226563
v 0.203125 -0.500000 -0.171875
v -0.203125 -0.500000 -0.171875
v 0.210938 -0.164062 -0.390625
v -0.210938 -0.164062 -0.390625
v 0.296875 0.265625 -0.312500
v -0.296875 0.265625 -0.312500
v 0.343750 0.539062 -0.148437
v -0.343750 0.539062 -0.148437
v 0.453125 0.382812 0.867188
v -0.453125 0.382812 0.867188
v 0.453125 0.070312 0.929688
v -0.453125 0.070312 0.929688
v 0.453125 -0.234375 0.851562
v -0.453125 -0.234375 0.851562
v 0.460938 -0.429688 0.523438
v -0.460938 -0.429688 0.523438
v 0.726562 -0.335938 0.406250
v -0.726562 -0.335938 0.406250
v 0.632812 -0.281250 0.453125
v -0.632812 -0.281250 0.453125
v 0.640625 -0.054688 0.703125
v -0.640625 -0.054688 0.703125
v 0.796875 -0.125000 0.562500
v -0.796875 -0.125000 0.562500
v 0.796875 0.117187 0.617188
v -0.796875 0.117187 0.617188
v 0.640625 0.195312 0.750000
v -0.640625 0.195312 0.750000
v 0.640625 0.445312 0.679688
v -0.640625 0.445312 0.679688
v 0.796875 0.359375 0.539062
v -0.796875 0.359375 0.539062
v 0.617188 0.585938 0.328125
v -0.617188 0.585938 0.328125
v 0.484375 0.546875 0.023438
v -0.484375 0.546875 0.023438
v 0.820312 0.203125 0.328125
v -0.820312 0.203125 0.328125
v 0.406250 -0.148437 -0.171875
v -0.406250 -0.148437 -0.171875
v 0.429688 0.210938 -0.195312
v -0.429688 0.210938 -0.195312
v 0.890625 0.234375 0.406250
v -0.890625 0.234375 0.406250
v 0.773438 0.125000 -0.140625
v -0.773438 0.125000 -0.140625
v 1.039062 0.328125 -0.101562
v -1.039062 0.328125 -0.101562
v 1.281250 0.429688 0.054688
v -1.281250 0.429688 0.054688
v 1.351562 0.421875 0.320313
v -1.351562 0.421875 0.320313
v 1.234375 0.421875 0.507812
v -1.234375 0.421875 0.507812
v 1.023438 0.312500 0.476562
v -1.023438 0.312500 0.476562
v 1.015625 0.289062 0.414062
v -1.015625 0.289062 0.414062
v 1.187500 0.390625 0.437500
v -1.187500 0.390625 0.437500
v 1.265625 0.406250 0.289063
v -1.265625 0.406250 0.289063
v 1.210938 0.406250 0.078125
v -1.210938 0.406250 0.078125
v 1.031250 0.304688 -0.039062
v -1.031250 0.304688 -0.039062
v 0.828125 0.132812 -0.070312
v -0.828125 0.132812 -0.070312
v 0.921875 0.218750 0.359375
v -0.921875 0.218750 0.359375
v 0.945312 0.289062 0.304688
v -0.945312 0.289062 0.304688
v 0.882812 0.210938 -0.023437
v -0.882812 0.210938 -0.023437
v 1.039062 0.367188 0.000000
v -1.039062 0.367188 0.000000
v 1.187500 0.445312 0.093750
v -1.187500 0.445312 0.093750
v 1.234375 0.445312 0.250000
v -1.234375 0.445312 0.250000
v 1.171875 0.437500 0.359375
v -1.171875 0.437500 0.359375
v 1.023438 0.359375 0.343750
v -1.023438 0.359375 0.343750
v 0.843750 0.210937 0.289062
v -0.843750 0.210937 0.289062
v 0.835938 0.273438 0.171875
v -0.835938 0.273438 0.171875
v 0.757812 0.273438 0.093750
v -0.757812 0.273438 0.093750
v 0.820312 0.273438 0.085938
v -0.820312 0.273438 0.085938
v 0.843750 0.273438 0.015625
v -0.843750 0.273438 0.015625
v 0.812500 0.273438 -0.015625
v -0.812500 0.273438 -0.015625
v 0.726562 0.070312 0.000000
v -0.726562 0.070312 0.000000
v 0.718750 0.171875 -0.023437
v -0.718750 0.171875 -0.023437
v 0.718750 0.187500 0.039063
v -0.718750 0.187500 0.039063
v 0.796875 0.210937 0.203125
v -0.796875 0.210937 0.203125
v 0.890625 0.265625 0.242188
v -0.890625 0.265625 0.242188
v 0.890625 0.320312 0.234375
v -0.890625 0.320312 0.234375
v 0.812500 0.320312 -0.015625
v -0.812500 0.320312 -0.015625
v 0.851562 0.320312 0.015625
v -0.851562 0.320312 0.015625
v 0.828125 0.320312 0.078125
v -0.828125 0.320312 0.078125
v 0.765625 0.320312 0.093750
v -0.765625 0.320312 0.093750
v 0.843750 0.320312 0.171875
v -0.843750 0.320312 0.171875
v 1.039062 0.414062 0.328125
v -1.039062 0.414062 0.328125
v 1.187500 0.484375 0.343750
v -1.187500 0.484375 0.343750
v 1.257812 0.492188 0.242188
v -1.257812 0.492188 0.242188
v 1.210938 0.484375 0.085938
v -1.210938 0.484375 0.085938
v 1.046875 0.421875 0.000000
v -1.046875 0.421875 0.000000
v 0.882812 0.265625 -0.015625
v -0.882812 0.265625 -0.015625
v 0.953125 0.343750 0.289063
v -0.953125 0.343750 0.289063
v 0.890625 0.328125 0.109375
v -0.890625 0.328125 0.109375
v 0.937500 0.335938 0.062500
v -0.937500 0.335938 0.062500
v 1.000000 0.367188 0.125000
v -1.000000 0.367188 0.125000
v 0.960938 0.351562 0.171875
v -0.960938 0.351562 0.171875
v 1.015625 0.375000 0.234375
v -1.015625 0.375000 0.234375
v 1.054688 0.382812 0.187500
v -1.054688 0.382812 0.187500
v 1.109375 0.390625 0.210938
v -1.109375 0.390625 0.210938
v 1.085938 0.390625 0.273438
v -1.085938 0.390625 0.273438
v 1.023438 0.484375 0.437500
v -1.023438 0.484375 0.437500
v 1.250000 0.546875 0.468750
v -1.250000 0.546875 0.468750
v 1.367188 0.500000 0.296875
v -1.367188 0.500000 0.296875
v 1.312500 0.531250 0.054688
v -1.312500 0.531250 0.054688
v 1.039062 0.492188 -0.085937
v -1.039062 0.492188 -0.085937
v 0.789062 0.328125 -0.125000
v -0.789062 0.328125 -0.125000
v 0.859375 0.382812 0.382813
v -0.859375 0.382812 0.382813
vt 0.943088 0.229138
vt 0.943430 0.212352
vt 0.967811 0.203650
vt 0.881811 0.053950
vt 0.905782 0.063725
vt 0.905379 0.080509
vt 0.968398 0.240378
vt 0.999638 0.197819
vt 0.850275 0.046712
vt 0.879595 0.090616
vt 0.942504 0.177909
vt 0.960034 0.152797
vt 0.891838 0.003492
vt 0.908237 0.029357
vt 0.930960 0.198962
vt 0.918834 0.050902
vt 0.913867 0.198718
vt 0.907350 0.177307
vt 0.943383 0.030316
vt 0.935921 0.051417
vt 0.897370 0.146636
vt 0.954714 0.000119
vt 0.878313 0.199605
vt 0.850275 0.189019
vt 0.971401 0.053881
vt 0.899972 0.209781
vt 0.949311 0.063086
vt 0.900288 0.228740
vt 0.879604 0.236914
vt 0.968455 0.091096
vt 0.948155 0.082012
vt 0.852582 0.252205
vt 0.999881 0.044550
vt 0.904479 0.262931
vt 0.897460 0.293065
vt 0.942450 0.115983
vt 0.994772 0.107571
vt 0.911851 0.241460
vt 0.936038 0.094206
vt 0.930144 0.241750
vt 0.940633 0.264439
vt 0.917750 0.093684
vt 0.956504 0.293065
vt 0.906264 0.115885
vt 0.948124 0.146399
vt 0.997175 0.253252
vt 0.889138 0.143778
vt 0.928356 0.238552
vt 0.940436 0.228011
vt 0.908078 0.079502
vt 0.913209 0.236424
vt 0.919679 0.090568
vt 0.904730 0.226568
vt 0.934905 0.089114
vt 0.905789 0.212588
vt 0.943813 0.079645
vt 0.915120 0.203485
vt 0.934458 0.056123
vt 0.928127 0.203306
vt 0.921472 0.055367
vt 0.939870 0.213212
vt 0.909300 0.064742
vt 0.921254 0.219599
vt 0.927615 0.071949
vt 0.943376 0.065632
vt 0.350997 0.546197
vt 0.349714 0.546727
vt 0.349526 0.546144
vt 0.348341 0.547061
vt 0.348096 0.546382
vt 0.351525 0.545968
vt 0.350809 0.545528
vt 0.347752 0.547194
vt 0.347108 0.546437
vt 0.352030 0.544977
vt 0.352357 0.546297
vt 0.347241 0.548007
vt 0.346700 0.546639
vt 0.353861 0.544992
vt 0.353549 0.547117
vt 0.346762 0.549524
vt 0.345015 0.547837
vt 0.359669 0.544731
vt 0.359268 0.550590
vt 0.344442 0.557307
vt 0.338628 0.552216
vt 0.373593 0.543308
vt 0.381829 0.532249
vt 0.391477 0.538186
vt 0.226869 0.630736
vt 0.269696 0.556374
vt 0.315780 0.570045
vt 0.387085 0.523085
vt 0.392539 0.522999
vt 0.231375 0.511485
vt 0.388693 0.512523
vt 0.395087 0.515622
vt 0.199627 0.410391
vt 0.261072 0.447721
vt 0.395695 0.507944
vt 0.398966 0.510050
vt 0.278212 0.392213
vt 0.399491 0.505402
vt 0.402308 0.508981
vt 0.301177 0.363708
vt 0.255571 0.357546
vt 0.409233 0.500353
vt 0.413997 0.504887
vt 0.378116 0.338407
vt 0.279658 0.323968
vt 0.416810 0.496138
vt 0.419622 0.500768
vt 0.456002 0.337402
vt 0.427793 0.366315
vt 0.421197 0.494073
vt 0.424409 0.498962
vt 0.446046 0.382511
vt 0.444546 0.481622
vt 0.449489 0.503776
vt 0.473000 0.438607
vt 0.477203 0.367344
vt 0.467946 0.467995
vt 0.495281 0.509545
vt 0.533496 0.445312
vt 0.426007 0.510938
vt 0.602817 0.277511
vt 0.619183 0.400774
vt 0.420083 0.510930
vt 0.540794 0.205259
vt 0.411278 0.287002
vt 0.395027 0.140883
vt 0.413201 0.511910
vt 0.224091 0.264941
vt 0.403925 0.513005
vt 0.178207 0.330217
vt 0.400528 0.515095
vt 0.129887 0.415864
vt 0.397702 0.519502
vt 0.178847 0.496590
vt 0.143386 0.584728
vt 0.396138 0.529403
vt 0.221488 0.687876
vt 0.386195 0.565918
vt 0.397311 0.538511
vt 0.355470 0.605910
vt 0.406691 0.811126
vt 0.411626 0.553036
vt 0.422181 0.554725
vt 0.413782 0.599787
vt 0.482145 0.792094
vt 0.446309 0.532905
vt 0.631719 0.573745
vt 0.472117 0.579379
vt 0.436303 0.549646
vt 0.350522 0.547217
vt 0.349923 0.547356
vt 0.349358 0.547610
vt 0.351247 0.547355
vt 0.348854 0.548178
vt 0.349118 0.549811
vt 0.356428 0.555252
vt 0.352464 0.549010
vt 0.348960 0.550321
vt 0.350760 0.558100
vt 0.352034 0.548741
vt 0.357289 0.563203
vt 0.353826 0.556933
vt 0.351941 0.568886
vt 0.350967 0.550260
vt 0.350543 0.549122
vt 0.370370 0.561121
vt 0.368825 0.564933
vt 0.365356 0.563523
vt 0.354538 0.571608
vt 0.355301 0.576072
vt 0.349847 0.577224
vt 0.377062 0.566760
vt 0.373032 0.568114
vt 0.358665 0.581751
vt 0.356594 0.587740
vt 0.372412 0.572933
vt 0.364296 0.580989
vt 0.373987 0.581236
vt 0.366388 0.574628
vt 0.367686 0.577177
vt 0.363841 0.560791
vt 0.358765 0.565380
vt 0.365617 0.565959
vt 0.360297 0.567466
vt 0.364330 0.572441
vt 0.369941 0.571383
vt 0.362711 0.578210
vt 0.370689 0.568668
vt 0.359559 0.578857
vt 0.367920 0.566625
vt 0.357229 0.572585
vt 0.357512 0.575301
vt 0.370885 0.556118
vt 0.342079 0.576265
vt 0.365578 0.553914
vt 0.342815 0.567112
vt 0.365378 0.544038
vt 0.330335 0.557615
vt 0.368960 0.543773
vt 0.324662 0.562391
vt 0.350486 0.548966
vt 0.351655 0.548583
vt 0.349319 0.549432
vt 0.351127 0.547616
vt 0.349119 0.548312
vt 0.350433 0.547417
vt 0.349554 0.547716
vt 0.350403 0.547904
vt 0.350121 0.547932
vt 0.349970 0.547492
vt 0.350734 0.547955
vt 0.349651 0.548334
vt 0.350916 0.548259
vt 0.349700 0.548691
vt 0.350302 0.548451
vt 0.349882 0.548085
vt 0.422140 0.548226
vt 0.520118 0.855291
vt 0.562292 0.705948
vt 0.430912 0.543243
vt 0.639677 0.760268
vt 0.434516 0.531833
vt 0.431515 0.520406
vt 0.745844 0.389458
vt 0.413647 0.546898
vt 0.401845 0.536968
vt 0.175021 0.753639
vt 0.399876 0.529432
vt 0.069115 0.620524
vt 0.399962 0.521260
vt 0.066767 0.418122
vt 0.402960 0.517223
vt 0.111015 0.276274
vt 0.405710 0.514931
vt 0.413612 0.514897
vt 0.195498 0.204162
vt 0.419420 0.514386
vt 0.582093 0.122586
vt 0.424605 0.515442
vt 0.681224 0.228152
vt 0.437311 0.514223
vt 0.427384 0.522524
vt 0.423562 0.517404
vt 0.739714 0.193244
vt 0.419081 0.516155
vt 0.413731 0.516146
vt 0.400665 0.053159
vt 0.400916 0.000119
vt 0.406709 0.516816
vt 0.145388 0.137866
vt 0.404093 0.518694
vt 0.401853 0.521843
vt 0.000119 0.401553
vt 0.401523 0.529239
vt 0.403483 0.535430
vt 0.135853 0.785177
vt 0.414425 0.543579
vt 0.396151 0.871718
vt 0.378205 0.933393
vt 0.430368 0.531219
vt 0.823133 0.607818
vt 0.739832 0.593973
vt 0.427046 0.539279
vt 0.736470 0.829715
vt 0.421942 0.543324
vt 0.570388 0.933393
vt 0.422812 0.466921
vt 0.426620 0.435659
vt 0.417095 0.489282
vt 0.425141 0.395043
vt 0.413334 0.493557
vt 0.404380 0.494663
vt 0.409207 0.379032
vt 0.395658 0.501942
vt 0.368662 0.380353
vt 0.392677 0.505198
vt 0.296791 0.410338
vt 0.385822 0.511215
vt 0.381997 0.520229
vt 0.265631 0.503038
vt 0.378912 0.529024
vt 0.277224 0.539642
vt 0.346566 0.533397
vt 0.356158 0.530820
vt 0.351878 0.537108
vt 0.347237 0.537377
vt 0.342497 0.538873
vt 0.350482 0.542455
vt 0.348618 0.543069
vt 0.346637 0.543481
vt 0.350492 0.544666
vt 0.349241 0.545225
vt 0.347865 0.545457
vt 0.351613 0.545037
vt 0.351541 0.544410
vt 0.346798 0.545837
vt 0.352576 0.542920
vt 0.344941 0.545075
vt 0.356270 0.538849
vt 0.338320 0.542982
vt 0.328774 0.544339
vt 0.335011 0.532869
vt 0.365999 0.537011
vt 0.369328 0.538519
vt 0.321809 0.546494
vt 0.362213 0.537195
vt 0.372346 0.539607
vt 0.312113 0.559929
vt 0.359158 0.499042
vt 0.358122 0.503242
vt 0.351866 0.500341
vt 0.347425 0.493313
vt 0.354060 0.495573
vt 0.356984 0.510421
vt 0.349011 0.508423
vt 0.344428 0.497789
vt 0.356352 0.526149
vt 0.333672 0.526565
vt 0.339943 0.506142
vt 0.346157 0.528889
vt 0.373670 0.510965
vt 0.313829 0.489036
vt 0.277017 0.456285
vt 0.363374 0.494191
vt 0.349705 0.485557
vt 0.357778 0.489212
vt 0.383495 0.483466
vt 0.375340 0.485137
vt 0.370330 0.474652
vt 0.363828 0.454478
vt 0.382262 0.466228
vt 0.369460 0.487790
vt 0.355363 0.475232
vt 0.358881 0.466930
vt 0.362203 0.482981
vt 0.388953 0.501664
vt 0.314718 0.428127
vt 0.316901 0.395652
vt 0.389061 0.497023
vt 0.380968 0.496993
vt 0.335258 0.456459
vt 0.333673 0.428773
vt 0.379968 0.491259
vt 0.375583 0.495126
vt 0.341933 0.467660
vt 0.348524 0.458106
vt 0.373961 0.491063
vt 0.371015 0.495930
vt 0.343016 0.476096
vt 0.349642 0.469254
vt 0.365341 0.497161
vt 0.369401 0.492544
vt 0.344903 0.485006
vt 0.339462 0.483705
vt 0.349001 0.476891
vt 0.398347 0.490439
vt 0.364266 0.406219
vt 0.414515 0.454681
vt 0.429656 0.455458
vt 0.377566 0.504211
vt 0.376066 0.501521
vt 0.328618 0.471067
vt 0.321122 0.470656
vt 0.372443 0.500330
vt 0.334476 0.476767
vt 0.361736 0.509973
vt 0.366824 0.520523
vt 0.317109 0.515205
vt 0.366016 0.508787
vt 0.329477 0.496377
vt 0.317040 0.553368
vt 0.364800 0.502650
vt 0.361792 0.501137
vt 0.338551 0.490456
vt 0.334107 0.502084
vt 0.343110 0.492342
vt 0.370228 0.501070
vt 0.370423 0.501402
vt 0.369792 0.501678
vt 0.335498 0.481261
vt 0.335331 0.482813
vt 0.334992 0.482566
vt 0.369581 0.501599
vt 0.369364 0.501981
vt 0.334976 0.483542
vt 0.369237 0.502179
vt 0.369175 0.502118
vt 0.335159 0.483685
vt 0.334969 0.483973
vt 0.369067 0.502466
vt 0.368991 0.502355
vt 0.334810 0.483945
vt 0.334807 0.484502
vt 0.368781 0.503176
vt 0.368524 0.503109
vt 0.334558 0.484508
vt 0.334197 0.486008
vt 0.368620 0.504914
vt 0.331412 0.487979
vt 0.333816 0.485710
vt 0.369040 0.502985
vt 0.368968 0.504263
vt 0.331969 0.486700
vt 0.333811 0.485119
vt 0.369154 0.502483
vt 0.334440 0.484396
vt 0.369258 0.502250
vt 0.334680 0.483988
vt 0.369402 0.502120
vt 0.334723 0.483630
vt 0.369800 0.502019
vt 0.334455 0.482909
vt 0.370348 0.501998
vt 0.333905 0.482027
vt 0.334775 0.481286
vt 0.369839 0.506454
vt 0.371720 0.507962
vt 0.322296 0.487217
vt 0.367962 0.505332
vt 0.331601 0.489415
vt 0.327502 0.488110
vt 0.371791 0.501609
vt 0.333008 0.479242
vt 0.369642 0.504403
vt 0.330957 0.485849
vt 0.370684 0.505681
vt 0.327634 0.485793
vt 0.330964 0.485202
vt 0.370694 0.504198
vt 0.369902 0.504197
vt 0.330017 0.483960
vt 0.372156 0.503254
vt 0.329798 0.480419
vt 0.331177 0.482340
vt 0.371007 0.503243
vt 0.370888 0.502399
vt 0.332680 0.481588
vt 0.370488 0.502616
vt 0.332771 0.482471
vt 0.370557 0.503191
vt 0.370497 0.503848
vt 0.330808 0.483860
vt 0.370242 0.504024
vt 0.370148 0.503740
vt 0.330832 0.484469
vt 0.369729 0.503945
vt 0.331386 0.484282
vt 0.369661 0.504152
vt 0.331322 0.485521
vt 0.369226 0.504041
vt 0.332002 0.486052
vt 0.370123 0.502237
vt 0.333770 0.482636
vt 0.369688 0.502152
vt 0.334370 0.483224
vt 0.369393 0.502199
vt 0.334613 0.483728
vt 0.369314 0.502303
vt 0.334373 0.484267
vt 0.369184 0.502860
vt 0.333836 0.484765
vt 0.369613 0.503308
vt 0.370014 0.503310
vt 0.331558 0.485172
vt 0.332211 0.483997
vt 0.369636 0.502826
vt 0.369922 0.502787
vt 0.332671 0.484616
vt 0.333128 0.483552
vt 0.369630 0.502550
vt 0.333818 0.483744
vt 0.333388 0.484039
vt 0.369530 0.502427
vt 0.369603 0.502318
vt 0.333795 0.483375
vt 0.334205 0.483534
vt 0.369796 0.502447
vt 0.331779 0.483004
vt 0.334116 0.483764
vt 0.334539 0.483961
vt 0.366360 0.503740
vt 0.335604 0.489680
vt 0.368360 0.502470
vt 0.335310 0.485556
vt 0.368935 0.502206
vt 0.369108 0.502103
vt 0.335061 0.484058
vt 0.369129 0.501968
vt 0.335244 0.483883
vt 0.369244 0.501944
vt 0.369056 0.501623
vt 0.335837 0.483632
vt 0.368957 0.500274
vt 0.337890 0.482438
vt 0.335091 0.484427
vt 0.367837 0.499905
vt 0.850275 0.102199
vt 0.850038 0.358040
vt 0.612175 0.067663
vt 0.051533 0.251312
vt 0.027711 0.638496
vn 0.969300 -0.245600 -0.011800
vn 0.729000 -0.193400 -0.656600
vn 0.607600 -0.608500 -0.510400
vn -0.607600 -0.608500 -0.510400
vn -0.729000 -0.193400 -0.656600
vn -0.969300 -0.245600 -0.011800
vn 0.800100 -0.599800 -0.002800
vn 0.680200 -0.488800 -0.546300
vn -0.680200 -0.488800 -0.546300
vn -0.800100 -0.599800 -0.002800
vn 0.099500 -0.652200 -0.751500
vn 0.119300 -0.476300 -0.871200
vn -0.119300 -0.476300 -0.871200
vn -0.099500 -0.652200 -0.751500
vn 0.031400 -0.252900 -0.966900
vn -0.031400 -0.252900 -0.966900
vn -0.650600 -0.321000 -0.688300
vn -0.456300 -0.710100 -0.536100
vn 0.456300 -0.710100 -0.536100
vn 0.650600 -0.321000 -0.688300
vn -0.553900 -0.540600 -0.633200
vn 0.553900 -0.540600 -0.633200
vn -0.689900 -0.723900 -0.004000
vn -0.809700 -0.586800 -0.007000
vn 0.689900 -0.723900 -0.004000
vn -0.952100 -0.305700 -0.010200
vn 0.952100 -0.305700 -0.010200
vn -0.664400 -0.305600 0.682100
vn -0.455900 -0.720700 0.522200
vn 0.455900 -0.720700 0.522200
vn 0.664400 -0.305600 0.682100
vn -0.530600 -0.571700 0.625800
vn 0.809700 -0.586800 -0.007000
vn 0.103100 -0.664400 0.740200
vn 0.125700 -0.525300 0.841600
vn -0.103100 -0.664400 0.740200
vn 0.530600 -0.571700 0.625800
vn 0.025700 -0.231100 0.972600
vn -0.025700 -0.231100 0.972600
vn 0.736400 -0.180300 0.652100
vn 0.610200 -0.618100 0.495600
vn -0.736400 -0.180300 0.652100
vn 0.668200 -0.514800 0.537100
vn -0.610200 -0.618100 0.495600
vn -0.125700 -0.525300 0.841600
vn 0.868200 -0.496100 -0.004800
vn -0.668200 -0.514800 0.537100
vn 0.721600 -0.222400 0.655600
vn 0.964400 -0.263900 -0.012700
vn -0.964400 -0.263900 -0.012700
vn 0.043200 -0.341400 0.938900
vn -0.721600 -0.222400 0.655600
vn -0.623700 -0.464700 0.628500
vn -0.043100 -0.341400 0.938900
vn -0.927000 -0.374900 -0.012900
vn 0.623700 -0.464700 0.628500
vn -0.615900 -0.464100 -0.636600
vn 0.615900 -0.464100 -0.636600
vn 0.042500 -0.337500 -0.940300
vn -0.042500 -0.337500 -0.940300
vn 0.715200 -0.222700 -0.662500
vn -0.715200 -0.222700 -0.662500
vn 0.183600 -0.983000 -0.005300
vn -0.183600 -0.983000 -0.005300
vn 0.927000 -0.374900 -0.012900
vn 0.155400 -0.632300 -0.759000
vn 0.000000 -0.631600 -0.775300
vn 0.000000 -0.252300 -0.967700
vn -0.155400 -0.632300 -0.759000
vn -0.159600 -0.152900 -0.975200
vn 0.350200 -0.684700 -0.639100
vn 0.159600 -0.152900 -0.975200
vn -0.350200 -0.684700 -0.639100
vn -0.526700 -0.161100 -0.834700
vn 0.945700 -0.197700 -0.257900
vn 0.555700 -0.800000 -0.226400
vn -0.555700 -0.800000 -0.226400
vn -0.945700 -0.197700 -0.257900
vn 0.972800 -0.208700 0.100300
vn 0.565200 -0.824400 -0.029700
vn -0.565200 -0.824400 -0.029700
vn -0.972800 -0.208700 0.100300
vn 0.955700 -0.156500 0.249200
vn 0.593700 -0.797400 0.108200
vn -0.593700 -0.797400 0.108200
vn -0.955700 -0.156500 0.249200
vn 0.891500 -0.309500 -0.330700
vn 0.348800 0.008100 -0.937100
vn 0.384100 -0.728500 -0.567100
vn -0.384100 -0.728500 -0.567100
vn -0.348800 0.008100 -0.937100
vn -0.891500 -0.309500 -0.330700
vn 0.587500 -0.197000 -0.784900
vn 0.499100 -0.780700 -0.376000
vn -0.587500 -0.197000 -0.784900
vn 0.907000 0.128900 -0.400900
vn 0.566500 -0.759800 -0.318800
vn -0.566500 -0.759800 -0.318800
vn -0.907000 0.128900 -0.400900
vn 0.845100 -0.298500 0.443400
vn 0.460700 -0.875600 -0.144800
vn -0.845100 -0.298500 0.443400
vn 0.517000 -0.212500 0.829100
vn 0.480100 -0.857800 -0.183300
vn -0.517000 -0.212500 0.829100
vn -0.460700 -0.875600 -0.144800
vn 0.597600 -0.164600 0.784700
vn 0.308500 -0.951200 0.003800
vn -0.597600 -0.164600 0.784700
vn -0.480100 -0.857800 -0.183300
vn 0.231300 -0.175100 0.957000
vn 0.266600 -0.939100 0.216600
vn -0.266600 -0.939100 0.216600
vn -0.231300 -0.175100 0.957000
vn -0.605100 -0.209800 0.768000
vn -0.157400 -0.973400 0.166000
vn 0.605100 -0.209800 0.768000
vn -0.824200 -0.147300 0.546800
vn -0.061100 -0.997800 -0.025200
vn 0.824200 -0.147300 0.546800
vn 0.157400 -0.973400 0.166000
vn 0.000000 -0.267300 0.963600
vn 0.000000 -0.996600 -0.082700
vn 0.061100 -0.997800 -0.025200
vn 0.258200 -0.957800 -0.126500
vn -0.258200 -0.957800 -0.126500
vn -0.367800 -0.885600 -0.283600
vn 0.149000 -0.976700 -0.154100
vn -0.149000 -0.976700 -0.154100
vn -0.308500 -0.951200 0.003800
vn -0.219000 -0.975000 0.037100
vn 0.219000 -0.975000 0.037100
vn -0.225400 -0.905000 -0.360800
vn 0.225400 -0.905000 -0.360800
vn -0.358800 -0.925700 -0.119200
vn 0.358800 -0.925700 -0.119200
vn -0.460200 -0.872300 -0.165100
vn 0.460200 -0.872300 -0.165100
vn -0.499100 -0.780700 -0.376000
vn -0.427900 -0.815600 -0.389500
vn 0.427900 -0.815600 -0.389500
vn -0.332200 -0.869000 -0.366700
vn 0.040200 -0.961400 -0.272100
vn 0.332200 -0.869000 -0.366700
vn -0.040200 -0.961400 -0.272100
vn 0.152200 -0.954900 -0.254800
vn -0.152200 -0.954900 -0.254800
vn -0.239300 -0.923000 -0.301200
vn 0.000000 -0.997900 0.064300
vn 0.239300 -0.923000 -0.301200
vn 0.031600 -0.983500 -0.178200
vn -0.031600 -0.983500 -0.178200
vn 0.000000 -0.975000 -0.222000
vn -0.200600 -0.970300 -0.135000
vn -0.058900 -0.923700 -0.378400
vn 0.000000 -0.938000 -0.346500
vn 0.058900 -0.923700 -0.378400
vn 0.130700 -0.938800 -0.318600
vn -0.130700 -0.938800 -0.318600
vn -0.145900 -0.981900 -0.120200
vn 0.134100 -0.990900 0.006300
vn 0.181500 -0.982300 -0.045200
vn -0.181500 -0.982300 -0.045200
vn -0.134100 -0.990900 0.006300
vn 0.145900 -0.981900 -0.120200
vn 0.000000 -0.879500 -0.475900
vn 0.000000 -1.000000 0.000000
vn -0.500300 -0.751900 -0.429200
vn 0.000000 -0.999400 -0.034100
vn 0.000000 -0.809600 -0.587000
vn 0.930400 -0.344800 -0.124200
vn 0.930600 -0.280400 -0.235300
vn 0.583600 -0.423500 -0.692900
vn -0.583600 -0.423500 -0.692900
vn -0.930600 -0.280400 -0.235300
vn -0.930400 -0.344800 -0.124200
vn 0.493100 -0.800200 -0.341200
vn 0.628600 -0.117700 0.768800
vn -0.628600 -0.117700 0.768800
vn -0.493100 -0.800200 -0.341200
vn -0.240500 -0.203600 0.949000
vn 0.240500 -0.203600 0.949000
vn -0.000000 -0.856200 0.516600
vn 0.000000 -0.559700 0.828700
vn 0.000000 -0.559600 0.828700
vn 0.000000 -0.967700 -0.252000
vn 0.500300 -0.751900 -0.429200
vn 0.000000 -0.501100 -0.865400
vn 0.183300 -0.789000 -0.586400
vn 0.000000 -0.876400 -0.481500
vn 0.000000 -0.987500 0.157800
vn -0.185700 -0.781500 0.595600
vn 0.185700 -0.781500 0.595600
vn 0.361100 -0.804700 0.471300
vn -0.361100 -0.804700 0.471300
vn 0.448800 -0.836400 -0.314700
vn -0.183300 -0.789000 -0.586400
vn -0.448800 -0.836400 -0.314700
vn 0.775100 -0.630600 0.038700
vn -0.775100 -0.630600 0.038700
vn 0.650700 -0.744700 0.148700
vn -0.650700 -0.744700 0.148700
vn 0.927800 -0.120900 0.353000
vn -0.927800 -0.120900 0.353000
vn 0.930600 -0.126300 0.343500
vn -0.930600 -0.126300 0.343500
vn 0.000000 -0.273200 -0.961900
vn -0.136800 -0.838600 -0.527300
vn 0.136800 -0.838600 -0.527300
vn -0.635100 -0.771200 0.042800
vn 0.635100 -0.771200 0.042800
vn -0.414100 -0.701600 0.579800
vn 0.414100 -0.701600 0.579800
vn -0.295800 -0.828800 0.475000
vn 0.000000 -0.845900 0.533400
vn 0.000000 -0.829300 0.558800
vn -0.673800 -0.729900 0.115500
vn 0.673800 -0.729900 0.115500
vn -0.517700 -0.486000 -0.704100
vn 0.517700 -0.486000 -0.704100
vn 0.000000 -0.715200 -0.698900
vn 0.295800 -0.828800 0.475000
vn -0.010100 -0.997500 -0.070000
vn 0.010100 -0.997500 -0.070000
vn 0.200600 -0.970300 -0.135000
vn 0.158100 -0.983800 -0.084200
vn -0.158100 -0.983800 -0.084200
vn 0.293400 -0.954100 -0.060200
vn 0.158800 -0.981500 -0.106400
vn -0.158800 -0.981500 -0.106400
vn -0.031700 -0.975000 -0.219800
vn 0.184500 -0.965000 -0.186300
vn -0.184500 -0.965000 -0.186300
vn 0.299000 -0.953600 -0.035600
vn -0.299000 -0.953600 -0.035600
vn 0.294300 -0.950200 -0.102000
vn -0.294300 -0.950200 -0.102000
vn 0.177600 -0.982200 -0.060800
vn -0.177600 -0.982200 -0.060800
vn 0.294400 -0.955700 0.004600
vn 0.088700 -0.987900 -0.127200
vn -0.294400 -0.955700 0.004600
vn 0.203600 -0.973600 0.103200
vn -0.203600 -0.973600 0.103200
vn 0.143500 -0.984900 0.096600
vn -0.143500 -0.984900 0.096600
vn 0.367800 -0.885600 -0.283600
vn 0.450800 -0.761400 -0.465800
vn 0.288600 -0.916000 -0.278600
vn -0.288600 -0.916000 -0.278600
vn 0.113300 -0.942600 -0.314200
vn -0.274100 -0.439100 -0.855600
vn -0.088700 -0.987900 -0.127200
vn 0.274100 -0.439100 -0.855600
vn -0.142300 -0.800200 -0.582600
vn 0.142300 -0.800200 -0.582600
vn -0.422900 -0.899700 -0.107800
vn -0.192100 -0.962500 0.191400
vn 0.192100 -0.962500 0.191400
vn -0.165300 -0.775100 0.609800
vn 0.143100 -0.816900 0.558700
vn -0.143100 -0.816900 0.558700
vn 0.432300 -0.687700 0.583300
vn 0.031700 -0.975000 -0.219800
vn -0.432300 -0.687700 0.583300
vn 0.789400 -0.579300 -0.203200
vn -0.789400 -0.579300 -0.203200
vn -0.293400 -0.954100 -0.060200
vn 0.801600 -0.597700 0.011000
vn -0.801600 -0.597700 0.011000
vn 0.688100 -0.661400 0.298500
vn -0.688100 -0.661400 0.298500
vn -0.460200 -0.212700 0.861900
vn 0.460200 -0.212700 0.861900
vn -0.479200 0.712900 0.511900
vn 0.479200 0.712900 0.511900
vn 0.121700 0.749800 0.650300
vn 0.227500 0.428300 0.874500
vn -0.121700 0.749800 0.650300
vn 0.345500 0.219100 0.912400
vn -0.227500 0.428300 0.874500
vn 0.695700 0.421800 0.581400
vn -0.695700 0.421800 0.581400
vn 0.930200 0.202300 -0.306200
vn 0.544300 0.053300 -0.837200
vn -0.544300 0.053300 -0.837200
vn 0.472000 0.176800 -0.863700
vn -0.472000 0.176800 -0.863700
vn 0.000000 0.636700 -0.771100
vn 0.689300 0.278600 -0.668700
vn 0.277100 0.907800 -0.314700
vn 0.000000 0.977000 -0.213300
vn -0.277100 0.907800 -0.314700
vn 0.151400 0.976900 -0.151000
vn 0.000000 0.954700 -0.297300
vn -0.151400 0.976900 -0.151000
vn 0.067500 0.618100 -0.783200
vn 0.000000 0.471600 -0.881800
vn -0.067500 0.618100 -0.783200
vn 0.526700 -0.161100 -0.834700
vn 0.555100 0.682000 -0.476200
vn -0.555100 0.682000 -0.476200
vn 0.620400 0.779800 0.083500
vn -0.620400 0.779800 0.083500
vn 0.779800 0.625800 -0.010500
vn -0.779800 0.625800 -0.010500
vn -0.895700 0.362400 0.257700
vn -0.689300 0.278600 -0.668700
vn 0.978700 -0.061500 -0.195800
vn 0.887200 -0.433600 -0.157700
vn -0.978700 -0.061500 -0.195800
vn 0.895700 0.362400 0.257700
vn 0.785700 -0.236700 -0.571500
vn -0.785700 -0.236700 -0.571500
vn 0.445500 0.820400 -0.358300
vn 0.522300 0.547700 -0.653600
vn 0.000000 0.722600 -0.691300
vn -0.445500 0.820400 -0.358300
vn 0.000000 0.952400 -0.304900
vn 0.507100 0.203300 -0.837600
vn 0.000000 0.336500 -0.941600
vn -0.522300 0.547700 -0.653600
vn 0.572700 -0.012000 -0.819700
vn -0.572700 -0.012000 -0.819700
vn -0.507100 0.203300 -0.837600
vn 0.000000 0.183300 -0.983000
vn 0.721000 -0.065100 -0.689800
vn -0.721000 -0.065100 -0.689800
vn -0.930200 0.202300 -0.306200
vn 0.473000 0.863200 0.176300
vn -0.473000 0.863200 0.176300
vn 0.000000 0.931000 0.365000
vn 0.444200 -0.527100 0.724400
vn 0.413500 -0.039500 0.909600
vn 0.000000 -0.022600 0.999700
vn -0.444200 -0.527100 0.724400
vn 0.000000 -0.556800 0.830600
vn 0.391200 0.426800 0.815300
vn -0.391200 0.426800 0.815300
vn -0.413500 -0.039500 0.909600
vn 0.000000 0.551400 0.834200
vn 0.771700 -0.078500 0.631100
vn -0.771700 -0.078500 0.631100
vn -0.345500 0.219100 0.912400
vn 0.444400 -0.425000 0.788500
vn 0.741800 -0.427800 0.516400
vn -0.741800 -0.427800 0.516400
vn -0.444400 -0.425000 0.788500
vn 0.668200 -0.319500 0.671900
vn 0.848600 0.014000 0.528800
vn -0.848600 0.014000 0.528800
vn -0.668200 -0.319500 0.671900
vn 0.678400 0.069500 0.731400
vn 0.872200 0.374600 0.314600
vn -0.872200 0.374600 0.314600
vn -0.678400 0.069500 0.731400
vn 0.619600 0.782500 -0.060500
vn 0.607500 0.553600 0.569600
vn -0.619600 0.782500 -0.060500
vn -0.670800 0.740300 -0.045300
vn -0.607500 0.553600 0.569600
vn 0.340600 -0.322300 0.883200
vn -0.340600 -0.322300 0.883200
vn 0.000000 -0.848400 0.529300
vn 0.000000 -0.511600 0.859200
vn 0.985000 -0.063100 -0.160500
vn 0.998300 0.050200 -0.028300
vn -0.998300 0.050200 -0.028300
vn -0.985000 -0.063100 -0.160500
vn 0.840300 -0.224600 0.493400
vn -0.840300 -0.224600 0.493400
vn 0.563300 0.121300 -0.817300
vn 0.579000 -0.142700 -0.802700
vn -0.579000 -0.142700 -0.802700
vn 0.312300 -0.001200 -0.949900
vn -0.312300 -0.001200 -0.949900
vn -0.887200 -0.433600 -0.157700
vn 0.325500 0.728400 -0.602900
vn 0.529200 0.681700 -0.505100
vn -0.325500 0.728400 -0.602900
vn -0.563300 0.121300 -0.817300
vn -0.529200 0.681700 -0.505100
vn -0.279200 -0.575900 0.768300
vn 0.449200 -0.892600 -0.038300
vn 0.551200 -0.830600 -0.078800
vn 0.279200 -0.575900 0.768300
vn -0.018800 -0.488600 0.872200
vn -0.551200 -0.830600 -0.078800
vn 0.018800 -0.488600 0.872200
vn 0.321500 -0.942400 -0.092300
vn -0.321500 -0.942400 -0.092300
vn -0.154500 -0.980200 -0.123900
vn 0.778800 -0.604400 0.167800
vn -0.383600 -0.328800 0.863000
vn -0.778800 -0.604400 0.167800
vn -0.041100 -0.949600 0.310800
vn 0.652600 -0.588800 -0.476800
vn 0.154500 -0.980200 -0.123900
vn -0.652600 -0.588800 -0.476800
vn 0.538400 -0.789200 0.295300
vn 0.502900 -0.370300 -0.781000
vn 0.041100 -0.949600 0.310800
vn -0.502900 -0.370300 -0.781000
vn 0.329900 -0.889600 0.315700
vn -0.329900 -0.889600 0.315700
vn -0.538400 -0.789200 0.295300
vn -0.186800 -0.235100 0.953800
vn 0.162900 -0.487000 0.858000
vn -0.162900 -0.487000 0.858000
vn 0.186800 -0.235100 0.953800
vn -0.762100 0.019300 0.647100
vn 0.762100 0.019300 0.647100
vn -0.984700 -0.142600 -0.099600
vn 0.984700 -0.142600 -0.099600
vn -0.149600 -0.649500 -0.745500
vn 0.149600 -0.649500 -0.745500
vn 0.560400 -0.499100 -0.660900
vn -0.560400 -0.499100 -0.660900
vn 0.684200 -0.472200 -0.555800
vn -0.684200 -0.472200 -0.555800
vn -0.449200 -0.892600 -0.038300
vn 0.731200 -0.672500 0.114400
vn 0.857200 0.148300 -0.493100
vn -0.857200 0.148300 -0.493100
vn 0.029500 -0.771900 -0.635000
vn -0.029500 -0.771900 -0.635000
vn -0.731200 -0.672500 0.114400
vn 0.794900 -0.560100 -0.233200
vn -0.794900 -0.560100 -0.233200
vn 0.599800 -0.613900 0.513100
vn -0.599800 -0.613900 0.513100
vn 0.960900 -0.249900 -0.118800
vn -0.960900 -0.249900 -0.118800
vn -0.842000 -0.509800 -0.176200
vn 0.851500 -0.522800 0.041400
vn 0.842000 -0.509800 -0.176200
vn -0.851500 -0.522800 0.041400
vn 0.830300 -0.285000 -0.479000
vn -0.830300 -0.285000 -0.479000
vn -0.686400 -0.374600 -0.623400
vn 0.686400 -0.374600 -0.623400
vn 0.726100 -0.473100 -0.498900
vn -0.726100 -0.473100 -0.498900
vn 0.659300 -0.588100 -0.468500
vn -0.659300 -0.588100 -0.468500
vn 0.572500 -0.704700 -0.418900
vn 0.758400 -0.594800 0.266500
vn -0.758400 -0.594800 0.266500
vn 0.481400 -0.604800 0.634400
vn 0.449200 -0.808600 0.379900
vn -0.481400 -0.604800 0.634400
vn 0.292900 -0.881200 0.370900
vn -0.449200 -0.808600 0.379900
vn 0.645000 -0.698400 0.310100
vn -0.645000 -0.698400 0.310100
vn -0.033100 -0.325600 0.944900
vn 0.033100 -0.325600 0.944900
vn 0.648200 -0.634700 -0.420600
vn -0.648200 -0.634700 -0.420600
vn 0.461800 -0.823700 -0.329100
vn -0.461800 -0.823700 -0.329100
vn -0.262400 -0.804300 -0.533100
vn 0.262400 -0.804300 -0.533100
vn -0.752900 -0.657300 -0.033800
vn -0.583100 -0.640300 0.499900
vn 0.583100 -0.640300 0.499900
vn 0.065000 -0.707400 0.703800
vn -0.065000 -0.707400 0.703800
vn 0.408400 -0.903800 0.127300
vn 0.195100 -0.980000 0.038900
vn -0.292900 -0.881200 0.370900
vn -0.195100 -0.980000 0.038900
vn 0.444800 -0.890700 -0.093700
vn 0.334700 -0.942300 -0.004600
vn -0.408400 -0.903800 0.127300
vn -0.334700 -0.942300 -0.004600
vn 0.314400 -0.943600 -0.103700
vn -0.314400 -0.943600 -0.103700
vn -0.444800 -0.890700 -0.093700
vn 0.383100 -0.921100 -0.068500
vn 0.289700 -0.903500 0.315800
vn -0.334300 -0.936400 0.106800
vn -0.289700 -0.903500 0.315800
vn 0.334300 -0.936400 0.106800
vn -0.572500 -0.704700 -0.418900
vn -0.383100 -0.921100 -0.068500
vn 0.752900 -0.657300 -0.033800
vn -0.098800 0.532200 -0.840800
vn 0.098800 0.532200 -0.840800
vn -0.025300 0.733100 -0.679600
vn 0.025300 0.733100 -0.679600
vn 0.636600 0.583400 -0.504300
vn 0.925300 0.368000 0.091800
vn -0.925300 0.368000 0.091800
vn 0.287000 0.748500 0.597800
vn -0.287000 0.748500 0.597800
vn 0.383600 -0.328800 0.863000
vn -0.414200 0.724500 0.550900
vn 0.414200 0.724500 0.550900
vn -0.650000 0.485300 0.584600
vn 0.650000 0.485300 0.584600
vn -0.636600 0.583400 -0.504300
vn 0.670800 0.740300 -0.045300
vn -0.868200 -0.496100 -0.004800
vn -0.450800 -0.761400 -0.465800
vn -0.113300 -0.942600 -0.314200
vn 0.422900 -0.899700 -0.107800
vn 0.165300 -0.775100 0.609800
s 1
f 47/1/1 1/2/2 3/3/3
f 4/4/4 2/5/5 48/6/6
f 45/7/7 3/3/3 5/8/8
f 6/9/9 4/4/4 46/10/10
f 3/3/3 9/11/11 7/12/12
f 8/13/13 10/14/14 4/4/4
f 1/2/2 11/15/15 9/11/11
f 10/14/14 12/16/16 2/5/5
f 11/15/15 13/17/17 15/18/18
f 16/19/19 14/20/20 12/16/16
f 9/11/11 15/18/18 17/21/21
f 18/22/22 16/19/19 10/14/14
f 21/23/23 19/24/24 17/21/21
f 22/25/25 16/19/19 18/22/22
f 13/17/17 23/26/26 21/23/23
f 22/25/25 24/27/27 14/20/20
f 23/26/26 25/28/28 27/29/29
f 28/30/30 26/31/31 24/27/27
f 27/29/29 29/32/32 19/24/24
f 28/30/30 22/25/25 20/33/33
f 33/34/34 31/35/35 29/32/32
f 34/36/36 28/30/30 30/37/37
f 35/38/38 33/34/34 27/29/29
f 36/39/39 26/31/31 28/30/30
f 37/40/40 39/41/41 33/34/34
f 38/42/42 36/39/39 34/36/36
f 39/41/41 41/43/43 31/35/35
f 40/44/44 34/36/36 32/45/45
f 45/7/7 43/46/46 41/43/43
f 46/10/10 40/44/44 42/47/47
f 47/1/1 45/7/7 39/41/41
f 48/6/6 38/42/42 40/44/44
f 37/40/40 51/48/48 49/49/49
f 38/42/42 48/6/6 50/50/50
f 35/38/38 53/51/51 51/48/48
f 36/39/39 38/42/42 52/52/52
f 25/28/28 55/53/53 53/51/51
f 26/31/31 36/39/39 54/54/54
f 23/26/26 57/55/55 55/53/53
f 24/27/27 26/31/31 56/56/56
f 23/26/26 13/17/17 59/57/57
f 60/58/58 14/20/20 24/27/27
f 13/17/17 11/15/15 63/59/59
f 64/60/60 12/16/16 14/20/20
f 11/15/15 1/2/2 65/61/61
f 66/62/62 2/5/5 12/16/16
f 1/2/2 47/1/1 49/49/49
f 50/50/50 48/6/6 2/5/5
f 61/63/63 65/61/61 49/49/49
f 50/50/50 66/62/62 62/64/64
f 63/59/59 65/61/61 61/63/63
f 62/64/64 66/62/62 64/60/60
f 61/63/63 59/57/57 63/59/59
f 64/60/60 60/58/58 62/64/64
f 61/63/63 57/55/55 59/57/57
f 60/58/58 58/65/65 62/64/64
f 61/63/63 55/53/53 57/55/55
f 58/65/65 56/56/56 62/64/64
f 61/63/63 53/51/51 55/53/53
f 56/56/56 54/54/54 62/64/64
f 61/63/63 51/48/48 53/51/51
f 54/54/54 52/52/52 62/64/64
f 61/63/63 49/49/49 51/48/48
f 52/52/52 50/50/50 62/64/64
f 174/66/66 176/67/67 91/68/68
f 175/69/69 90/70/70 91/68/68
f 172/71/71 174/66/66 89/72/72
f 173/73/73 88/74/74 90/70/70
f 85/75/75 170/76/76 172/71/71
f 173/73/73 171/77/77 86/78/78
f 83/79/79 168/80/80 170/76/76
f 171/77/77 169/81/81 84/82/82
f 81/83/83 166/84/84 168/80/80
f 169/81/81 167/85/85 82/86/86
f 79/87/87 92/88/88 146/89/89
f 147/90/90 93/91/91 80/92/92
f 94/93/93 148/94/94 146/89/89
f 95/95/95 93/91/91 147/90/90
f 94/93/93 96/96/96 150/97/97
f 151/98/98 97/99/99 95/95/95
f 98/100/100 152/101/101 150/97/97
f 99/102/102 97/99/99 151/98/98
f 100/103/103 154/104/104 152/101/101
f 101/105/105 99/102/102 153/106/106
f 102/107/107 156/108/108 154/104/104
f 103/109/109 101/105/105 155/110/110
f 102/107/107 104/111/111 158/112/112
f 159/113/113 105/114/114 103/109/109
f 106/115/115 160/116/116 158/112/112
f 107/117/117 105/114/114 159/113/113
f 108/118/118 162/119/119 160/116/116
f 109/120/120 107/117/117 161/121/121
f 67/122/122 68/123/123 162/119/119
f 67/122/122 109/120/120 163/124/124
f 128/125/125 160/116/116 162/119/119
f 129/126/126 111/127/127 163/124/124
f 128/125/125 179/128/128 158/112/112
f 159/113/113 180/129/129 129/126/126
f 156/108/108 158/112/112 179/128/128
f 157/130/130 127/131/131 180/129/129
f 154/104/104 156/108/108 126/132/132
f 155/110/110 125/133/133 127/131/131
f 152/101/101 154/104/104 124/134/134
f 153/106/106 123/135/135 125/133/133
f 150/97/97 152/101/101 122/136/136
f 151/98/98 121/137/137 123/135/135
f 148/94/94 150/97/97 120/138/138
f 149/139/139 119/140/140 121/137/137
f 146/89/89 148/94/94 118/141/141
f 147/90/90 117/142/142 119/140/140
f 164/143/143 146/89/89 116/144/144
f 165/145/145 115/146/146 117/142/142
f 114/147/147 181/148/148 177/149/149
f 177/149/149 182/150/150 115/146/146
f 162/119/119 68/123/123 112/151/151
f 163/124/124 111/127/127 113/152/152
f 112/151/151 68/123/123 178/153/153
f 178/153/153 68/123/123 113/152/152
f 181/148/148 183/154/154 178/153/153
f 182/150/150 177/149/149 178/153/153
f 135/155/155 137/156/156 176/67/67
f 176/67/67 137/156/156 136/157/157
f 133/158/158 135/155/155 174/66/66
f 175/69/69 136/157/157 134/159/159
f 133/158/158 172/71/71 170/76/76
f 134/159/159 132/160/160 171/77/77
f 166/84/84 187/161/161 185/162/162
f 186/163/163 188/164/164 167/85/85
f 131/165/165 170/76/76 168/80/80
f 169/81/81 171/77/77 132/160/160
f 190/166/166 189/167/167 187/161/161
f 190/166/166 145/168/168 188/164/164
f 187/161/161 189/167/167 69/169/169
f 188/164/164 186/163/163 69/169/169
f 131/165/165 185/162/162 69/169/169
f 132/160/160 130/170/170 69/169/169
f 142/171/171 193/172/172 191/173/173
f 192/174/174 194/175/175 143/176/176
f 140/177/177 195/178/178 193/172/172
f 194/175/175 196/179/179 141/180/180
f 197/181/181 195/178/178 140/177/177
f 198/182/182 139/183/183 141/180/180
f 71/184/184 197/181/181 139/183/183
f 71/184/185 138/185/186 139/183/183
f 144/186/187 191/173/173 70/187/188
f 145/168/168 190/166/166 70/187/188
f 191/173/173 206/188/189 208/189/190
f 192/174/174 70/187/188 208/189/190
f 71/184/184 199/190/191 200/191/192
f 201/192/193 199/190/191 71/184/184
f 197/181/181 200/191/192 202/193/194
f 203/194/195 201/192/193 198/182/182
f 202/193/194 204/195/196 193/172/172
f 203/194/195 196/179/179 194/175/175
f 193/172/172 204/195/196 206/188/189
f 207/196/197 205/197/198 194/175/175
f 204/195/196 202/193/194 200/191/192
f 205/197/198 199/190/191 201/192/193
f 199/190/191 208/189/190 206/188/189
f 207/196/197 208/189/190 199/190/191
f 139/183/183 140/177/177 164/143/143
f 165/145/145 141/180/180 139/183/183
f 140/177/177 142/171/171 211/198/199
f 212/199/200 143/176/176 141/180/180
f 144/186/187 213/200/201 211/198/199
f 145/168/168 143/176/176 212/199/200
f 187/161/161 166/84/84 213/200/201
f 188/164/164 145/168/168 214/201/202
f 209/202/203 213/200/201 166/84/84
f 210/203/204 82/86/86 167/85/85
f 215/204/205 211/198/199 213/200/201
f 216/205/206 210/203/204 214/201/202
f 79/87/87 164/143/143 211/198/199
f 212/199/200 165/145/145 80/92/92
f 130/170/170 72/206/207 222/207/208
f 130/170/170 132/160/160 223/208/209
f 133/158/158 131/165/165 222/207/208
f 223/208/209 132/160/160 134/159/159
f 135/155/155 133/158/158 220/209/210
f 221/210/211 134/159/159 136/157/157
f 137/156/156 135/155/155 218/211/212
f 219/212/213 136/157/157 137/156/156
f 218/211/212 229/213/214 231/214/215
f 219/212/213 217/215/216 231/214/215
f 218/211/212 220/209/210 227/216/217
f 228/217/218 221/210/211 219/212/213
f 220/209/210 222/207/208 225/218/219
f 226/219/220 223/208/209 221/210/211
f 72/206/207 224/220/221 225/218/219
f 72/206/207 223/208/209 226/219/220
f 224/220/221 231/214/215 229/213/214
f 230/221/222 231/214/215 224/220/221
f 225/218/219 229/213/214 227/216/217
f 228/217/218 230/221/222 226/219/220
f 183/154/154 181/148/148 234/222/223
f 235/223/224 182/150/150 184/224/225
f 112/151/151 183/154/154 232/225/226
f 233/226/227 184/224/225 113/152/152
f 112/151/151 254/227/228 256/228/229
f 113/152/152 111/127/127 257/229/230
f 114/147/147 252/230/231 234/222/223
f 115/146/146 182/150/150 235/223/224
f 114/147/147 116/144/144 250/231/232
f 251/232/233 117/142/142 115/146/146
f 116/144/144 118/141/141 248/233/234
f 249/234/235 119/140/140 117/142/142
f 118/141/141 120/138/138 246/235/236
f 247/236/237 121/137/137 119/140/140
f 120/138/138 122/136/136 244/237/238
f 245/238/239 123/135/135 121/137/137
f 124/134/134 242/239/240 244/237/238
f 125/133/133 123/135/135 245/238/239
f 126/132/132 240/240/241 242/239/240
f 127/131/131 125/133/133 243/241/242
f 126/132/132 179/128/128 236/242/243
f 237/243/244 180/129/129 127/131/131
f 179/128/128 128/125/125 238/244/245
f 239/245/246 129/126/126 180/129/129
f 128/125/125 110/246/247 256/228/229
f 257/229/230 111/127/127 129/126/126
f 256/228/229 258/247/248 276/248/249
f 257/229/230 239/245/246 277/249/250
f 236/242/243 238/244/245 276/248/249
f 277/249/250 239/245/246 237/243/244
f 236/242/243 278/250/251 274/251/252
f 237/243/244 241/252/253 275/253/254
f 240/240/241 274/251/252 272/254/255
f 241/252/253 243/241/242 273/255/256
f 244/237/238 242/239/240 272/254/255
f 273/255/256 243/241/242 245/238/239
f 244/237/238 270/256/257 268/257/258
f 245/238/239 247/236/237 269/258/259
f 248/233/234 246/235/236 268/257/258
f 269/258/259 247/236/237 249/234/235
f 248/233/234 266/259/260 264/260/261
f 249/234/235 251/232/233 265/261/262
f 250/231/232 264/260/261 262/262/263
f 251/232/233 253/263/264 263/264/265
f 234/222/223 252/230/231 262/262/263
f 263/264/265 253/263/264 235/223/224
f 256/228/229 254/227/228 260/265/266
f 261/266/267 255/267/268 257/229/230
f 254/227/228 232/225/226 282/268/269
f 283/269/270 233/226/227 255/267/268
f 232/225/226 234/222/223 280/270/271
f 281/271/272 235/223/224 233/226/227
f 67/122/122 108/118/118 284/272/273
f 285/273/274 109/120/120 67/122/122
f 108/118/118 106/115/115 286/274/275
f 287/275/276 107/117/117 109/120/120
f 104/111/111 288/276/277 286/274/275
f 105/114/114 107/117/117 287/275/276
f 102/107/107 290/277/278 288/276/277
f 103/109/109 105/114/114 289/278/279
f 100/103/103 292/279/280 290/277/278
f 101/105/105 103/109/109 291/280/281
f 100/103/103 98/100/100 294/281/282
f 295/282/283 99/102/102 101/105/105
f 96/96/96 296/283/284 294/281/282
f 97/99/99 99/102/102 295/282/283
f 96/96/96 94/93/93 298/284/285
f 299/285/286 95/95/95 97/99/99
f 94/93/93 92/88/88 300/286/287
f 301/287/288 93/91/91 95/95/95
f 309/288/289 328/289/290 338/290/291
f 309/288/289 308/291/292 339/292/293
f 308/291/292 338/290/291 336/293/294
f 308/291/292 307/294/295 337/295/296
f 307/294/295 336/293/294 340/296/297
f 307/294/295 306/297/298 341/298/299
f 89/72/72 91/68/68 306/297/298
f 306/297/298 91/68/68 90/70/70
f 87/299/300 89/72/72 340/296/297
f 341/298/299 90/70/70 88/74/74
f 85/75/75 87/299/300 334/300/301
f 335/301/302 88/74/74 86/78/78
f 83/79/79 85/75/75 330/302/303
f 331/303/304 86/78/78 84/82/82
f 330/302/303 336/293/294 338/290/291
f 339/292/293 337/295/296 331/303/304
f 334/300/301 340/296/297 336/293/294
f 335/301/302 331/303/304 337/295/296
f 332/304/305 338/290/291 328/289/290
f 333/305/306 327/306/307 329/307/308
f 81/83/83 83/79/79 332/304/305
f 333/305/306 84/82/82 82/86/86
f 342/308/309 344/309/310 215/204/205
f 343/310/311 210/203/204 216/205/206
f 326/311/312 342/308/309 209/202/203
f 327/306/307 82/86/86 210/203/204
f 215/204/205 344/309/310 346/312/313
f 216/205/206 80/92/92 347/313/314
f 346/312/313 300/286/287 92/88/88
f 347/313/314 80/92/92 93/91/91
f 324/314/315 352/315/316 304/316/317
f 325/317/318 77/318/319 304/316/317
f 352/315/316 350/319/320 78/320/321
f 353/321/322 304/316/317 78/320/321
f 78/320/321 350/319/320 348/322/323
f 349/323/324 351/324/325 78/320/321
f 305/325/326 348/322/323 328/289/290
f 329/307/308 349/323/324 305/325/326
f 328/289/290 348/322/323 342/308/309
f 329/307/308 327/306/307 343/310/311
f 296/283/284 298/284/285 318/326/327
f 319/327/328 299/285/286 297/328/329
f 316/329/330 324/314/315 77/318/319
f 317/330/331 76/331/332 77/318/319
f 358/332/333 356/333/334 303/334/335
f 359/335/336 302/336/337 303/334/335
f 303/334/335 356/333/334 354/337/338
f 355/338/339 357/339/340 303/334/335
f 75/340/341 354/337/338 316/329/330
f 317/330/331 355/338/339 75/340/341
f 292/279/280 294/281/282 362/341/342
f 363/342/343 295/282/283 293/343/344
f 364/344/345 362/341/342 368/345/346
f 369/346/347 363/342/343 365/347/348
f 366/348/349 368/345/346 370/349/350
f 371/350/351 369/346/347 367/351/352
f 372/352/353 370/349/350 376/353/354
f 377/354/355 371/350/351 373/355/356
f 378/356/357 374/357/358 376/353/354
f 379/358/359 315/359/360 377/354/355
f 316/329/330 354/337/338 374/357/358
f 375/360/361 355/338/339 317/330/331
f 354/337/338 356/333/334 372/352/353
f 373/355/356 357/339/340 355/338/339
f 356/333/334 358/332/333 366/348/349
f 367/351/352 359/335/336 357/339/340
f 358/332/333 360/361/362 364/344/345
f 365/347/348 361/362/363 359/335/336
f 292/279/280 364/344/345 360/361/362
f 293/343/344 291/280/281 361/362/363
f 360/361/362 358/332/333 302/336/337
f 361/362/363 74/363/364 302/336/337
f 284/272/273 286/274/275 288/276/277
f 289/278/279 287/275/276 285/273/274
f 284/272/273 290/277/278 360/361/362
f 361/362/363 291/280/281 285/273/274
f 73/364/365 284/272/273 74/363/364
f 74/363/364 285/273/274 73/364/365
f 296/283/284 310/365/366 362/341/342
f 297/328/329 295/282/283 363/342/343
f 310/365/366 312/366/367 368/345/346
f 369/346/347 313/367/368 311/368/369
f 312/366/367 382/369/370 370/349/350
f 371/350/351 383/370/371 313/367/368
f 376/353/354 370/349/350 382/369/370
f 377/354/355 315/359/360 383/370/371
f 350/319/320 386/371/372 384/372/373
f 351/324/325 349/323/324 385/373/374
f 384/372/373 386/371/372 320/374/375
f 385/373/374 319/327/328 321/375/376
f 298/284/285 300/286/287 384/372/373
f 385/373/374 301/287/288 299/285/286
f 300/286/287 344/309/310 342/308/309
f 343/310/311 345/376/377 301/287/288
f 342/308/309 348/322/323 384/372/373
f 385/373/374 349/323/324 343/310/311
f 300/286/287 346/312/313 344/309/310
f 345/376/377 347/313/314 301/287/288
f 322/377/378 380/378/379 378/356/357
f 323/379/380 315/359/360 379/358/359
f 378/356/357 380/378/379 324/314/315
f 379/358/359 317/330/331 325/317/318
f 386/371/372 380/378/379 322/377/378
f 387/380/381 321/375/376 323/379/380
f 352/315/316 380/378/379 386/371/372
f 353/321/322 351/324/325 387/380/381
f 324/314/315 380/378/379 352/315/316
f 353/321/322 381/381/382 325/317/318
f 388/382/383 414/383/384 402/384/385
f 389/385/386 401/386/387 403/387/388
f 400/388/389 402/384/385 404/389/390
f 405/390/391 403/387/388 401/386/387
f 404/389/390 406/391/392 396/392/393
f 405/390/391 399/393/394 397/394/395
f 406/391/392 408/395/396 394/396/397
f 407/397/398 397/394/395 395/398/399
f 408/395/396 410/399/400 392/400/401
f 409/401/402 395/398/399 393/402/403
f 392/400/401 410/399/400 412/403/404
f 413/404/405 411/405/406 393/402/403
f 410/399/400 420/406/407 418/407/408
f 419/408/409 421/409/410 411/405/406
f 408/395/396 422/410/411 420/406/407
f 421/409/410 423/411/412 409/401/402
f 424/412/413 422/410/411 408/395/396
f 425/413/414 407/397/398 409/401/402
f 426/414/415 424/412/413 406/391/392
f 427/415/416 405/390/391 407/397/398
f 428/416/417 426/414/415 404/389/390
f 429/417/418 403/387/388 405/390/391
f 402/384/385 414/383/384 416/418/419
f 417/419/420 415/420/421 403/387/388
f 320/374/375 444/421/422 442/422/423
f 321/375/376 319/327/328 443/423/424
f 390/424/425 412/403/404 444/421/422
f 391/425/426 321/375/376 445/426/427
f 310/365/366 318/326/327 442/422/423
f 443/423/424 319/327/328 311/368/369
f 382/369/370 430/427/428 414/383/384
f 415/420/421 431/428/429 383/370/371
f 412/403/404 418/407/408 440/429/430
f 441/430/431 419/408/409 413/404/405
f 446/431/432 444/421/422 440/429/430
f 447/432/433 439/433/434 441/430/431
f 434/434/435 446/431/432 438/435/436
f 439/433/434 447/432/433 435/436/437
f 448/437/438 446/431/432 434/434/435
f 449/438/439 433/439/440 435/436/437
f 448/437/438 432/440/441 450/441/442
f 449/438/439 431/428/429 451/442/443
f 430/427/428 450/441/442 416/418/419
f 431/428/429 415/420/421 417/419/420
f 312/366/367 448/437/438 430/427/428
f 431/428/429 449/438/439 313/367/368
f 442/422/423 446/431/432 448/437/438
f 443/423/424 313/367/368 449/438/439
f 442/422/423 444/421/422 446/431/432
f 447/432/433 445/426/427 443/423/424
f 416/418/419 450/441/442 452/443/444
f 453/444/445 451/442/443 417/419/420
f 432/440/441 462/445/446 452/443/444
f 433/439/440 451/442/443 453/444/445
f 432/440/441 434/434/435 460/446/447
f 461/447/448 435/436/437 433/439/440
f 436/448/449 458/449/450 460/446/447
f 437/450/451 435/436/437 461/447/448
f 438/435/436 456/451/452 458/449/450
f 439/433/434 437/450/451 459/452/453
f 438/435/436 440/429/430 454/453/454
f 455/454/455 441/430/431 439/433/434
f 440/429/430 418/407/408 474/455/456
f 475/456/457 419/408/409 441/430/431
f 428/416/417 416/418/419 476/457/458
f 477/458/459 417/419/420 429/417/418
f 426/414/415 428/416/417 464/459/460
f 465/460/461 429/417/418 427/415/416
f 424/412/413 426/414/415 466/461/462
f 467/462/463 427/415/416 425/413/414
f 424/412/413 468/463/464 470/410/465
f 425/413/414 423/411/412 471/464/466
f 422/410/411 470/410/465 472/465/467
f 423/411/412 421/409/410 473/466/468
f 420/406/407 472/465/467 474/455/456
f 421/409/410 419/408/409 475/456/457
f 456/451/452 480/467/469 478/468/470
f 457/469/471 459/452/453 479/470/472
f 480/467/469 482/471/473 484/472/474
f 481/473/475 479/470/472 485/474/476
f 484/472/474 482/471/473 488/475/477
f 489/476/478 483/477/479 485/474/476
f 488/475/477 490/478/480 492/479/481
f 489/476/478 487/480/482 493/481/483
f 464/459/460 476/457/458 486/482/484
f 487/480/482 477/458/459 465/460/461
f 484/472/474 486/482/484 476/457/458
f 485/474/476 453/444/445 477/458/459
f 462/445/446 478/468/470 484/472/474
f 463/483/485 453/444/445 485/474/476
f 458/449/450 478/468/470 462/445/446
f 463/483/485 479/470/472 459/452/453
f 474/455/456 480/467/469 456/451/452
f 475/456/457 455/454/455 457/469/471
f 472/465/467 482/471/473 480/467/469
f 481/473/475 483/477/479 473/466/468
f 488/475/477 482/471/473 472/465/467
f 489/476/478 471/464/466 473/466/468
f 490/478/480 488/475/477 470/410/465
f 491/484/486 469/485/487 471/464/466
f 466/461/462 492/479/481 490/478/480
f 491/484/486 493/481/483 467/462/463
f 464/459/460 492/479/481 466/461/462
f 467/462/463 493/481/483 465/460/461
f 392/400/401 390/424/425 504/486/488
f 505/487/489 391/425/426 393/402/403
f 394/396/397 392/400/401 502/488/490
f 503/489/491 393/402/403 395/398/399
f 394/396/397 500/490/492 498/491/493
f 395/398/399 397/394/395 499/492/494
f 396/392/393 498/491/493 496/493/495
f 397/394/395 399/393/394 497/494/496
f 398/495/497 496/493/495 494/496/498
f 399/393/394 401/386/387 495/497/499
f 400/388/389 494/496/498 506/498/500
f 401/386/387 389/385/386 507/499/501
f 502/488/490 504/486/488 506/498/500
f 503/489/491 495/497/499 507/499/501
f 494/496/498 496/493/495 500/490/492
f 501/500/502 497/494/496 495/497/499
f 496/493/495 498/491/493 500/490/492
f 501/500/502 499/492/494 497/494/496
f 382/369/370 388/382/383 506/498/500
f 383/370/371 315/359/360 507/499/501
f 314/501/503 506/498/500 504/486/488
f 505/487/489 507/499/501 315/359/360
f 320/374/375 322/377/378 504/486/488
f 505/487/489 323/379/380 321/375/376
f 45/7/7 47/1/1 3/3/3
f 46/10/10 4/4/4 48/6/6
f 43/46/46 45/7/7 5/8/8
f 44/502/504 6/9/9 46/10/10
f 5/8/8 3/3/3 7/12/12
f 6/9/9 8/13/13 4/4/4
f 3/3/3 1/2/2 9/11/11
f 4/4/4 10/14/14 2/5/5
f 9/11/11 11/15/15 15/18/18
f 10/14/14 16/19/19 12/16/16
f 7/12/12 9/11/11 17/21/21
f 8/13/13 18/22/22 10/14/14
f 15/18/18 21/23/23 17/21/21
f 20/33/33 22/25/25 18/22/22
f 15/18/18 13/17/17 21/23/23
f 16/19/19 22/25/25 14/20/20
f 21/23/23 23/26/26 27/29/29
f 22/25/25 28/30/30 24/27/27
f 21/23/23 27/29/29 19/24/24
f 30/37/37 28/30/30 20/33/33
f 27/29/29 33/34/34 29/32/32
f 32/45/45 34/36/36 30/37/37
f 25/28/28 35/38/38 27/29/29
f 34/36/36 36/39/39 28/30/30
f 35/38/38 37/40/40 33/34/34
f 40/44/44 38/42/42 34/36/36
f 33/34/34 39/41/41 31/35/35
f 42/47/47 40/44/44 32/45/45
f 39/41/41 45/7/7 41/43/43
f 44/502/504 46/10/10 42/47/47
f 37/40/40 47/1/1 39/41/41
f 46/10/10 48/6/6 40/44/44
f 47/1/1 37/40/40 49/49/49
f 52/52/52 38/42/42 50/50/50
f 37/40/40 35/38/38 51/48/48
f 54/54/54 36/39/39 52/52/52
f 35/38/38 25/28/28 53/51/51
f 56/56/56 26/31/31 54/54/54
f 25/28/28 23/26/26 55/53/53
f 58/65/65 24/27/27 56/56/56
f 57/55/55 23/26/26 59/57/57
f 58/65/65 60/58/58 24/27/27
f 59/57/57 13/17/17 63/59/59
f 60/58/58 64/60/60 14/20/20
f 63/59/59 11/15/15 65/61/61
f 64/60/60 66/62/62 12/16/16
f 65/61/61 1/2/2 49/49/49
f 66/62/62 50/50/50 2/5/5
f 89/72/72 174/66/66 91/68/68
f 176/67/67 175/69/69 91/68/68
f 87/299/300 172/71/71 89/72/72
f 175/69/69 173/73/73 90/70/70
f 87/299/300 85/75/75 172/71/71
f 88/74/74 173/73/73 86/78/78
f 85/75/75 83/79/79 170/76/76
f 86/78/78 171/77/77 84/82/82
f 83/79/79 81/83/83 168/80/80
f 84/82/82 169/81/81 82/86/86
f 164/143/143 79/87/87 146/89/89
f 165/145/145 147/90/90 80/92/92
f 92/88/88 94/93/93 146/89/89
f 149/139/139 95/95/95 147/90/90
f 148/94/94 94/93/93 150/97/97
f 149/139/139 151/98/98 95/95/95
f 96/96/96 98/100/100 150/97/97
f 153/106/106 99/102/102 151/98/98
f 98/100/100 100/103/103 152/101/101
f 155/110/110 101/105/105 153/106/106
f 100/103/103 102/107/107 154/104/104
f 157/130/130 103/109/109 155/110/110
f 156/108/108 102/107/107 158/112/112
f 157/130/130 159/113/113 103/109/109
f 104/111/111 106/115/115 158/112/112
f 161/121/121 107/117/117 159/113/113
f 106/115/115 108/118/118 160/116/116
f 163/124/124 109/120/120 161/121/121
f 108/118/118 67/122/122 162/119/119
f 68/123/123 67/122/122 163/124/124
f 110/246/247 128/125/125 162/119/119
f 161/121/121 129/126/126 163/124/124
f 160/116/116 128/125/125 158/112/112
f 161/121/121 159/113/113 129/126/126
f 126/132/132 156/108/108 179/128/128
f 159/113/113 157/130/130 180/129/129
f 124/134/134 154/104/104 126/132/132
f 157/130/130 155/110/110 127/131/131
f 122/136/136 152/101/101 124/134/134
f 155/110/110 153/106/106 125/133/133
f 120/138/138 150/97/97 122/136/136
f 153/106/106 151/98/98 123/135/135
f 118/141/141 148/94/94 120/138/138
f 151/98/98 149/139/139 121/137/137
f 116/144/144 146/89/89 118/141/141
f 149/139/139 147/90/90 119/140/140
f 114/147/147 164/143/143 116/144/144
f 147/90/90 165/145/145 117/142/142
f 164/143/143 114/147/147 177/149/149
f 165/145/145 177/149/149 115/146/146
f 110/246/247 162/119/119 112/151/151
f 68/123/123 163/124/124 113/152/152
f 183/154/154 112/151/151 178/153/153
f 184/224/225 178/153/153 113/152/152
f 177/149/149 181/148/148 178/153/153
f 184/224/225 182/150/150 178/153/153
f 174/66/66 135/155/155 176/67/67
f 175/69/69 176/67/67 136/157/157
f 172/71/71 133/158/158 174/66/66
f 173/73/73 175/69/69 134/159/159
f 131/165/165 133/158/158 170/76/76
f 173/73/73 134/159/159 171/77/77
f 168/80/80 166/84/84 185/162/162
f 169/81/81 186/163/163 167/85/85
f 185/162/162 131/165/165 168/80/80
f 186/163/163 169/81/81 132/160/160
f 144/186/187 190/166/166 187/161/161
f 189/167/167 190/166/166 188/164/164
f 185/162/162 187/161/161 69/169/169
f 189/167/167 188/164/164 69/169/169
f 130/170/170 131/165/165 69/169/169
f 186/163/163 132/160/160 69/169/169
f 144/186/187 142/171/171 191/173/173
f 145/168/168 192/174/174 143/176/176
f 142/171/171 140/177/177 193/172/172
f 143/176/176 194/175/175 141/180/180
f 139/183/183 197/181/181 140/177/177
f 196/179/179 198/182/182 141/180/180
f 138/185/186 71/184/185 139/183/183
f 198/182/182 71/184/184 139/183/183
f 190/166/166 144/186/187 70/187/188
f 192/174/174 145/168/168 70/187/188
f 70/187/188 191/173/173 208/189/190
f 207/196/197 192/174/174 208/189/190
f 197/181/181 71/184/184 200/191/192
f 198/182/182 201/192/193 71/184/184
f 195/178/178 197/181/181 202/193/194
f 196/179/179 203/194/195 198/182/182
f 195/178/178 202/193/194 193/172/172
f 205/197/198 203/194/195 194/175/175
f 191/173/173 193/172/172 206/188/189
f 192/174/174 207/196/197 194/175/175
f 199/190/191 204/195/196 200/191/192
f 203/194/195 205/197/198 201/192/193
f 204/195/196 199/190/191 206/188/189
f 205/197/198 207/196/197 199/190/191
f 177/149/149 139/183/183 164/143/143
f 177/149/149 165/145/145 139/183/183
f 164/143/143 140/177/177 211/198/199
f 165/145/145 212/199/200 141/180/180
f 142/171/171 144/186/187 211/198/199
f 214/201/202 145/168/168 212/199/200
f 144/186/187 187/161/161 213/200/201
f 167/85/85 188/164/164 214/201/202
f 81/83/83 209/202/203 166/84/84
f 214/201/202 210/203/204 167/85/85
f 209/202/203 215/204/205 213/200/201
f 212/199/200 216/205/206 214/201/202
f 215/204/205 79/87/87 211/198/199
f 216/205/206 212/199/200 80/92/92
f 131/165/165 130/170/170 222/207/208
f 72/206/207 130/170/170 223/208/209
f 220/209/210 133/158/158 222/207/208
f 221/210/211 223/208/209 134/159/159
f 218/211/212 135/155/155 220/209/210
f 219/212/213 221/210/211 136/157/157
f 217/215/216 137/156/156 218/211/212
f 217/215/216 219/212/213 137/156/156
f 217/215/216 218/211/212 231/214/215
f 230/221/222 219/212/213 231/214/215
f 229/213/214 218/211/212 227/216/217
f 230/221/222 228/217/218 219/212/213
f 227/216/217 220/209/210 225/218/219
f 228/217/218 226/219/220 221/210/211
f 222/207/208 72/206/207 225/218/219
f 224/220/221 72/206/207 226/219/220
f 225/218/219 224/220/221 229/213/214
f 226/219/220 230/221/222 224/220/221
f 232/225/226 183/154/154 234/222/223
f 233/226/227 235/223/224 184/224/225
f 254/227/228 112/151/151 232/225/226
f 255/267/268 233/226/227 113/152/152
f 110/246/247 112/151/151 256/228/229
f 255/267/268 113/152/152 257/229/230
f 181/148/148 114/147/147 234/222/223
f 253/263/264 115/146/146 235/223/224
f 252/230/231 114/147/147 250/231/232
f 253/263/264 251/232/233 115/146/146
f 250/231/232 116/144/144 248/233/234
f 251/232/233 249/234/235 117/142/142
f 248/233/234 118/141/141 246/235/236
f 249/234/235 247/236/237 119/140/140
f 246/235/236 120/138/138 244/237/238
f 247/236/237 245/238/239 121/137/137
f 122/136/136 124/134/134 244/237/238
f 243/241/242 125/133/133 245/238/239
f 124/134/134 126/132/132 242/239/240
f 241/252/253 127/131/131 243/241/242
f 240/240/241 126/132/132 236/242/243
f 241/252/253 237/243/244 127/131/131
f 236/242/243 179/128/128 238/244/245
f 237/243/244 239/245/246 180/129/129
f 238/244/245 128/125/125 256/228/229
f 239/245/246 257/229/230 129/126/126
f 238/244/245 256/228/229 276/248/249
f 259/503/505 257/229/230 277/249/250
f 278/250/251 236/242/243 276/248/249
f 279/504/506 277/249/250 237/243/244
f 240/240/241 236/242/243 274/251/252
f 279/504/506 237/243/244 275/253/254
f 242/239/240 240/240/241 272/254/255
f 275/253/254 241/252/253 273/255/256
f 270/256/257 244/237/238 272/254/255
f 271/505/507 273/255/256 245/238/239
f 246/235/236 244/237/238 268/257/258
f 271/505/507 245/238/239 269/258/259
f 266/259/260 248/233/234 268/257/258
f 267/506/508 269/258/259 249/234/235
f 250/231/232 248/233/234 264/260/261
f 267/506/508 249/234/235 265/261/262
f 252/230/231 250/231/232 262/262/263
f 265/261/262 251/232/233 263/264/265
f 280/270/271 234/222/223 262/262/263
f 281/271/272 263/264/265 235/223/224
f 258/247/248 256/228/229 260/265/266
f 259/503/505 261/266/267 257/229/230
f 260/265/266 254/227/228 282/268/269
f 261/266/267 283/269/270 255/267/268
f 282/268/269 232/225/226 280/270/271
f 283/269/270 281/271/272 233/226/227
f 73/364/365 67/122/122 284/272/273
f 73/364/365 285/273/274 67/122/122
f 284/272/273 108/118/118 286/274/275
f 285/273/274 287/275/276 109/120/120
f 106/115/115 104/111/111 286/274/275
f 289/278/279 105/114/114 287/275/276
f 104/111/111 102/107/107 288/276/277
f 291/280/281 103/109/109 289/278/279
f 102/107/107 100/103/103 290/277/278
f 293/343/344 101/105/105 291/280/281
f 292/279/280 100/103/103 294/281/282
f 293/343/344 295/282/283 101/105/105
f 98/100/100 96/96/96 294/281/282
f 297/328/329 97/99/99 295/282/283
f 296/283/284 96/96/96 298/284/285
f 297/328/329 299/285/286 97/99/99
f 298/284/285 94/93/93 300/286/287
f 299/285/286 301/287/288 95/95/95
f 308/291/292 309/288/289 338/290/291
f 329/307/308 309/288/289 339/292/293
f 307/294/295 308/291/292 336/293/294
f 339/292/293 308/291/292 337/295/296
f 306/297/298 307/294/295 340/296/297
f 337/295/296 307/294/295 341/298/299
f 340/296/297 89/72/72 306/297/298
f 341/298/299 306/297/298 90/70/70
f 334/300/301 87/299/300 340/296/297
f 335/301/302 341/298/299 88/74/74
f 330/302/303 85/75/75 334/300/301
f 331/303/304 335/301/302 86/78/78
f 332/304/305 83/79/79 330/302/303
f 333/305/306 331/303/304 84/82/82
f 332/304/305 330/302/303 338/290/291
f 333/305/306 339/292/293 331/303/304
f 330/302/303 334/300/301 336/293/294
f 341/298/299 335/301/302 337/295/296
f 326/311/312 332/304/305 328/289/290
f 339/292/293 333/305/306 329/307/308
f 326/311/312 81/83/83 332/304/305
f 327/306/307 333/305/306 82/86/86
f 209/202/203 342/308/309 215/204/205
f 345/376/377 343/310/311 216/205/206
f 81/83/83 326/311/312 209/202/203
f 343/310/311 327/306/307 210/203/204
f 79/87/87 215/204/205 346/312/313
f 345/376/377 216/205/206 347/313/314
f 79/87/87 346/312/313 92/88/88
f 301/287/288 347/313/314 93/91/91
f 77/318/319 324/314/315 304/316/317
f 353/321/322 325/317/318 304/316/317
f 304/316/317 352/315/316 78/320/321
f 351/324/325 353/321/322 78/320/321
f 305/325/326 78/320/321 348/322/323
f 305/325/326 349/323/324 78/320/321
f 309/288/289 305/325/326 328/289/290
f 309/288/289 329/307/308 305/325/326
f 326/311/312 328/289/290 342/308/309
f 349/323/324 329/307/308 343/310/311
f 310/365/366 296/283/284 318/326/327
f 311/368/369 319/327/328 297/328/329
f 76/331/332 316/329/330 77/318/319
f 325/317/318 317/330/331 77/318/319
f 302/336/337 358/332/333 303/334/335
f 357/339/340 359/335/336 303/334/335
f 75/340/341 303/334/335 354/337/338
f 75/340/341 355/338/339 303/334/335
f 76/331/332 75/340/341 316/329/330
f 76/331/332 317/330/331 75/340/341
f 364/344/345 292/279/280 362/341/342
f 365/347/348 363/342/343 293/343/344
f 366/348/349 364/344/345 368/345/346
f 367/351/352 369/346/347 365/347/348
f 372/352/353 366/348/349 370/349/350
f 373/355/356 371/350/351 367/351/352
f 374/357/358 372/352/353 376/353/354
f 375/360/361 377/354/355 373/355/356
f 314/501/503 378/356/357 376/353/354
f 375/360/361 379/358/359 377/354/355
f 378/356/357 316/329/330 374/357/358
f 379/358/359 375/360/361 317/330/331
f 374/357/358 354/337/338 372/352/353
f 375/360/361 373/355/356 355/338/339
f 372/352/353 356/333/334 366/348/349
f 373/355/356 367/351/352 357/339/340
f 366/348/349 358/332/333 364/344/345
f 367/351/352 365/347/348 359/335/336
f 290/277/278 292/279/280 360/361/362
f 365/347/348 293/343/344 361/362/363
f 74/363/364 360/361/362 302/336/337
f 359/335/336 361/362/363 302/336/337
f 290/277/278 284/272/273 288/276/277
f 291/280/281 289/278/279 285/273/274
f 74/363/364 284/272/273 360/361/362
f 74/363/364 361/362/363 285/273/274
f 294/281/282 296/283/284 362/341/342
f 311/368/369 297/328/329 363/342/343
f 362/341/342 310/365/366 368/345/346
f 363/342/343 369/346/347 311/368/369
f 368/345/346 312/366/367 370/349/350
f 369/346/347 371/350/351 313/367/368
f 314/501/503 376/353/354 382/369/370
f 371/350/351 377/354/355 383/370/371
f 348/322/323 350/319/320 384/372/373
f 387/380/381 351/324/325 385/373/374
f 318/326/327 384/372/373 320/374/375
f 387/380/381 385/373/374 321/375/376
f 318/326/327 298/284/285 384/372/373
f 319/327/328 385/373/374 299/285/286
f 384/372/373 300/286/287 342/308/309
f 385/373/374 343/310/311 301/287/288
f 314/501/503 322/377/378 378/356/357
f 381/381/382 323/379/380 379/358/359
f 316/329/330 378/356/357 324/314/315
f 381/381/382 379/358/359 325/317/318
f 320/374/375 386/371/372 322/377/378
f 381/381/382 387/380/381 323/379/380
f 350/319/320 352/315/316 386/371/372
f 381/381/382 353/321/322 387/380/381
f 400/388/389 388/382/383 402/384/385
f 415/420/421 389/385/386 403/387/388
f 398/495/497 400/388/389 404/389/390
f 399/393/394 405/390/391 401/386/387
f 398/495/497 404/389/390 396/392/393
f 407/397/398 405/390/391 397/394/395
f 396/392/393 406/391/392 394/396/397
f 409/401/402 407/397/398 395/398/399
f 394/396/397 408/395/396 392/400/401
f 411/405/406 409/401/402 393/402/403
f 390/424/425 392/400/401 412/403/404
f 391/425/426 413/404/405 393/402/403
f 412/403/404 410/399/400 418/407/408
f 413/404/405 419/408/409 411/405/406
f 410/399/400 408/395/396 420/406/407
f 411/405/406 421/409/410 409/401/402
f 406/391/392 424/412/413 408/395/396
f 423/411/412 425/413/414 409/401/402
f 404/389/390 426/414/415 406/391/392
f 425/413/414 427/415/416 407/397/398
f 402/384/385 428/416/417 404/389/390
f 427/415/416 429/417/418 405/390/391
f 428/416/417 402/384/385 416/418/419
f 429/417/418 417/419/420 403/387/388
f 318/326/327 320/374/375 442/422/423
f 445/426/427 321/375/376 443/423/424
f 320/374/375 390/424/425 444/421/422
f 413/404/405 391/425/426 445/426/427
f 312/366/367 310/365/366 442/422/423
f 313/367/368 443/423/424 311/368/369
f 388/382/383 382/369/370 414/383/384
f 389/385/386 415/420/421 383/370/371
f 444/421/422 412/403/404 440/429/430
f 445/426/427 441/430/431 413/404/405
f 438/435/436 446/431/432 440/429/430
f 445/426/427 447/432/433 441/430/431
f 436/448/449 434/434/435 438/435/436
f 437/450/451 439/433/434 435/436/437
f 432/440/441 448/437/438 434/434/435
f 447/432/433 449/438/439 435/436/437
f 430/427/428 448/437/438 450/441/442
f 433/439/440 449/438/439 451/442/443
f 414/383/384 430/427/428 416/418/419
f 451/442/443 431/428/429 417/419/420
f 382/369/370 312/366/367 430/427/428
f 383/370/371 431/428/429 313/367/368
f 312/366/367 442/422/423 448/437/438
f 447/432/433 443/423/424 449/438/439
f 476/457/458 416/418/419 452/443/444
f 477/458/459 453/444/445 417/419/420
f 450/441/442 432/440/441 452/443/444
f 463/483/485 433/439/440 453/444/445
f 462/445/446 432/440/441 460/446/447
f 463/483/485 461/447/448 433/439/440
f 434/434/435 436/448/449 460/446/447
f 459/452/453 437/450/451 461/447/448
f 436/448/449 438/435/436 458/449/450
f 457/469/471 439/433/434 459/452/453
f 456/451/452 438/435/436 454/453/454
f 457/469/471 455/454/455 439/433/434
f 454/453/454 440/429/430 474/455/456
f 455/454/455 475/456/457 441/430/431
f 464/459/460 428/416/417 476/457/458
f 465/460/461 477/458/459 429/417/418
f 466/461/462 426/414/415 464/459/460
f 467/462/463 465/460/461 427/415/416
f 468/463/464 424/412/413 466/461/462
f 469/485/487 467/462/463 425/413/414
f 422/410/411 424/412/413 470/410/465
f 469/485/487 425/413/414 471/464/466
f 420/406/407 422/410/411 472/465/467
f 471/464/466 423/411/412 473/466/468
f 418/407/408 420/406/407 474/455/456
f 473/466/468 421/409/410 475/456/457
f 458/449/450 456/451/452 478/468/470
f 481/473/475 457/469/471 479/470/472
f 478/468/470 480/467/469 484/472/474
f 483/477/479 481/473/475 485/474/476
f 486/482/484 484/472/474 488/475/477
f 487/480/482 489/476/478 485/474/476
f 486/482/484 488/475/477 492/479/481
f 491/484/486 489/476/478 493/481/483
f 492/479/481 464/459/460 486/482/484
f 493/481/483 487/480/482 465/460/461
f 452/443/444 484/472/474 476/457/458
f 487/480/482 485/474/476 477/458/459
f 452/443/444 462/445/446 484/472/474
f 479/470/472 463/483/485 485/474/476
f 460/446/447 458/449/450 462/445/446
f 461/447/448 463/483/485 459/452/453
f 454/453/454 474/455/456 456/451/452
f 481/473/475 475/456/457 457/469/471
f 474/455/456 472/465/467 480/467/469
f 475/456/457 481/473/475 473/466/468
f 470/410/465 488/475/477 472/465/467
f 483/477/479 489/476/478 473/466/468
f 468/463/464 490/478/480 470/410/465
f 489/476/478 491/484/486 471/464/466
f 468/463/464 466/461/462 490/478/480
f 469/485/487 491/484/486 467/462/463
f 502/488/490 392/400/401 504/486/488
f 503/489/491 505/487/489 393/402/403
f 500/490/492 394/396/397 502/488/490
f 501/500/502 503/489/491 395/398/399
f 396/392/393 394/396/397 498/491/493
f 501/500/502 395/398/399 499/492/494
f 398/495/497 396/392/393 496/493/495
f 499/492/494 397/394/395 497/494/496
f 400/388/389 398/495/497 494/496/498
f 497/494/496 399/393/394 495/497/499
f 388/382/383 400/388/389 506/498/500
f 495/497/499 401/386/387 507/499/501
f 494/496/498 502/488/490 506/498/500
f 505/487/489 503/489/491 507/499/501
f 502/488/490 494/496/498 500/490/492
f 503/489/491 501/500/502 495/497/499
f 314/501/503 382/369/370 506/498/500
f 389/385/386 383/370/371 507/499/501
f 322/377/378 314/501/503 504/486/488
f 323/379/380 505/487/489 315/359/360
f 390/424/425 320/374/375 504/486/488
f 391/425/426 505/487/489 321/375/376
