^P:\LIBS\CEGUI-0.8.7\BUILD\SAMPLES\SCROLLABLEPANEDEMO\CEGUISCROLLABLEPANEDEMO.DIR\DEBUG\SAMPLE_SCROLLABLEPANE.OBJ
P:\LIBS\CEGUI-0.8.7\BUILD\BIN\CEGUISCROLLABLEPANEDEMO_D.ILK
P:\LIBS\CEGUI-0.8.7\BUILD\BIN\CEGUISCROLLABLEPANEDEMO_D.DLL
P:\LIBS\CEGUI-0.8.7\BUILD\BIN\CEGUISCROLLABLEPANEDEMO_D.PDB
