#Command: "C:\WINDOWS\system32\wermgr.exe" "-queuereporting_s_user" "C:\Users\brap\AppData\Local\Microsoft\Windows\WER\ReportQueue\NonCritical_VCTIP.EXE_fa3f56286735c412927232dfaf152f7e4d865291_00000000_cab_4632ebc3" 
C:\WINDOWS\SYSTEM32\MSWSOCK.DLL
C:\WINDOWS\SYSTEM32\WSHQOS.DLL
