^P:\LIBS\CEGUI-CEGUI-DEPENDENCIES-0ECDF3A9E49B\SRC\EXPAT-2.0.1\LIB\XMLPARSE.C|P:\LIBS\CEGUI-CEGUI-DEPENDENCIES-0ECDF3A9E49B\SRC\EXPAT-2.0.1\LIB\XMLROLE.C|P:\LIBS\CEGUI-CEGUI-DEPENDENCIES-0ECDF3A9E49B\SRC\EXPAT-2.0.1\LIB\XMLTOK.C
P:\LIBS\CEGUI-CEGUI-DEPENDENCIES-0ECDF3A9E49B\BUILD\SRC\EXPAT-2.0.1\CEGUI-BUILD\LIBEXPAT_STATIC.DIR\RELEASE\XMLPARSE.OBJ
P:\LIBS\CEGUI-CEGUI-DEPENDENCIES-0ECDF3A9E49B\BUILD\SRC\EXPAT-2.0.1\CEGUI-BUILD\LIBEXPAT_STATIC.DIR\RELEASE\XMLTOK.OBJ
P:\LIBS\CEGUI-CEGUI-DEPENDENCIES-0ECDF3A9E49B\BUILD\SRC\EXPAT-2.0.1\CEGUI-BUILD\LIBEXPAT_STATIC.DIR\RELEASE\XMLROLE.OBJ
