^P:\LIBS\CEGUI-CEGUI-DEPENDENCIES-0ECDF3A9E49B\BUILD\SRC\JPEG-8C\CEGUI-BUILD\JPEG.DIR\DEBUG\JARICOM.OBJ|P:\LIBS\CEGUI-CEGUI-DEPENDENCIES-0ECDF3A9E49B\BUILD\SRC\JPEG-8C\CEGUI-BUILD\JPEG.DIR\DEBUG\JCAPIMIN.OBJ|P:\LIBS\CEGUI-CEGUI-DEPENDENCIES-0ECDF3A9E49B\BUILD\SRC\JPEG-8C\CEGUI-BUILD\JPEG.DIR\DEBUG\JCAPISTD.OBJ|P:\LIBS\CEGUI-CEGUI-DEPENDENCIES-0ECDF3A9E49B\BUILD\SRC\JPEG-8C\CEGUI-BUILD\JPEG.DIR\DEBUG\JCARITH.OBJ|P:\LIBS\CEGUI-CEGUI-DEPENDENCIES-0ECDF3A9E49B\BUILD\SRC\JPEG-8C\CEGUI-BUILD\JPEG.DIR\DEBUG\JCCOEFCT.OBJ|P:\LIBS\CEGUI-CEGUI-DEPENDENCIES-0ECDF3A9E49B\BUILD\SRC\JPEG-8C\CEGUI-BUILD\JPEG.DIR\DEBUG\JCCOLOR.OBJ|P:\LIBS\CEGUI-CEGUI-DEPENDENCIES-0ECDF3A9E49B\BUILD\SRC\JPEG-8C\CEGUI-BUILD\JPEG.DIR\DEBUG\JCDCTMGR.OBJ|P:\LIBS\CEGUI-CEGUI-DEPENDENCIES-0ECDF3A9E49B\BUILD\SRC\JPEG-8C\CEGUI-BUILD\JPEG.DIR\DEBUG\JCHUFF.OBJ|P:\LIBS\CEGUI-CEGUI-DEPENDENCIES-0ECDF3A9E49B\BUILD\SRC\JPEG-8C\CEGUI-BUILD\JPEG.DIR\DEBUG\JCINIT.OBJ|P:\LIBS\CEGUI-CEGUI-DEPENDENCIES-0ECDF3A9E49B\BUILD\SRC\JPEG-8C\CEGUI-BUILD\JPEG.DIR\DEBUG\JCMAINCT.OBJ|P:\LIBS\CEGUI-CEGUI-DEPENDENCIES-0ECDF3A9E49B\BUILD\SRC\JPEG-8C\CEGUI-BUILD\JPEG.DIR\DEBUG\JCMARKER.OBJ|P:\LIBS\CEGUI-CEGUI-DEPENDENCIES-0ECDF3A9E49B\BUILD\SRC\JPEG-8C\CEGUI-BUILD\JPEG.DIR\DEBUG\JCMASTER.OBJ|P:\LIBS\CEGUI-CEGUI-DEPENDENCIES-0ECDF3A9E49B\BUILD\SRC\JPEG-8C\CEGUI-BUILD\JPEG.DIR\DEBUG\JCOMAPI.OBJ|P:\LIBS\CEGUI-CEGUI-DEPENDENCIES-0ECDF3A9E49B\BUILD\SRC\JPEG-8C\CEGUI-BUILD\JPEG.DIR\DEBUG\JCPARAM.OBJ|P:\LIBS\CEGUI-CEGUI-DEPENDENCIES-0ECDF3A9E49B\BUILD\SRC\JPEG-8C\CEGUI-BUILD\JPEG.DIR\DEBUG\JCPREPCT.OBJ|P:\LIBS\CEGUI-CEGUI-DEPENDENCIES-0ECDF3A9E49B\BUILD\SRC\JPEG-8C\CEGUI-BUILD\JPEG.DIR\DEBUG\JCSAMPLE.OBJ|P:\LIBS\CEGUI-CEGUI-DEPENDENCIES-0ECDF3A9E49B\BUILD\SRC\JPEG-8C\CEGUI-BUILD\JPEG.DIR\DEBUG\JCTRANS.OBJ|P:\LIBS\CEGUI-CEGUI-DEPENDENCIES-0ECDF3A9E49B\BUILD\SRC\JPEG-8C\CEGUI-BUILD\JPEG.DIR\DEBUG\JDAPIMIN.OBJ|P:\LIBS\CEGUI-CEGUI-DEPENDENCIES-0ECDF3A9E49B\BUILD\SRC\JPEG-8C\CEGUI-BUILD\JPEG.DIR\DEBUG\JDAPISTD.OBJ|P:\LIBS\CEGUI-CEGUI-DEPENDENCIES-0ECDF3A9E49B\BUILD\SRC\JPEG-8C\CEGUI-BUILD\JPEG.DIR\DEBUG\JDARITH.OBJ|P:\LIBS\CEGUI-CEGUI-DEPENDENCIES-0ECDF3A9E49B\BUILD\SRC\JPEG-8C\CEGUI-BUILD\JPEG.DIR\DEBUG\JDATADST.OBJ|P:\LIBS\CEGUI-CEGUI-DEPENDENCIES-0ECDF3A9E49B\BUILD\SRC\JPEG-8C\CEGUI-BUILD\JPEG.DIR\DEBUG\JDATASRC.OBJ|P:\LIBS\CEGUI-CEGUI-DEPENDENCIES-0ECDF3A9E49B\BUILD\SRC\JPEG-8C\CEGUI-BUILD\JPEG.DIR\DEBUG\JDCOEFCT.OBJ|P:\LIBS\CEGUI-CEGUI-DEPENDENCIES-0ECDF3A9E49B\BUILD\SRC\JPEG-8C\CEGUI-BUILD\JPEG.DIR\DEBUG\JDCOLOR.OBJ|P:\LIBS\CEGUI-CEGUI-DEPENDENCIES-0ECDF3A9E49B\BUILD\SRC\JPEG-8C\CEGUI-BUILD\JPEG.DIR\DEBUG\JDDCTMGR.OBJ|P:\LIBS\CEGUI-CEGUI-DEPENDENCIES-0ECDF3A9E49B\BUILD\SRC\JPEG-8C\CEGUI-BUILD\JPEG.DIR\DEBUG\JDHUFF.OBJ|P:\LIBS\CEGUI-CEGUI-DEPENDENCIES-0ECDF3A9E49B\BUILD\SRC\JPEG-8C\CEGUI-BUILD\JPEG.DIR\DEBUG\JDINPUT.OBJ|P:\LIBS\CEGUI-CEGUI-DEPENDENCIES-0ECDF3A9E49B\BUILD\SRC\JPEG-8C\CEGUI-BUILD\JPEG.DIR\DEBUG\JDMAINCT.OBJ|P:\LIBS\CEGUI-CEGUI-DEPENDENCIES-0ECDF3A9E49B\BUILD\SRC\JPEG-8C\CEGUI-BUILD\JPEG.DIR\DEBUG\JDMARKER.OBJ|P:\LIBS\CEGUI-CEGUI-DEPENDENCIES-0ECDF3A9E49B\BUILD\SRC\JPEG-8C\CEGUI-BUILD\JPEG.DIR\DEBUG\JDMASTER.OBJ|P:\LIBS\CEGUI-CEGUI-DEPENDENCIES-0ECDF3A9E49B\BUILD\SRC\JPEG-8C\CEGUI-BUILD\JPEG.DIR\DEBUG\JDMERGE.OBJ|P:\LIBS\CEGUI-CEGUI-DEPENDENCIES-0ECDF3A9E49B\BUILD\SRC\JPEG-8C\CEGUI-BUILD\JPEG.DIR\DEBUG\JDPOSTCT.OBJ|P:\LIBS\CEGUI-CEGUI-DEPENDENCIES-0ECDF3A9E49B\BUILD\SRC\JPEG-8C\CEGUI-BUILD\JPEG.DIR\DEBUG\JDSAMPLE.OBJ|P:\LIBS\CEGUI-CEGUI-DEPENDENCIES-0ECDF3A9E49B\BUILD\SRC\JPEG-8C\CEGUI-BUILD\JPEG.DIR\DEBUG\JDTRANS.OBJ|P:\LIBS\CEGUI-CEGUI-DEPENDENCIES-0ECDF3A9E49B\BUILD\SRC\JPEG-8C\CEGUI-BUILD\JPEG.DIR\DEBUG\JERROR.OBJ|P:\LIBS\CEGUI-CEGUI-DEPENDENCIES-0ECDF3A9E49B\BUILD\SRC\JPEG-8C\CEGUI-BUILD\JPEG.DIR\DEBUG\JFDCTFLT.OBJ|P:\LIBS\CEGUI-CEGUI-DEPENDENCIES-0ECDF3A9E49B\BUILD\SRC\JPEG-8C\CEGUI-BUILD\JPEG.DIR\DEBUG\JFDCTFST.OBJ|P:\LIBS\CEGUI-CEGUI-DEPENDENCIES-0ECDF3A9E49B\BUILD\SRC\JPEG-8C\CEGUI-BUILD\JPEG.DIR\DEBUG\JFDCTINT.OBJ|P:\LIBS\CEGUI-CEGUI-DEPENDENCIES-0ECDF3A9E49B\BUILD\SRC\JPEG-8C\CEGUI-BUILD\JPEG.DIR\DEBUG\JIDCTFLT.OBJ|P:\LIBS\CEGUI-CEGUI-DEPENDENCIES-0ECDF3A9E49B\BUILD\SRC\JPEG-8C\CEGUI-BUILD\JPEG.DIR\DEBUG\JIDCTFST.OBJ|P:\LIBS\CEGUI-CEGUI-DEPENDENCIES-0ECDF3A9E49B\BUILD\SRC\JPEG-8C\CEGUI-BUILD\JPEG.DIR\DEBUG\JIDCTINT.OBJ|P:\LIBS\CEGUI-CEGUI-DEPENDENCIES-0ECDF3A9E49B\BUILD\SRC\JPEG-8C\CEGUI-BUILD\JPEG.DIR\DEBUG\JMEMMGR.OBJ|P:\LIBS\CEGUI-CEGUI-DEPENDENCIES-0ECDF3A9E49B\BUILD\SRC\JPEG-8C\CEGUI-BUILD\JPEG.DIR\DEBUG\JMEMNOBS.OBJ|P:\LIBS\CEGUI-CEGUI-DEPENDENCIES-0ECDF3A9E49B\BUILD\SRC\JPEG-8C\CEGUI-BUILD\JPEG.DIR\DEBUG\JQUANT1.OBJ|P:\LIBS\CEGUI-CEGUI-DEPENDENCIES-0ECDF3A9E49B\BUILD\SRC\JPEG-8C\CEGUI-BUILD\JPEG.DIR\DEBUG\JQUANT2.OBJ|P:\LIBS\CEGUI-CEGUI-DEPENDENCIES-0ECDF3A9E49B\BUILD\SRC\JPEG-8C\CEGUI-BUILD\JPEG.DIR\DEBUG\JUTILS.OBJ
C:\WINDOWS\GLOBALIZATION\SORTING\SORTDEFAULT.NLS
C:\PROGRAM FILES (X86)\WINDOWS KITS\8.1\LIB\WINV6.3\UM\X86\KERNEL32.LIB
C:\PROGRAM FILES (X86)\WINDOWS KITS\8.1\LIB\WINV6.3\UM\X86\USER32.LIB
C:\PROGRAM FILES (X86)\WINDOWS KITS\8.1\LIB\WINV6.3\UM\X86\GDI32.LIB
C:\PROGRAM FILES (X86)\WINDOWS KITS\8.1\LIB\WINV6.3\UM\X86\WINSPOOL.LIB
C:\PROGRAM FILES (X86)\WINDOWS KITS\8.1\LIB\WINV6.3\UM\X86\SHELL32.LIB
C:\PROGRAM FILES (X86)\WINDOWS KITS\8.1\LIB\WINV6.3\UM\X86\OLE32.LIB
C:\PROGRAM FILES (X86)\WINDOWS KITS\8.1\LIB\WINV6.3\UM\X86\OLEAUT32.LIB
C:\PROGRAM FILES (X86)\WINDOWS KITS\8.1\LIB\WINV6.3\UM\X86\UUID.LIB
C:\PROGRAM FILES (X86)\WINDOWS KITS\8.1\LIB\WINV6.3\UM\X86\COMDLG32.LIB
C:\PROGRAM FILES (X86)\WINDOWS KITS\8.1\LIB\WINV6.3\UM\X86\ADVAPI32.LIB
P:\LIBS\CEGUI-CEGUI-DEPENDENCIES-0ECDF3A9E49B\BUILD\SRC\JPEG-8C\CEGUI-BUILD\JPEG.DIR\DEBUG\JARICOM.OBJ
P:\LIBS\CEGUI-CEGUI-DEPENDENCIES-0ECDF3A9E49B\BUILD\SRC\JPEG-8C\CEGUI-BUILD\JPEG.DIR\DEBUG\JCAPIMIN.OBJ
P:\LIBS\CEGUI-CEGUI-DEPENDENCIES-0ECDF3A9E49B\BUILD\SRC\JPEG-8C\CEGUI-BUILD\JPEG.DIR\DEBUG\JCAPISTD.OBJ
P:\LIBS\CEGUI-CEGUI-DEPENDENCIES-0ECDF3A9E49B\BUILD\SRC\JPEG-8C\CEGUI-BUILD\JPEG.DIR\DEBUG\JCARITH.OBJ
P:\LIBS\CEGUI-CEGUI-DEPENDENCIES-0ECDF3A9E49B\BUILD\SRC\JPEG-8C\CEGUI-BUILD\JPEG.DIR\DEBUG\JCCOEFCT.OBJ
P:\LIBS\CEGUI-CEGUI-DEPENDENCIES-0ECDF3A9E49B\BUILD\SRC\JPEG-8C\CEGUI-BUILD\JPEG.DIR\DEBUG\JCCOLOR.OBJ
P:\LIBS\CEGUI-CEGUI-DEPENDENCIES-0ECDF3A9E49B\BUILD\SRC\JPEG-8C\CEGUI-BUILD\JPEG.DIR\DEBUG\JCDCTMGR.OBJ
P:\LIBS\CEGUI-CEGUI-DEPENDENCIES-0ECDF3A9E49B\BUILD\SRC\JPEG-8C\CEGUI-BUILD\JPEG.DIR\DEBUG\JCHUFF.OBJ
P:\LIBS\CEGUI-CEGUI-DEPENDENCIES-0ECDF3A9E49B\BUILD\SRC\JPEG-8C\CEGUI-BUILD\JPEG.DIR\DEBUG\JCINIT.OBJ
P:\LIBS\CEGUI-CEGUI-DEPENDENCIES-0ECDF3A9E49B\BUILD\SRC\JPEG-8C\CEGUI-BUILD\JPEG.DIR\DEBUG\JCMAINCT.OBJ
P:\LIBS\CEGUI-CEGUI-DEPENDENCIES-0ECDF3A9E49B\BUILD\SRC\JPEG-8C\CEGUI-BUILD\JPEG.DIR\DEBUG\JCMARKER.OBJ
P:\LIBS\CEGUI-CEGUI-DEPENDENCIES-0ECDF3A9E49B\BUILD\SRC\JPEG-8C\CEGUI-BUILD\JPEG.DIR\DEBUG\JCMASTER.OBJ
P:\LIBS\CEGUI-CEGUI-DEPENDENCIES-0ECDF3A9E49B\BUILD\SRC\JPEG-8C\CEGUI-BUILD\JPEG.DIR\DEBUG\JCOMAPI.OBJ
P:\LIBS\CEGUI-CEGUI-DEPENDENCIES-0ECDF3A9E49B\BUILD\SRC\JPEG-8C\CEGUI-BUILD\JPEG.DIR\DEBUG\JCPARAM.OBJ
P:\LIBS\CEGUI-CEGUI-DEPENDENCIES-0ECDF3A9E49B\BUILD\SRC\JPEG-8C\CEGUI-BUILD\JPEG.DIR\DEBUG\JCPREPCT.OBJ
P:\LIBS\CEGUI-CEGUI-DEPENDENCIES-0ECDF3A9E49B\BUILD\SRC\JPEG-8C\CEGUI-BUILD\JPEG.DIR\DEBUG\JCSAMPLE.OBJ
P:\LIBS\CEGUI-CEGUI-DEPENDENCIES-0ECDF3A9E49B\BUILD\SRC\JPEG-8C\CEGUI-BUILD\JPEG.DIR\DEBUG\JCTRANS.OBJ
P:\LIBS\CEGUI-CEGUI-DEPENDENCIES-0ECDF3A9E49B\BUILD\SRC\JPEG-8C\CEGUI-BUILD\JPEG.DIR\DEBUG\JDAPIMIN.OBJ
P:\LIBS\CEGUI-CEGUI-DEPENDENCIES-0ECDF3A9E49B\BUILD\SRC\JPEG-8C\CEGUI-BUILD\JPEG.DIR\DEBUG\JDAPISTD.OBJ
P:\LIBS\CEGUI-CEGUI-DEPENDENCIES-0ECDF3A9E49B\BUILD\SRC\JPEG-8C\CEGUI-BUILD\JPEG.DIR\DEBUG\JDARITH.OBJ
P:\LIBS\CEGUI-CEGUI-DEPENDENCIES-0ECDF3A9E49B\BUILD\SRC\JPEG-8C\CEGUI-BUILD\JPEG.DIR\DEBUG\JDATADST.OBJ
P:\LIBS\CEGUI-CEGUI-DEPENDENCIES-0ECDF3A9E49B\BUILD\SRC\JPEG-8C\CEGUI-BUILD\JPEG.DIR\DEBUG\JDATASRC.OBJ
P:\LIBS\CEGUI-CEGUI-DEPENDENCIES-0ECDF3A9E49B\BUILD\SRC\JPEG-8C\CEGUI-BUILD\JPEG.DIR\DEBUG\JDCOEFCT.OBJ
P:\LIBS\CEGUI-CEGUI-DEPENDENCIES-0ECDF3A9E49B\BUILD\SRC\JPEG-8C\CEGUI-BUILD\JPEG.DIR\DEBUG\JDCOLOR.OBJ
P:\LIBS\CEGUI-CEGUI-DEPENDENCIES-0ECDF3A9E49B\BUILD\SRC\JPEG-8C\CEGUI-BUILD\JPEG.DIR\DEBUG\JDDCTMGR.OBJ
P:\LIBS\CEGUI-CEGUI-DEPENDENCIES-0ECDF3A9E49B\BUILD\SRC\JPEG-8C\CEGUI-BUILD\JPEG.DIR\DEBUG\JDHUFF.OBJ
P:\LIBS\CEGUI-CEGUI-DEPENDENCIES-0ECDF3A9E49B\BUILD\SRC\JPEG-8C\CEGUI-BUILD\JPEG.DIR\DEBUG\JDINPUT.OBJ
P:\LIBS\CEGUI-CEGUI-DEPENDENCIES-0ECDF3A9E49B\BUILD\SRC\JPEG-8C\CEGUI-BUILD\JPEG.DIR\DEBUG\JDMAINCT.OBJ
P:\LIBS\CEGUI-CEGUI-DEPENDENCIES-0ECDF3A9E49B\BUILD\SRC\JPEG-8C\CEGUI-BUILD\JPEG.DIR\DEBUG\JDMARKER.OBJ
P:\LIBS\CEGUI-CEGUI-DEPENDENCIES-0ECDF3A9E49B\BUILD\SRC\JPEG-8C\CEGUI-BUILD\JPEG.DIR\DEBUG\JDMASTER.OBJ
P:\LIBS\CEGUI-CEGUI-DEPENDENCIES-0ECDF3A9E49B\BUILD\SRC\JPEG-8C\CEGUI-BUILD\JPEG.DIR\DEBUG\JDMERGE.OBJ
P:\LIBS\CEGUI-CEGUI-DEPENDENCIES-0ECDF3A9E49B\BUILD\SRC\JPEG-8C\CEGUI-BUILD\JPEG.DIR\DEBUG\JDPOSTCT.OBJ
P:\LIBS\CEGUI-CEGUI-DEPENDENCIES-0ECDF3A9E49B\BUILD\SRC\JPEG-8C\CEGUI-BUILD\JPEG.DIR\DEBUG\JDSAMPLE.OBJ
P:\LIBS\CEGUI-CEGUI-DEPENDENCIES-0ECDF3A9E49B\BUILD\SRC\JPEG-8C\CEGUI-BUILD\JPEG.DIR\DEBUG\JDTRANS.OBJ
P:\LIBS\CEGUI-CEGUI-DEPENDENCIES-0ECDF3A9E49B\BUILD\SRC\JPEG-8C\CEGUI-BUILD\JPEG.DIR\DEBUG\JERROR.OBJ
P:\LIBS\CEGUI-CEGUI-DEPENDENCIES-0ECDF3A9E49B\BUILD\SRC\JPEG-8C\CEGUI-BUILD\JPEG.DIR\DEBUG\JFDCTFLT.OBJ
P:\LIBS\CEGUI-CEGUI-DEPENDENCIES-0ECDF3A9E49B\BUILD\SRC\JPEG-8C\CEGUI-BUILD\JPEG.DIR\DEBUG\JFDCTFST.OBJ
P:\LIBS\CEGUI-CEGUI-DEPENDENCIES-0ECDF3A9E49B\BUILD\SRC\JPEG-8C\CEGUI-BUILD\JPEG.DIR\DEBUG\JFDCTINT.OBJ
P:\LIBS\CEGUI-CEGUI-DEPENDENCIES-0ECDF3A9E49B\BUILD\SRC\JPEG-8C\CEGUI-BUILD\JPEG.DIR\DEBUG\JIDCTFLT.OBJ
P:\LIBS\CEGUI-CEGUI-DEPENDENCIES-0ECDF3A9E49B\BUILD\SRC\JPEG-8C\CEGUI-BUILD\JPEG.DIR\DEBUG\JIDCTFST.OBJ
P:\LIBS\CEGUI-CEGUI-DEPENDENCIES-0ECDF3A9E49B\BUILD\SRC\JPEG-8C\CEGUI-BUILD\JPEG.DIR\DEBUG\JIDCTINT.OBJ
P:\LIBS\CEGUI-CEGUI-DEPENDENCIES-0ECDF3A9E49B\BUILD\SRC\JPEG-8C\CEGUI-BUILD\JPEG.DIR\DEBUG\JMEMMGR.OBJ
P:\LIBS\CEGUI-CEGUI-DEPENDENCIES-0ECDF3A9E49B\BUILD\SRC\JPEG-8C\CEGUI-BUILD\JPEG.DIR\DEBUG\JMEMNOBS.OBJ
P:\LIBS\CEGUI-CEGUI-DEPENDENCIES-0ECDF3A9E49B\BUILD\SRC\JPEG-8C\CEGUI-BUILD\JPEG.DIR\DEBUG\JQUANT1.OBJ
P:\LIBS\CEGUI-CEGUI-DEPENDENCIES-0ECDF3A9E49B\BUILD\SRC\JPEG-8C\CEGUI-BUILD\JPEG.DIR\DEBUG\JQUANT2.OBJ
P:\LIBS\CEGUI-CEGUI-DEPENDENCIES-0ECDF3A9E49B\BUILD\SRC\JPEG-8C\CEGUI-BUILD\JPEG.DIR\DEBUG\JUTILS.OBJ
C:\PROGRAM FILES (X86)\VC\LIB\MSVCRTD.LIB
C:\PROGRAM FILES (X86)\VC\LIB\OLDNAMES.LIB
C:\PROGRAM FILES (X86)\VC\LIB\VCRUNTIMED.LIB
C:\PROGRAM FILES (X86)\WINDOWS KITS\10\LIB\10.0.10240.0\UCRT\X86\UCRTD.LIB
C:\WINDOWS\SYSTEM32\TZRES.DLL
C:\PROGRAM FILES (X86)\VC\BIN\1033\LINKUI.DLL
C:\PROGRAM FILES (X86)\WINDOWS KITS\8.1\BIN\X86\RC.EXE
C:\PROGRAM FILES (X86)\VC\BIN\CVTRES.EXE
