^P:\LIBS\CEGUI-CEGUI-DEPENDENCIES-0ECDF3A9E49B\SRC\JPEG-8C\JARICOM.C
P:\LIBS\CEGUI-CEGUI-DEPENDENCIES-0ECDF3A9E49B\SRC\JPEG-8C\JINCLUDE.H
P:\LIBS\CEGUI-CEGUI-DEPENDENCIES-0ECDF3A9E49B\SRC\JPEG-8C\JCONFIG.H
C:\PROGRAM FILES (X86)\WINDOWS KITS\10\INCLUDE\10.0.10240.0\UCRT\STDDEF.H
C:\PROGRAM FILES (X86)\WINDOWS KITS\10\INCLUDE\10.0.10240.0\UCRT\CORECRT.H
C:\PROGRAM FILES (X86)\VC\INCLUDE\VCRUNTIME.H
C:\PROGRAM FILES (X86)\VC\INCLUDE\SAL.H
C:\PROGRAM FILES (X86)\VC\INCLUDE\CONCURRENCYSAL.H
C:\PROGRAM FILES (X86)\VC\INCLUDE\VADEFS.H
C:\PROGRAM FILES (X86)\WINDOWS KITS\10\INCLUDE\10.0.10240.0\UCRT\STDLIB.H
C:\PROGRAM FILES (X86)\WINDOWS KITS\10\INCLUDE\10.0.10240.0\UCRT\CORECRT_MALLOC.H
C:\PROGRAM FILES (X86)\WINDOWS KITS\10\INCLUDE\10.0.10240.0\UCRT\CORECRT_SEARCH.H
C:\PROGRAM FILES (X86)\WINDOWS KITS\10\INCLUDE\10.0.10240.0\UCRT\CORECRT_WSTDLIB.H
C:\PROGRAM FILES (X86)\VC\INCLUDE\LIMITS.H
C:\PROGRAM FILES (X86)\WINDOWS KITS\10\INCLUDE\10.0.10240.0\UCRT\STDIO.H
C:\PROGRAM FILES (X86)\WINDOWS KITS\10\INCLUDE\10.0.10240.0\UCRT\CORECRT_WSTDIO.H
C:\PROGRAM FILES (X86)\WINDOWS KITS\10\INCLUDE\10.0.10240.0\UCRT\CORECRT_STDIO_CONFIG.H
C:\PROGRAM FILES (X86)\WINDOWS KITS\10\INCLUDE\10.0.10240.0\UCRT\STRING.H
C:\PROGRAM FILES (X86)\WINDOWS KITS\10\INCLUDE\10.0.10240.0\UCRT\CORECRT_MEMORY.H
C:\PROGRAM FILES (X86)\WINDOWS KITS\10\INCLUDE\10.0.10240.0\UCRT\CORECRT_MEMCPY_S.H
C:\PROGRAM FILES (X86)\WINDOWS KITS\10\INCLUDE\10.0.10240.0\UCRT\ERRNO.H
C:\PROGRAM FILES (X86)\VC\INCLUDE\VCRUNTIME_STRING.H
C:\PROGRAM FILES (X86)\WINDOWS KITS\10\INCLUDE\10.0.10240.0\UCRT\CORECRT_WSTRING.H
P:\LIBS\CEGUI-CEGUI-DEPENDENCIES-0ECDF3A9E49B\SRC\JPEG-8C\JPEGLIB.H
P:\LIBS\CEGUI-CEGUI-DEPENDENCIES-0ECDF3A9E49B\SRC\JPEG-8C\JMORECFG.H
P:\LIBS\CEGUI-CEGUI-DEPENDENCIES-0ECDF3A9E49B\SRC\JPEG-8C\JPEGINT.H
P:\LIBS\CEGUI-CEGUI-DEPENDENCIES-0ECDF3A9E49B\SRC\JPEG-8C\JERROR.H
^P:\LIBS\CEGUI-CEGUI-DEPENDENCIES-0ECDF3A9E49B\SRC\JPEG-8C\JCAPIMIN.C
P:\LIBS\CEGUI-CEGUI-DEPENDENCIES-0ECDF3A9E49B\SRC\JPEG-8C\JINCLUDE.H
P:\LIBS\CEGUI-CEGUI-DEPENDENCIES-0ECDF3A9E49B\SRC\JPEG-8C\JCONFIG.H
C:\PROGRAM FILES (X86)\WINDOWS KITS\10\INCLUDE\10.0.10240.0\UCRT\STDDEF.H
C:\PROGRAM FILES (X86)\WINDOWS KITS\10\INCLUDE\10.0.10240.0\UCRT\CORECRT.H
C:\PROGRAM FILES (X86)\VC\INCLUDE\VCRUNTIME.H
C:\PROGRAM FILES (X86)\VC\INCLUDE\SAL.H
C:\PROGRAM FILES (X86)\VC\INCLUDE\CONCURRENCYSAL.H
C:\PROGRAM FILES (X86)\VC\INCLUDE\VADEFS.H
C:\PROGRAM FILES (X86)\WINDOWS KITS\10\INCLUDE\10.0.10240.0\UCRT\STDLIB.H
C:\PROGRAM FILES (X86)\WINDOWS KITS\10\INCLUDE\10.0.10240.0\UCRT\CORECRT_MALLOC.H
C:\PROGRAM FILES (X86)\WINDOWS KITS\10\INCLUDE\10.0.10240.0\UCRT\CORECRT_SEARCH.H
C:\PROGRAM FILES (X86)\WINDOWS KITS\10\INCLUDE\10.0.10240.0\UCRT\CORECRT_WSTDLIB.H
C:\PROGRAM FILES (X86)\VC\INCLUDE\LIMITS.H
C:\PROGRAM FILES (X86)\WINDOWS KITS\10\INCLUDE\10.0.10240.0\UCRT\STDIO.H
C:\PROGRAM FILES (X86)\WINDOWS KITS\10\INCLUDE\10.0.10240.0\UCRT\CORECRT_WSTDIO.H
C:\PROGRAM FILES (X86)\WINDOWS KITS\10\INCLUDE\10.0.10240.0\UCRT\CORECRT_STDIO_CONFIG.H
C:\PROGRAM FILES (X86)\WINDOWS KITS\10\INCLUDE\10.0.10240.0\UCRT\STRING.H
C:\PROGRAM FILES (X86)\WINDOWS KITS\10\INCLUDE\10.0.10240.0\UCRT\CORECRT_MEMORY.H
C:\PROGRAM FILES (X86)\WINDOWS KITS\10\INCLUDE\10.0.10240.0\UCRT\CORECRT_MEMCPY_S.H
C:\PROGRAM FILES (X86)\WINDOWS KITS\10\INCLUDE\10.0.10240.0\UCRT\ERRNO.H
C:\PROGRAM FILES (X86)\VC\INCLUDE\VCRUNTIME_STRING.H
C:\PROGRAM FILES (X86)\WINDOWS KITS\10\INCLUDE\10.0.10240.0\UCRT\CORECRT_WSTRING.H
P:\LIBS\CEGUI-CEGUI-DEPENDENCIES-0ECDF3A9E49B\SRC\JPEG-8C\JPEGLIB.H
P:\LIBS\CEGUI-CEGUI-DEPENDENCIES-0ECDF3A9E49B\SRC\JPEG-8C\JMORECFG.H
P:\LIBS\CEGUI-CEGUI-DEPENDENCIES-0ECDF3A9E49B\SRC\JPEG-8C\JPEGINT.H
P:\LIBS\CEGUI-CEGUI-DEPENDENCIES-0ECDF3A9E49B\SRC\JPEG-8C\JERROR.H
^P:\LIBS\CEGUI-CEGUI-DEPENDENCIES-0ECDF3A9E49B\SRC\JPEG-8C\JCAPISTD.C
P:\LIBS\CEGUI-CEGUI-DEPENDENCIES-0ECDF3A9E49B\SRC\JPEG-8C\JINCLUDE.H
P:\LIBS\CEGUI-CEGUI-DEPENDENCIES-0ECDF3A9E49B\SRC\JPEG-8C\JCONFIG.H
C:\PROGRAM FILES (X86)\WINDOWS KITS\10\INCLUDE\10.0.10240.0\UCRT\STDDEF.H
C:\PROGRAM FILES (X86)\WINDOWS KITS\10\INCLUDE\10.0.10240.0\UCRT\CORECRT.H
C:\PROGRAM FILES (X86)\VC\INCLUDE\VCRUNTIME.H
C:\PROGRAM FILES (X86)\VC\INCLUDE\SAL.H
C:\PROGRAM FILES (X86)\VC\INCLUDE\CONCURRENCYSAL.H
C:\PROGRAM FILES (X86)\VC\INCLUDE\VADEFS.H
C:\PROGRAM FILES (X86)\WINDOWS KITS\10\INCLUDE\10.0.10240.0\UCRT\STDLIB.H
C:\PROGRAM FILES (X86)\WINDOWS KITS\10\INCLUDE\10.0.10240.0\UCRT\CORECRT_MALLOC.H
C:\PROGRAM FILES (X86)\WINDOWS KITS\10\INCLUDE\10.0.10240.0\UCRT\CORECRT_SEARCH.H
C:\PROGRAM FILES (X86)\WINDOWS KITS\10\INCLUDE\10.0.10240.0\UCRT\CORECRT_WSTDLIB.H
C:\PROGRAM FILES (X86)\VC\INCLUDE\LIMITS.H
C:\PROGRAM FILES (X86)\WINDOWS KITS\10\INCLUDE\10.0.10240.0\UCRT\STDIO.H
C:\PROGRAM FILES (X86)\WINDOWS KITS\10\INCLUDE\10.0.10240.0\UCRT\CORECRT_WSTDIO.H
C:\PROGRAM FILES (X86)\WINDOWS KITS\10\INCLUDE\10.0.10240.0\UCRT\CORECRT_STDIO_CONFIG.H
C:\PROGRAM FILES (X86)\WINDOWS KITS\10\INCLUDE\10.0.10240.0\UCRT\STRING.H
C:\PROGRAM FILES (X86)\WINDOWS KITS\10\INCLUDE\10.0.10240.0\UCRT\CORECRT_MEMORY.H
C:\PROGRAM FILES (X86)\WINDOWS KITS\10\INCLUDE\10.0.10240.0\UCRT\CORECRT_MEMCPY_S.H
C:\PROGRAM FILES (X86)\WINDOWS KITS\10\INCLUDE\10.0.10240.0\UCRT\ERRNO.H
C:\PROGRAM FILES (X86)\VC\INCLUDE\VCRUNTIME_STRING.H
C:\PROGRAM FILES (X86)\WINDOWS KITS\10\INCLUDE\10.0.10240.0\UCRT\CORECRT_WSTRING.H
P:\LIBS\CEGUI-CEGUI-DEPENDENCIES-0ECDF3A9E49B\SRC\JPEG-8C\JPEGLIB.H
P:\LIBS\CEGUI-CEGUI-DEPENDENCIES-0ECDF3A9E49B\SRC\JPEG-8C\JMORECFG.H
P:\LIBS\CEGUI-CEGUI-DEPENDENCIES-0ECDF3A9E49B\SRC\JPEG-8C\JPEGINT.H
P:\LIBS\CEGUI-CEGUI-DEPENDENCIES-0ECDF3A9E49B\SRC\JPEG-8C\JERROR.H
^P:\LIBS\CEGUI-CEGUI-DEPENDENCIES-0ECDF3A9E49B\SRC\JPEG-8C\JCARITH.C
P:\LIBS\CEGUI-CEGUI-DEPENDENCIES-0ECDF3A9E49B\SRC\JPEG-8C\JINCLUDE.H
P:\LIBS\CEGUI-CEGUI-DEPENDENCIES-0ECDF3A9E49B\SRC\JPEG-8C\JCONFIG.H
C:\PROGRAM FILES (X86)\WINDOWS KITS\10\INCLUDE\10.0.10240.0\UCRT\STDDEF.H
C:\PROGRAM FILES (X86)\WINDOWS KITS\10\INCLUDE\10.0.10240.0\UCRT\CORECRT.H
C:\PROGRAM FILES (X86)\VC\INCLUDE\VCRUNTIME.H
C:\PROGRAM FILES (X86)\VC\INCLUDE\SAL.H
C:\PROGRAM FILES (X86)\VC\INCLUDE\CONCURRENCYSAL.H
C:\PROGRAM FILES (X86)\VC\INCLUDE\VADEFS.H
C:\PROGRAM FILES (X86)\WINDOWS KITS\10\INCLUDE\10.0.10240.0\UCRT\STDLIB.H
C:\PROGRAM FILES (X86)\WINDOWS KITS\10\INCLUDE\10.0.10240.0\UCRT\CORECRT_MALLOC.H
C:\PROGRAM FILES (X86)\WINDOWS KITS\10\INCLUDE\10.0.10240.0\UCRT\CORECRT_SEARCH.H
C:\PROGRAM FILES (X86)\WINDOWS KITS\10\INCLUDE\10.0.10240.0\UCRT\CORECRT_WSTDLIB.H
C:\PROGRAM FILES (X86)\VC\INCLUDE\LIMITS.H
C:\PROGRAM FILES (X86)\WINDOWS KITS\10\INCLUDE\10.0.10240.0\UCRT\STDIO.H
C:\PROGRAM FILES (X86)\WINDOWS KITS\10\INCLUDE\10.0.10240.0\UCRT\CORECRT_WSTDIO.H
C:\PROGRAM FILES (X86)\WINDOWS KITS\10\INCLUDE\10.0.10240.0\UCRT\CORECRT_STDIO_CONFIG.H
C:\PROGRAM FILES (X86)\WINDOWS KITS\10\INCLUDE\10.0.10240.0\UCRT\STRING.H
C:\PROGRAM FILES (X86)\WINDOWS KITS\10\INCLUDE\10.0.10240.0\UCRT\CORECRT_MEMORY.H
C:\PROGRAM FILES (X86)\WINDOWS KITS\10\INCLUDE\10.0.10240.0\UCRT\CORECRT_MEMCPY_S.H
C:\PROGRAM FILES (X86)\WINDOWS KITS\10\INCLUDE\10.0.10240.0\UCRT\ERRNO.H
C:\PROGRAM FILES (X86)\VC\INCLUDE\VCRUNTIME_STRING.H
C:\PROGRAM FILES (X86)\WINDOWS KITS\10\INCLUDE\10.0.10240.0\UCRT\CORECRT_WSTRING.H
P:\LIBS\CEGUI-CEGUI-DEPENDENCIES-0ECDF3A9E49B\SRC\JPEG-8C\JPEGLIB.H
P:\LIBS\CEGUI-CEGUI-DEPENDENCIES-0ECDF3A9E49B\SRC\JPEG-8C\JMORECFG.H
P:\LIBS\CEGUI-CEGUI-DEPENDENCIES-0ECDF3A9E49B\SRC\JPEG-8C\JPEGINT.H
P:\LIBS\CEGUI-CEGUI-DEPENDENCIES-0ECDF3A9E49B\SRC\JPEG-8C\JERROR.H
^P:\LIBS\CEGUI-CEGUI-DEPENDENCIES-0ECDF3A9E49B\SRC\JPEG-8C\JCCOEFCT.C
P:\LIBS\CEGUI-CEGUI-DEPENDENCIES-0ECDF3A9E49B\SRC\JPEG-8C\JINCLUDE.H
P:\LIBS\CEGUI-CEGUI-DEPENDENCIES-0ECDF3A9E49B\SRC\JPEG-8C\JCONFIG.H
C:\PROGRAM FILES (X86)\WINDOWS KITS\10\INCLUDE\10.0.10240.0\UCRT\STDDEF.H
C:\PROGRAM FILES (X86)\WINDOWS KITS\10\INCLUDE\10.0.10240.0\UCRT\CORECRT.H
C:\PROGRAM FILES (X86)\VC\INCLUDE\VCRUNTIME.H
C:\PROGRAM FILES (X86)\VC\INCLUDE\SAL.H
C:\PROGRAM FILES (X86)\VC\INCLUDE\CONCURRENCYSAL.H
C:\PROGRAM FILES (X86)\VC\INCLUDE\VADEFS.H
C:\PROGRAM FILES (X86)\WINDOWS KITS\10\INCLUDE\10.0.10240.0\UCRT\STDLIB.H
C:\PROGRAM FILES (X86)\WINDOWS KITS\10\INCLUDE\10.0.10240.0\UCRT\CORECRT_MALLOC.H
C:\PROGRAM FILES (X86)\WINDOWS KITS\10\INCLUDE\10.0.10240.0\UCRT\CORECRT_SEARCH.H
C:\PROGRAM FILES (X86)\WINDOWS KITS\10\INCLUDE\10.0.10240.0\UCRT\CORECRT_WSTDLIB.H
C:\PROGRAM FILES (X86)\VC\INCLUDE\LIMITS.H
C:\PROGRAM FILES (X86)\WINDOWS KITS\10\INCLUDE\10.0.10240.0\UCRT\STDIO.H
C:\PROGRAM FILES (X86)\WINDOWS KITS\10\INCLUDE\10.0.10240.0\UCRT\CORECRT_WSTDIO.H
C:\PROGRAM FILES (X86)\WINDOWS KITS\10\INCLUDE\10.0.10240.0\UCRT\CORECRT_STDIO_CONFIG.H
C:\PROGRAM FILES (X86)\WINDOWS KITS\10\INCLUDE\10.0.10240.0\UCRT\STRING.H
C:\PROGRAM FILES (X86)\WINDOWS KITS\10\INCLUDE\10.0.10240.0\UCRT\CORECRT_MEMORY.H
C:\PROGRAM FILES (X86)\WINDOWS KITS\10\INCLUDE\10.0.10240.0\UCRT\CORECRT_MEMCPY_S.H
C:\PROGRAM FILES (X86)\WINDOWS KITS\10\INCLUDE\10.0.10240.0\UCRT\ERRNO.H
C:\PROGRAM FILES (X86)\VC\INCLUDE\VCRUNTIME_STRING.H
C:\PROGRAM FILES (X86)\WINDOWS KITS\10\INCLUDE\10.0.10240.0\UCRT\CORECRT_WSTRING.H
P:\LIBS\CEGUI-CEGUI-DEPENDENCIES-0ECDF3A9E49B\SRC\JPEG-8C\JPEGLIB.H
P:\LIBS\CEGUI-CEGUI-DEPENDENCIES-0ECDF3A9E49B\SRC\JPEG-8C\JMORECFG.H
P:\LIBS\CEGUI-CEGUI-DEPENDENCIES-0ECDF3A9E49B\SRC\JPEG-8C\JPEGINT.H
P:\LIBS\CEGUI-CEGUI-DEPENDENCIES-0ECDF3A9E49B\SRC\JPEG-8C\JERROR.H
^P:\LIBS\CEGUI-CEGUI-DEPENDENCIES-0ECDF3A9E49B\SRC\JPEG-8C\JCCOLOR.C
P:\LIBS\CEGUI-CEGUI-DEPENDENCIES-0ECDF3A9E49B\SRC\JPEG-8C\JINCLUDE.H
P:\LIBS\CEGUI-CEGUI-DEPENDENCIES-0ECDF3A9E49B\SRC\JPEG-8C\JCONFIG.H
C:\PROGRAM FILES (X86)\WINDOWS KITS\10\INCLUDE\10.0.10240.0\UCRT\STDDEF.H
C:\PROGRAM FILES (X86)\WINDOWS KITS\10\INCLUDE\10.0.10240.0\UCRT\CORECRT.H
C:\PROGRAM FILES (X86)\VC\INCLUDE\VCRUNTIME.H
C:\PROGRAM FILES (X86)\VC\INCLUDE\SAL.H
C:\PROGRAM FILES (X86)\VC\INCLUDE\CONCURRENCYSAL.H
C:\PROGRAM FILES (X86)\VC\INCLUDE\VADEFS.H
C:\PROGRAM FILES (X86)\WINDOWS KITS\10\INCLUDE\10.0.10240.0\UCRT\STDLIB.H
C:\PROGRAM FILES (X86)\WINDOWS KITS\10\INCLUDE\10.0.10240.0\UCRT\CORECRT_MALLOC.H
C:\PROGRAM FILES (X86)\WINDOWS KITS\10\INCLUDE\10.0.10240.0\UCRT\CORECRT_SEARCH.H
C:\PROGRAM FILES (X86)\WINDOWS KITS\10\INCLUDE\10.0.10240.0\UCRT\CORECRT_WSTDLIB.H
C:\PROGRAM FILES (X86)\VC\INCLUDE\LIMITS.H
C:\PROGRAM FILES (X86)\WINDOWS KITS\10\INCLUDE\10.0.10240.0\UCRT\STDIO.H
C:\PROGRAM FILES (X86)\WINDOWS KITS\10\INCLUDE\10.0.10240.0\UCRT\CORECRT_WSTDIO.H
C:\PROGRAM FILES (X86)\WINDOWS KITS\10\INCLUDE\10.0.10240.0\UCRT\CORECRT_STDIO_CONFIG.H
C:\PROGRAM FILES (X86)\WINDOWS KITS\10\INCLUDE\10.0.10240.0\UCRT\STRING.H
C:\PROGRAM FILES (X86)\WINDOWS KITS\10\INCLUDE\10.0.10240.0\UCRT\CORECRT_MEMORY.H
C:\PROGRAM FILES (X86)\WINDOWS KITS\10\INCLUDE\10.0.10240.0\UCRT\CORECRT_MEMCPY_S.H
C:\PROGRAM FILES (X86)\WINDOWS KITS\10\INCLUDE\10.0.10240.0\UCRT\ERRNO.H
C:\PROGRAM FILES (X86)\VC\INCLUDE\VCRUNTIME_STRING.H
C:\PROGRAM FILES (X86)\WINDOWS KITS\10\INCLUDE\10.0.10240.0\UCRT\CORECRT_WSTRING.H
P:\LIBS\CEGUI-CEGUI-DEPENDENCIES-0ECDF3A9E49B\SRC\JPEG-8C\JPEGLIB.H
P:\LIBS\CEGUI-CEGUI-DEPENDENCIES-0ECDF3A9E49B\SRC\JPEG-8C\JMORECFG.H
P:\LIBS\CEGUI-CEGUI-DEPENDENCIES-0ECDF3A9E49B\SRC\JPEG-8C\JPEGINT.H
P:\LIBS\CEGUI-CEGUI-DEPENDENCIES-0ECDF3A9E49B\SRC\JPEG-8C\JERROR.H
^P:\LIBS\CEGUI-CEGUI-DEPENDENCIES-0ECDF3A9E49B\SRC\JPEG-8C\JCDCTMGR.C
P:\LIBS\CEGUI-CEGUI-DEPENDENCIES-0ECDF3A9E49B\SRC\JPEG-8C\JINCLUDE.H
P:\LIBS\CEGUI-CEGUI-DEPENDENCIES-0ECDF3A9E49B\SRC\JPEG-8C\JCONFIG.H
C:\PROGRAM FILES (X86)\WINDOWS KITS\10\INCLUDE\10.0.10240.0\UCRT\STDDEF.H
C:\PROGRAM FILES (X86)\WINDOWS KITS\10\INCLUDE\10.0.10240.0\UCRT\CORECRT.H
C:\PROGRAM FILES (X86)\VC\INCLUDE\VCRUNTIME.H
C:\PROGRAM FILES (X86)\VC\INCLUDE\SAL.H
C:\PROGRAM FILES (X86)\VC\INCLUDE\CONCURRENCYSAL.H
C:\PROGRAM FILES (X86)\VC\INCLUDE\VADEFS.H
C:\PROGRAM FILES (X86)\WINDOWS KITS\10\INCLUDE\10.0.10240.0\UCRT\STDLIB.H
C:\PROGRAM FILES (X86)\WINDOWS KITS\10\INCLUDE\10.0.10240.0\UCRT\CORECRT_MALLOC.H
C:\PROGRAM FILES (X86)\WINDOWS KITS\10\INCLUDE\10.0.10240.0\UCRT\CORECRT_SEARCH.H
C:\PROGRAM FILES (X86)\WINDOWS KITS\10\INCLUDE\10.0.10240.0\UCRT\CORECRT_WSTDLIB.H
C:\PROGRAM FILES (X86)\VC\INCLUDE\LIMITS.H
C:\PROGRAM FILES (X86)\WINDOWS KITS\10\INCLUDE\10.0.10240.0\UCRT\STDIO.H
C:\PROGRAM FILES (X86)\WINDOWS KITS\10\INCLUDE\10.0.10240.0\UCRT\CORECRT_WSTDIO.H
C:\PROGRAM FILES (X86)\WINDOWS KITS\10\INCLUDE\10.0.10240.0\UCRT\CORECRT_STDIO_CONFIG.H
C:\PROGRAM FILES (X86)\WINDOWS KITS\10\INCLUDE\10.0.10240.0\UCRT\STRING.H
C:\PROGRAM FILES (X86)\WINDOWS KITS\10\INCLUDE\10.0.10240.0\UCRT\CORECRT_MEMORY.H
C:\PROGRAM FILES (X86)\WINDOWS KITS\10\INCLUDE\10.0.10240.0\UCRT\CORECRT_MEMCPY_S.H
C:\PROGRAM FILES (X86)\WINDOWS KITS\10\INCLUDE\10.0.10240.0\UCRT\ERRNO.H
C:\PROGRAM FILES (X86)\VC\INCLUDE\VCRUNTIME_STRING.H
C:\PROGRAM FILES (X86)\WINDOWS KITS\10\INCLUDE\10.0.10240.0\UCRT\CORECRT_WSTRING.H
P:\LIBS\CEGUI-CEGUI-DEPENDENCIES-0ECDF3A9E49B\SRC\JPEG-8C\JPEGLIB.H
P:\LIBS\CEGUI-CEGUI-DEPENDENCIES-0ECDF3A9E49B\SRC\JPEG-8C\JMORECFG.H
P:\LIBS\CEGUI-CEGUI-DEPENDENCIES-0ECDF3A9E49B\SRC\JPEG-8C\JPEGINT.H
P:\LIBS\CEGUI-CEGUI-DEPENDENCIES-0ECDF3A9E49B\SRC\JPEG-8C\JERROR.H
P:\LIBS\CEGUI-CEGUI-DEPENDENCIES-0ECDF3A9E49B\SRC\JPEG-8C\JDCT.H
^P:\LIBS\CEGUI-CEGUI-DEPENDENCIES-0ECDF3A9E49B\SRC\JPEG-8C\JCHUFF.C
P:\LIBS\CEGUI-CEGUI-DEPENDENCIES-0ECDF3A9E49B\SRC\JPEG-8C\JINCLUDE.H
P:\LIBS\CEGUI-CEGUI-DEPENDENCIES-0ECDF3A9E49B\SRC\JPEG-8C\JCONFIG.H
C:\PROGRAM FILES (X86)\WINDOWS KITS\10\INCLUDE\10.0.10240.0\UCRT\STDDEF.H
C:\PROGRAM FILES (X86)\WINDOWS KITS\10\INCLUDE\10.0.10240.0\UCRT\CORECRT.H
C:\PROGRAM FILES (X86)\VC\INCLUDE\VCRUNTIME.H
C:\PROGRAM FILES (X86)\VC\INCLUDE\SAL.H
C:\PROGRAM FILES (X86)\VC\INCLUDE\CONCURRENCYSAL.H
C:\PROGRAM FILES (X86)\VC\INCLUDE\VADEFS.H
C:\PROGRAM FILES (X86)\WINDOWS KITS\10\INCLUDE\10.0.10240.0\UCRT\STDLIB.H
C:\PROGRAM FILES (X86)\WINDOWS KITS\10\INCLUDE\10.0.10240.0\UCRT\CORECRT_MALLOC.H
C:\PROGRAM FILES (X86)\WINDOWS KITS\10\INCLUDE\10.0.10240.0\UCRT\CORECRT_SEARCH.H
C:\PROGRAM FILES (X86)\WINDOWS KITS\10\INCLUDE\10.0.10240.0\UCRT\CORECRT_WSTDLIB.H
C:\PROGRAM FILES (X86)\VC\INCLUDE\LIMITS.H
C:\PROGRAM FILES (X86)\WINDOWS KITS\10\INCLUDE\10.0.10240.0\UCRT\STDIO.H
C:\PROGRAM FILES (X86)\WINDOWS KITS\10\INCLUDE\10.0.10240.0\UCRT\CORECRT_WSTDIO.H
C:\PROGRAM FILES (X86)\WINDOWS KITS\10\INCLUDE\10.0.10240.0\UCRT\CORECRT_STDIO_CONFIG.H
C:\PROGRAM FILES (X86)\WINDOWS KITS\10\INCLUDE\10.0.10240.0\UCRT\STRING.H
C:\PROGRAM FILES (X86)\WINDOWS KITS\10\INCLUDE\10.0.10240.0\UCRT\CORECRT_MEMORY.H
C:\PROGRAM FILES (X86)\WINDOWS KITS\10\INCLUDE\10.0.10240.0\UCRT\CORECRT_MEMCPY_S.H
C:\PROGRAM FILES (X86)\WINDOWS KITS\10\INCLUDE\10.0.10240.0\UCRT\ERRNO.H
C:\PROGRAM FILES (X86)\VC\INCLUDE\VCRUNTIME_STRING.H
C:\PROGRAM FILES (X86)\WINDOWS KITS\10\INCLUDE\10.0.10240.0\UCRT\CORECRT_WSTRING.H
P:\LIBS\CEGUI-CEGUI-DEPENDENCIES-0ECDF3A9E49B\SRC\JPEG-8C\JPEGLIB.H
P:\LIBS\CEGUI-CEGUI-DEPENDENCIES-0ECDF3A9E49B\SRC\JPEG-8C\JMORECFG.H
P:\LIBS\CEGUI-CEGUI-DEPENDENCIES-0ECDF3A9E49B\SRC\JPEG-8C\JPEGINT.H
P:\LIBS\CEGUI-CEGUI-DEPENDENCIES-0ECDF3A9E49B\SRC\JPEG-8C\JERROR.H
^P:\LIBS\CEGUI-CEGUI-DEPENDENCIES-0ECDF3A9E49B\SRC\JPEG-8C\JCINIT.C
P:\LIBS\CEGUI-CEGUI-DEPENDENCIES-0ECDF3A9E49B\SRC\JPEG-8C\JINCLUDE.H
P:\LIBS\CEGUI-CEGUI-DEPENDENCIES-0ECDF3A9E49B\SRC\JPEG-8C\JCONFIG.H
C:\PROGRAM FILES (X86)\WINDOWS KITS\10\INCLUDE\10.0.10240.0\UCRT\STDDEF.H
C:\PROGRAM FILES (X86)\WINDOWS KITS\10\INCLUDE\10.0.10240.0\UCRT\CORECRT.H
C:\PROGRAM FILES (X86)\VC\INCLUDE\VCRUNTIME.H
C:\PROGRAM FILES (X86)\VC\INCLUDE\SAL.H
C:\PROGRAM FILES (X86)\VC\INCLUDE\CONCURRENCYSAL.H
C:\PROGRAM FILES (X86)\VC\INCLUDE\VADEFS.H
C:\PROGRAM FILES (X86)\WINDOWS KITS\10\INCLUDE\10.0.10240.0\UCRT\STDLIB.H
C:\PROGRAM FILES (X86)\WINDOWS KITS\10\INCLUDE\10.0.10240.0\UCRT\CORECRT_MALLOC.H
C:\PROGRAM FILES (X86)\WINDOWS KITS\10\INCLUDE\10.0.10240.0\UCRT\CORECRT_SEARCH.H
C:\PROGRAM FILES (X86)\WINDOWS KITS\10\INCLUDE\10.0.10240.0\UCRT\CORECRT_WSTDLIB.H
C:\PROGRAM FILES (X86)\VC\INCLUDE\LIMITS.H
C:\PROGRAM FILES (X86)\WINDOWS KITS\10\INCLUDE\10.0.10240.0\UCRT\STDIO.H
C:\PROGRAM FILES (X86)\WINDOWS KITS\10\INCLUDE\10.0.10240.0\UCRT\CORECRT_WSTDIO.H
C:\PROGRAM FILES (X86)\WINDOWS KITS\10\INCLUDE\10.0.10240.0\UCRT\CORECRT_STDIO_CONFIG.H
C:\PROGRAM FILES (X86)\WINDOWS KITS\10\INCLUDE\10.0.10240.0\UCRT\STRING.H
C:\PROGRAM FILES (X86)\WINDOWS KITS\10\INCLUDE\10.0.10240.0\UCRT\CORECRT_MEMORY.H
C:\PROGRAM FILES (X86)\WINDOWS KITS\10\INCLUDE\10.0.10240.0\UCRT\CORECRT_MEMCPY_S.H
C:\PROGRAM FILES (X86)\WINDOWS KITS\10\INCLUDE\10.0.10240.0\UCRT\ERRNO.H
C:\PROGRAM FILES (X86)\VC\INCLUDE\VCRUNTIME_STRING.H
C:\PROGRAM FILES (X86)\WINDOWS KITS\10\INCLUDE\10.0.10240.0\UCRT\CORECRT_WSTRING.H
P:\LIBS\CEGUI-CEGUI-DEPENDENCIES-0ECDF3A9E49B\SRC\JPEG-8C\JPEGLIB.H
P:\LIBS\CEGUI-CEGUI-DEPENDENCIES-0ECDF3A9E49B\SRC\JPEG-8C\JMORECFG.H
P:\LIBS\CEGUI-CEGUI-DEPENDENCIES-0ECDF3A9E49B\SRC\JPEG-8C\JPEGINT.H
P:\LIBS\CEGUI-CEGUI-DEPENDENCIES-0ECDF3A9E49B\SRC\JPEG-8C\JERROR.H
^P:\LIBS\CEGUI-CEGUI-DEPENDENCIES-0ECDF3A9E49B\SRC\JPEG-8C\JCMAINCT.C
P:\LIBS\CEGUI-CEGUI-DEPENDENCIES-0ECDF3A9E49B\SRC\JPEG-8C\JINCLUDE.H
P:\LIBS\CEGUI-CEGUI-DEPENDENCIES-0ECDF3A9E49B\SRC\JPEG-8C\JCONFIG.H
C:\PROGRAM FILES (X86)\WINDOWS KITS\10\INCLUDE\10.0.10240.0\UCRT\STDDEF.H
C:\PROGRAM FILES (X86)\WINDOWS KITS\10\INCLUDE\10.0.10240.0\UCRT\CORECRT.H
C:\PROGRAM FILES (X86)\VC\INCLUDE\VCRUNTIME.H
C:\PROGRAM FILES (X86)\VC\INCLUDE\SAL.H
C:\PROGRAM FILES (X86)\VC\INCLUDE\CONCURRENCYSAL.H
C:\PROGRAM FILES (X86)\VC\INCLUDE\VADEFS.H
C:\PROGRAM FILES (X86)\WINDOWS KITS\10\INCLUDE\10.0.10240.0\UCRT\STDLIB.H
C:\PROGRAM FILES (X86)\WINDOWS KITS\10\INCLUDE\10.0.10240.0\UCRT\CORECRT_MALLOC.H
C:\PROGRAM FILES (X86)\WINDOWS KITS\10\INCLUDE\10.0.10240.0\UCRT\CORECRT_SEARCH.H
C:\PROGRAM FILES (X86)\WINDOWS KITS\10\INCLUDE\10.0.10240.0\UCRT\CORECRT_WSTDLIB.H
C:\PROGRAM FILES (X86)\VC\INCLUDE\LIMITS.H
C:\PROGRAM FILES (X86)\WINDOWS KITS\10\INCLUDE\10.0.10240.0\UCRT\STDIO.H
C:\PROGRAM FILES (X86)\WINDOWS KITS\10\INCLUDE\10.0.10240.0\UCRT\CORECRT_WSTDIO.H
C:\PROGRAM FILES (X86)\WINDOWS KITS\10\INCLUDE\10.0.10240.0\UCRT\CORECRT_STDIO_CONFIG.H
C:\PROGRAM FILES (X86)\WINDOWS KITS\10\INCLUDE\10.0.10240.0\UCRT\STRING.H
C:\PROGRAM FILES (X86)\WINDOWS KITS\10\INCLUDE\10.0.10240.0\UCRT\CORECRT_MEMORY.H
C:\PROGRAM FILES (X86)\WINDOWS KITS\10\INCLUDE\10.0.10240.0\UCRT\CORECRT_MEMCPY_S.H
C:\PROGRAM FILES (X86)\WINDOWS KITS\10\INCLUDE\10.0.10240.0\UCRT\ERRNO.H
C:\PROGRAM FILES (X86)\VC\INCLUDE\VCRUNTIME_STRING.H
C:\PROGRAM FILES (X86)\WINDOWS KITS\10\INCLUDE\10.0.10240.0\UCRT\CORECRT_WSTRING.H
P:\LIBS\CEGUI-CEGUI-DEPENDENCIES-0ECDF3A9E49B\SRC\JPEG-8C\JPEGLIB.H
P:\LIBS\CEGUI-CEGUI-DEPENDENCIES-0ECDF3A9E49B\SRC\JPEG-8C\JMORECFG.H
P:\LIBS\CEGUI-CEGUI-DEPENDENCIES-0ECDF3A9E49B\SRC\JPEG-8C\JPEGINT.H
P:\LIBS\CEGUI-CEGUI-DEPENDENCIES-0ECDF3A9E49B\SRC\JPEG-8C\JERROR.H
^P:\LIBS\CEGUI-CEGUI-DEPENDENCIES-0ECDF3A9E49B\SRC\JPEG-8C\JCMARKER.C
P:\LIBS\CEGUI-CEGUI-DEPENDENCIES-0ECDF3A9E49B\SRC\JPEG-8C\JINCLUDE.H
P:\LIBS\CEGUI-CEGUI-DEPENDENCIES-0ECDF3A9E49B\SRC\JPEG-8C\JCONFIG.H
C:\PROGRAM FILES (X86)\WINDOWS KITS\10\INCLUDE\10.0.10240.0\UCRT\STDDEF.H
C:\PROGRAM FILES (X86)\WINDOWS KITS\10\INCLUDE\10.0.10240.0\UCRT\CORECRT.H
C:\PROGRAM FILES (X86)\VC\INCLUDE\VCRUNTIME.H
C:\PROGRAM FILES (X86)\VC\INCLUDE\SAL.H
C:\PROGRAM FILES (X86)\VC\INCLUDE\CONCURRENCYSAL.H
C:\PROGRAM FILES (X86)\VC\INCLUDE\VADEFS.H
C:\PROGRAM FILES (X86)\WINDOWS KITS\10\INCLUDE\10.0.10240.0\UCRT\STDLIB.H
C:\PROGRAM FILES (X86)\WINDOWS KITS\10\INCLUDE\10.0.10240.0\UCRT\CORECRT_MALLOC.H
C:\PROGRAM FILES (X86)\WINDOWS KITS\10\INCLUDE\10.0.10240.0\UCRT\CORECRT_SEARCH.H
C:\PROGRAM FILES (X86)\WINDOWS KITS\10\INCLUDE\10.0.10240.0\UCRT\CORECRT_WSTDLIB.H
C:\PROGRAM FILES (X86)\VC\INCLUDE\LIMITS.H
C:\PROGRAM FILES (X86)\WINDOWS KITS\10\INCLUDE\10.0.10240.0\UCRT\STDIO.H
C:\PROGRAM FILES (X86)\WINDOWS KITS\10\INCLUDE\10.0.10240.0\UCRT\CORECRT_WSTDIO.H
C:\PROGRAM FILES (X86)\WINDOWS KITS\10\INCLUDE\10.0.10240.0\UCRT\CORECRT_STDIO_CONFIG.H
C:\PROGRAM FILES (X86)\WINDOWS KITS\10\INCLUDE\10.0.10240.0\UCRT\STRING.H
C:\PROGRAM FILES (X86)\WINDOWS KITS\10\INCLUDE\10.0.10240.0\UCRT\CORECRT_MEMORY.H
C:\PROGRAM FILES (X86)\WINDOWS KITS\10\INCLUDE\10.0.10240.0\UCRT\CORECRT_MEMCPY_S.H
C:\PROGRAM FILES (X86)\WINDOWS KITS\10\INCLUDE\10.0.10240.0\UCRT\ERRNO.H
C:\PROGRAM FILES (X86)\VC\INCLUDE\VCRUNTIME_STRING.H
C:\PROGRAM FILES (X86)\WINDOWS KITS\10\INCLUDE\10.0.10240.0\UCRT\CORECRT_WSTRING.H
P:\LIBS\CEGUI-CEGUI-DEPENDENCIES-0ECDF3A9E49B\SRC\JPEG-8C\JPEGLIB.H
P:\LIBS\CEGUI-CEGUI-DEPENDENCIES-0ECDF3A9E49B\SRC\JPEG-8C\JMORECFG.H
P:\LIBS\CEGUI-CEGUI-DEPENDENCIES-0ECDF3A9E49B\SRC\JPEG-8C\JPEGINT.H
P:\LIBS\CEGUI-CEGUI-DEPENDENCIES-0ECDF3A9E49B\SRC\JPEG-8C\JERROR.H
^P:\LIBS\CEGUI-CEGUI-DEPENDENCIES-0ECDF3A9E49B\SRC\JPEG-8C\JCMASTER.C
P:\LIBS\CEGUI-CEGUI-DEPENDENCIES-0ECDF3A9E49B\SRC\JPEG-8C\JINCLUDE.H
P:\LIBS\CEGUI-CEGUI-DEPENDENCIES-0ECDF3A9E49B\SRC\JPEG-8C\JCONFIG.H
C:\PROGRAM FILES (X86)\WINDOWS KITS\10\INCLUDE\10.0.10240.0\UCRT\STDDEF.H
C:\PROGRAM FILES (X86)\WINDOWS KITS\10\INCLUDE\10.0.10240.0\UCRT\CORECRT.H
C:\PROGRAM FILES (X86)\VC\INCLUDE\VCRUNTIME.H
C:\PROGRAM FILES (X86)\VC\INCLUDE\SAL.H
C:\PROGRAM FILES (X86)\VC\INCLUDE\CONCURRENCYSAL.H
C:\PROGRAM FILES (X86)\VC\INCLUDE\VADEFS.H
C:\PROGRAM FILES (X86)\WINDOWS KITS\10\INCLUDE\10.0.10240.0\UCRT\STDLIB.H
C:\PROGRAM FILES (X86)\WINDOWS KITS\10\INCLUDE\10.0.10240.0\UCRT\CORECRT_MALLOC.H
C:\PROGRAM FILES (X86)\WINDOWS KITS\10\INCLUDE\10.0.10240.0\UCRT\CORECRT_SEARCH.H
C:\PROGRAM FILES (X86)\WINDOWS KITS\10\INCLUDE\10.0.10240.0\UCRT\CORECRT_WSTDLIB.H
C:\PROGRAM FILES (X86)\VC\INCLUDE\LIMITS.H
C:\PROGRAM FILES (X86)\WINDOWS KITS\10\INCLUDE\10.0.10240.0\UCRT\STDIO.H
C:\PROGRAM FILES (X86)\WINDOWS KITS\10\INCLUDE\10.0.10240.0\UCRT\CORECRT_WSTDIO.H
C:\PROGRAM FILES (X86)\WINDOWS KITS\10\INCLUDE\10.0.10240.0\UCRT\CORECRT_STDIO_CONFIG.H
C:\PROGRAM FILES (X86)\WINDOWS KITS\10\INCLUDE\10.0.10240.0\UCRT\STRING.H
C:\PROGRAM FILES (X86)\WINDOWS KITS\10\INCLUDE\10.0.10240.0\UCRT\CORECRT_MEMORY.H
C:\PROGRAM FILES (X86)\WINDOWS KITS\10\INCLUDE\10.0.10240.0\UCRT\CORECRT_MEMCPY_S.H
C:\PROGRAM FILES (X86)\WINDOWS KITS\10\INCLUDE\10.0.10240.0\UCRT\ERRNO.H
C:\PROGRAM FILES (X86)\VC\INCLUDE\VCRUNTIME_STRING.H
C:\PROGRAM FILES (X86)\WINDOWS KITS\10\INCLUDE\10.0.10240.0\UCRT\CORECRT_WSTRING.H
P:\LIBS\CEGUI-CEGUI-DEPENDENCIES-0ECDF3A9E49B\SRC\JPEG-8C\JPEGLIB.H
P:\LIBS\CEGUI-CEGUI-DEPENDENCIES-0ECDF3A9E49B\SRC\JPEG-8C\JMORECFG.H
P:\LIBS\CEGUI-CEGUI-DEPENDENCIES-0ECDF3A9E49B\SRC\JPEG-8C\JPEGINT.H
P:\LIBS\CEGUI-CEGUI-DEPENDENCIES-0ECDF3A9E49B\SRC\JPEG-8C\JERROR.H
^P:\LIBS\CEGUI-CEGUI-DEPENDENCIES-0ECDF3A9E49B\SRC\JPEG-8C\JCOMAPI.C
P:\LIBS\CEGUI-CEGUI-DEPENDENCIES-0ECDF3A9E49B\SRC\JPEG-8C\JINCLUDE.H
P:\LIBS\CEGUI-CEGUI-DEPENDENCIES-0ECDF3A9E49B\SRC\JPEG-8C\JCONFIG.H
C:\PROGRAM FILES (X86)\WINDOWS KITS\10\INCLUDE\10.0.10240.0\UCRT\STDDEF.H
C:\PROGRAM FILES (X86)\WINDOWS KITS\10\INCLUDE\10.0.10240.0\UCRT\CORECRT.H
C:\PROGRAM FILES (X86)\VC\INCLUDE\VCRUNTIME.H
C:\PROGRAM FILES (X86)\VC\INCLUDE\SAL.H
C:\PROGRAM FILES (X86)\VC\INCLUDE\CONCURRENCYSAL.H
C:\PROGRAM FILES (X86)\VC\INCLUDE\VADEFS.H
C:\PROGRAM FILES (X86)\WINDOWS KITS\10\INCLUDE\10.0.10240.0\UCRT\STDLIB.H
C:\PROGRAM FILES (X86)\WINDOWS KITS\10\INCLUDE\10.0.10240.0\UCRT\CORECRT_MALLOC.H
C:\PROGRAM FILES (X86)\WINDOWS KITS\10\INCLUDE\10.0.10240.0\UCRT\CORECRT_SEARCH.H
C:\PROGRAM FILES (X86)\WINDOWS KITS\10\INCLUDE\10.0.10240.0\UCRT\CORECRT_WSTDLIB.H
C:\PROGRAM FILES (X86)\VC\INCLUDE\LIMITS.H
C:\PROGRAM FILES (X86)\WINDOWS KITS\10\INCLUDE\10.0.10240.0\UCRT\STDIO.H
C:\PROGRAM FILES (X86)\WINDOWS KITS\10\INCLUDE\10.0.10240.0\UCRT\CORECRT_WSTDIO.H
C:\PROGRAM FILES (X86)\WINDOWS KITS\10\INCLUDE\10.0.10240.0\UCRT\CORECRT_STDIO_CONFIG.H
C:\PROGRAM FILES (X86)\WINDOWS KITS\10\INCLUDE\10.0.10240.0\UCRT\STRING.H
C:\PROGRAM FILES (X86)\WINDOWS KITS\10\INCLUDE\10.0.10240.0\UCRT\CORECRT_MEMORY.H
C:\PROGRAM FILES (X86)\WINDOWS KITS\10\INCLUDE\10.0.10240.0\UCRT\CORECRT_MEMCPY_S.H
C:\PROGRAM FILES (X86)\WINDOWS KITS\10\INCLUDE\10.0.10240.0\UCRT\ERRNO.H
C:\PROGRAM FILES (X86)\VC\INCLUDE\VCRUNTIME_STRING.H
C:\PROGRAM FILES (X86)\WINDOWS KITS\10\INCLUDE\10.0.10240.0\UCRT\CORECRT_WSTRING.H
P:\LIBS\CEGUI-CEGUI-DEPENDENCIES-0ECDF3A9E49B\SRC\JPEG-8C\JPEGLIB.H
P:\LIBS\CEGUI-CEGUI-DEPENDENCIES-0ECDF3A9E49B\SRC\JPEG-8C\JMORECFG.H
P:\LIBS\CEGUI-CEGUI-DEPENDENCIES-0ECDF3A9E49B\SRC\JPEG-8C\JPEGINT.H
P:\LIBS\CEGUI-CEGUI-DEPENDENCIES-0ECDF3A9E49B\SRC\JPEG-8C\JERROR.H
^P:\LIBS\CEGUI-CEGUI-DEPENDENCIES-0ECDF3A9E49B\SRC\JPEG-8C\JCPARAM.C
P:\LIBS\CEGUI-CEGUI-DEPENDENCIES-0ECDF3A9E49B\SRC\JPEG-8C\JINCLUDE.H
P:\LIBS\CEGUI-CEGUI-DEPENDENCIES-0ECDF3A9E49B\SRC\JPEG-8C\JCONFIG.H
C:\PROGRAM FILES (X86)\WINDOWS KITS\10\INCLUDE\10.0.10240.0\UCRT\STDDEF.H
C:\PROGRAM FILES (X86)\WINDOWS KITS\10\INCLUDE\10.0.10240.0\UCRT\CORECRT.H
C:\PROGRAM FILES (X86)\VC\INCLUDE\VCRUNTIME.H
C:\PROGRAM FILES (X86)\VC\INCLUDE\SAL.H
C:\PROGRAM FILES (X86)\VC\INCLUDE\CONCURRENCYSAL.H
C:\PROGRAM FILES (X86)\VC\INCLUDE\VADEFS.H
C:\PROGRAM FILES (X86)\WINDOWS KITS\10\INCLUDE\10.0.10240.0\UCRT\STDLIB.H
C:\PROGRAM FILES (X86)\WINDOWS KITS\10\INCLUDE\10.0.10240.0\UCRT\CORECRT_MALLOC.H
C:\PROGRAM FILES (X86)\WINDOWS KITS\10\INCLUDE\10.0.10240.0\UCRT\CORECRT_SEARCH.H
C:\PROGRAM FILES (X86)\WINDOWS KITS\10\INCLUDE\10.0.10240.0\UCRT\CORECRT_WSTDLIB.H
C:\PROGRAM FILES (X86)\VC\INCLUDE\LIMITS.H
C:\PROGRAM FILES (X86)\WINDOWS KITS\10\INCLUDE\10.0.10240.0\UCRT\STDIO.H
C:\PROGRAM FILES (X86)\WINDOWS KITS\10\INCLUDE\10.0.10240.0\UCRT\CORECRT_WSTDIO.H
C:\PROGRAM FILES (X86)\WINDOWS KITS\10\INCLUDE\10.0.10240.0\UCRT\CORECRT_STDIO_CONFIG.H
C:\PROGRAM FILES (X86)\WINDOWS KITS\10\INCLUDE\10.0.10240.0\UCRT\STRING.H
C:\PROGRAM FILES (X86)\WINDOWS KITS\10\INCLUDE\10.0.10240.0\UCRT\CORECRT_MEMORY.H
C:\PROGRAM FILES (X86)\WINDOWS KITS\10\INCLUDE\10.0.10240.0\UCRT\CORECRT_MEMCPY_S.H
C:\PROGRAM FILES (X86)\WINDOWS KITS\10\INCLUDE\10.0.10240.0\UCRT\ERRNO.H
C:\PROGRAM FILES (X86)\VC\INCLUDE\VCRUNTIME_STRING.H
C:\PROGRAM FILES (X86)\WINDOWS KITS\10\INCLUDE\10.0.10240.0\UCRT\CORECRT_WSTRING.H
P:\LIBS\CEGUI-CEGUI-DEPENDENCIES-0ECDF3A9E49B\SRC\JPEG-8C\JPEGLIB.H
P:\LIBS\CEGUI-CEGUI-DEPENDENCIES-0ECDF3A9E49B\SRC\JPEG-8C\JMORECFG.H
P:\LIBS\CEGUI-CEGUI-DEPENDENCIES-0ECDF3A9E49B\SRC\JPEG-8C\JPEGINT.H
P:\LIBS\CEGUI-CEGUI-DEPENDENCIES-0ECDF3A9E49B\SRC\JPEG-8C\JERROR.H
^P:\LIBS\CEGUI-CEGUI-DEPENDENCIES-0ECDF3A9E49B\SRC\JPEG-8C\JCPREPCT.C
P:\LIBS\CEGUI-CEGUI-DEPENDENCIES-0ECDF3A9E49B\SRC\JPEG-8C\JINCLUDE.H
P:\LIBS\CEGUI-CEGUI-DEPENDENCIES-0ECDF3A9E49B\SRC\JPEG-8C\JCONFIG.H
C:\PROGRAM FILES (X86)\WINDOWS KITS\10\INCLUDE\10.0.10240.0\UCRT\STDDEF.H
C:\PROGRAM FILES (X86)\WINDOWS KITS\10\INCLUDE\10.0.10240.0\UCRT\CORECRT.H
C:\PROGRAM FILES (X86)\VC\INCLUDE\VCRUNTIME.H
C:\PROGRAM FILES (X86)\VC\INCLUDE\SAL.H
C:\PROGRAM FILES (X86)\VC\INCLUDE\CONCURRENCYSAL.H
C:\PROGRAM FILES (X86)\VC\INCLUDE\VADEFS.H
C:\PROGRAM FILES (X86)\WINDOWS KITS\10\INCLUDE\10.0.10240.0\UCRT\STDLIB.H
C:\PROGRAM FILES (X86)\WINDOWS KITS\10\INCLUDE\10.0.10240.0\UCRT\CORECRT_MALLOC.H
C:\PROGRAM FILES (X86)\WINDOWS KITS\10\INCLUDE\10.0.10240.0\UCRT\CORECRT_SEARCH.H
C:\PROGRAM FILES (X86)\WINDOWS KITS\10\INCLUDE\10.0.10240.0\UCRT\CORECRT_WSTDLIB.H
C:\PROGRAM FILES (X86)\VC\INCLUDE\LIMITS.H
C:\PROGRAM FILES (X86)\WINDOWS KITS\10\INCLUDE\10.0.10240.0\UCRT\STDIO.H
C:\PROGRAM FILES (X86)\WINDOWS KITS\10\INCLUDE\10.0.10240.0\UCRT\CORECRT_WSTDIO.H
C:\PROGRAM FILES (X86)\WINDOWS KITS\10\INCLUDE\10.0.10240.0\UCRT\CORECRT_STDIO_CONFIG.H
C:\PROGRAM FILES (X86)\WINDOWS KITS\10\INCLUDE\10.0.10240.0\UCRT\STRING.H
C:\PROGRAM FILES (X86)\WINDOWS KITS\10\INCLUDE\10.0.10240.0\UCRT\CORECRT_MEMORY.H
C:\PROGRAM FILES (X86)\WINDOWS KITS\10\INCLUDE\10.0.10240.0\UCRT\CORECRT_MEMCPY_S.H
C:\PROGRAM FILES (X86)\WINDOWS KITS\10\INCLUDE\10.0.10240.0\UCRT\ERRNO.H
C:\PROGRAM FILES (X86)\VC\INCLUDE\VCRUNTIME_STRING.H
C:\PROGRAM FILES (X86)\WINDOWS KITS\10\INCLUDE\10.0.10240.0\UCRT\CORECRT_WSTRING.H
P:\LIBS\CEGUI-CEGUI-DEPENDENCIES-0ECDF3A9E49B\SRC\JPEG-8C\JPEGLIB.H
P:\LIBS\CEGUI-CEGUI-DEPENDENCIES-0ECDF3A9E49B\SRC\JPEG-8C\JMORECFG.H
P:\LIBS\CEGUI-CEGUI-DEPENDENCIES-0ECDF3A9E49B\SRC\JPEG-8C\JPEGINT.H
P:\LIBS\CEGUI-CEGUI-DEPENDENCIES-0ECDF3A9E49B\SRC\JPEG-8C\JERROR.H
^P:\LIBS\CEGUI-CEGUI-DEPENDENCIES-0ECDF3A9E49B\SRC\JPEG-8C\JCSAMPLE.C
P:\LIBS\CEGUI-CEGUI-DEPENDENCIES-0ECDF3A9E49B\SRC\JPEG-8C\JINCLUDE.H
P:\LIBS\CEGUI-CEGUI-DEPENDENCIES-0ECDF3A9E49B\SRC\JPEG-8C\JCONFIG.H
C:\PROGRAM FILES (X86)\WINDOWS KITS\10\INCLUDE\10.0.10240.0\UCRT\STDDEF.H
C:\PROGRAM FILES (X86)\WINDOWS KITS\10\INCLUDE\10.0.10240.0\UCRT\CORECRT.H
C:\PROGRAM FILES (X86)\VC\INCLUDE\VCRUNTIME.H
C:\PROGRAM FILES (X86)\VC\INCLUDE\SAL.H
C:\PROGRAM FILES (X86)\VC\INCLUDE\CONCURRENCYSAL.H
C:\PROGRAM FILES (X86)\VC\INCLUDE\VADEFS.H
C:\PROGRAM FILES (X86)\WINDOWS KITS\10\INCLUDE\10.0.10240.0\UCRT\STDLIB.H
C:\PROGRAM FILES (X86)\WINDOWS KITS\10\INCLUDE\10.0.10240.0\UCRT\CORECRT_MALLOC.H
C:\PROGRAM FILES (X86)\WINDOWS KITS\10\INCLUDE\10.0.10240.0\UCRT\CORECRT_SEARCH.H
C:\PROGRAM FILES (X86)\WINDOWS KITS\10\INCLUDE\10.0.10240.0\UCRT\CORECRT_WSTDLIB.H
C:\PROGRAM FILES (X86)\VC\INCLUDE\LIMITS.H
C:\PROGRAM FILES (X86)\WINDOWS KITS\10\INCLUDE\10.0.10240.0\UCRT\STDIO.H
C:\PROGRAM FILES (X86)\WINDOWS KITS\10\INCLUDE\10.0.10240.0\UCRT\CORECRT_WSTDIO.H
C:\PROGRAM FILES (X86)\WINDOWS KITS\10\INCLUDE\10.0.10240.0\UCRT\CORECRT_STDIO_CONFIG.H
C:\PROGRAM FILES (X86)\WINDOWS KITS\10\INCLUDE\10.0.10240.0\UCRT\STRING.H
C:\PROGRAM FILES (X86)\WINDOWS KITS\10\INCLUDE\10.0.10240.0\UCRT\CORECRT_MEMORY.H
C:\PROGRAM FILES (X86)\WINDOWS KITS\10\INCLUDE\10.0.10240.0\UCRT\CORECRT_MEMCPY_S.H
C:\PROGRAM FILES (X86)\WINDOWS KITS\10\INCLUDE\10.0.10240.0\UCRT\ERRNO.H
C:\PROGRAM FILES (X86)\VC\INCLUDE\VCRUNTIME_STRING.H
C:\PROGRAM FILES (X86)\WINDOWS KITS\10\INCLUDE\10.0.10240.0\UCRT\CORECRT_WSTRING.H
P:\LIBS\CEGUI-CEGUI-DEPENDENCIES-0ECDF3A9E49B\SRC\JPEG-8C\JPEGLIB.H
P:\LIBS\CEGUI-CEGUI-DEPENDENCIES-0ECDF3A9E49B\SRC\JPEG-8C\JMORECFG.H
P:\LIBS\CEGUI-CEGUI-DEPENDENCIES-0ECDF3A9E49B\SRC\JPEG-8C\JPEGINT.H
P:\LIBS\CEGUI-CEGUI-DEPENDENCIES-0ECDF3A9E49B\SRC\JPEG-8C\JERROR.H
^P:\LIBS\CEGUI-CEGUI-DEPENDENCIES-0ECDF3A9E49B\SRC\JPEG-8C\JCTRANS.C
P:\LIBS\CEGUI-CEGUI-DEPENDENCIES-0ECDF3A9E49B\SRC\JPEG-8C\JINCLUDE.H
P:\LIBS\CEGUI-CEGUI-DEPENDENCIES-0ECDF3A9E49B\SRC\JPEG-8C\JCONFIG.H
C:\PROGRAM FILES (X86)\WINDOWS KITS\10\INCLUDE\10.0.10240.0\UCRT\STDDEF.H
C:\PROGRAM FILES (X86)\WINDOWS KITS\10\INCLUDE\10.0.10240.0\UCRT\CORECRT.H
C:\PROGRAM FILES (X86)\VC\INCLUDE\VCRUNTIME.H
C:\PROGRAM FILES (X86)\VC\INCLUDE\SAL.H
C:\PROGRAM FILES (X86)\VC\INCLUDE\CONCURRENCYSAL.H
C:\PROGRAM FILES (X86)\VC\INCLUDE\VADEFS.H
C:\PROGRAM FILES (X86)\WINDOWS KITS\10\INCLUDE\10.0.10240.0\UCRT\STDLIB.H
C:\PROGRAM FILES (X86)\WINDOWS KITS\10\INCLUDE\10.0.10240.0\UCRT\CORECRT_MALLOC.H
C:\PROGRAM FILES (X86)\WINDOWS KITS\10\INCLUDE\10.0.10240.0\UCRT\CORECRT_SEARCH.H
C:\PROGRAM FILES (X86)\WINDOWS KITS\10\INCLUDE\10.0.10240.0\UCRT\CORECRT_WSTDLIB.H
C:\PROGRAM FILES (X86)\VC\INCLUDE\LIMITS.H
C:\PROGRAM FILES (X86)\WINDOWS KITS\10\INCLUDE\10.0.10240.0\UCRT\STDIO.H
C:\PROGRAM FILES (X86)\WINDOWS KITS\10\INCLUDE\10.0.10240.0\UCRT\CORECRT_WSTDIO.H
C:\PROGRAM FILES (X86)\WINDOWS KITS\10\INCLUDE\10.0.10240.0\UCRT\CORECRT_STDIO_CONFIG.H
C:\PROGRAM FILES (X86)\WINDOWS KITS\10\INCLUDE\10.0.10240.0\UCRT\STRING.H
C:\PROGRAM FILES (X86)\WINDOWS KITS\10\INCLUDE\10.0.10240.0\UCRT\CORECRT_MEMORY.H
C:\PROGRAM FILES (X86)\WINDOWS KITS\10\INCLUDE\10.0.10240.0\UCRT\CORECRT_MEMCPY_S.H
C:\PROGRAM FILES (X86)\WINDOWS KITS\10\INCLUDE\10.0.10240.0\UCRT\ERRNO.H
C:\PROGRAM FILES (X86)\VC\INCLUDE\VCRUNTIME_STRING.H
C:\PROGRAM FILES (X86)\WINDOWS KITS\10\INCLUDE\10.0.10240.0\UCRT\CORECRT_WSTRING.H
P:\LIBS\CEGUI-CEGUI-DEPENDENCIES-0ECDF3A9E49B\SRC\JPEG-8C\JPEGLIB.H
P:\LIBS\CEGUI-CEGUI-DEPENDENCIES-0ECDF3A9E49B\SRC\JPEG-8C\JMORECFG.H
P:\LIBS\CEGUI-CEGUI-DEPENDENCIES-0ECDF3A9E49B\SRC\JPEG-8C\JPEGINT.H
P:\LIBS\CEGUI-CEGUI-DEPENDENCIES-0ECDF3A9E49B\SRC\JPEG-8C\JERROR.H
^P:\LIBS\CEGUI-CEGUI-DEPENDENCIES-0ECDF3A9E49B\SRC\JPEG-8C\JDAPIMIN.C
P:\LIBS\CEGUI-CEGUI-DEPENDENCIES-0ECDF3A9E49B\SRC\JPEG-8C\JINCLUDE.H
P:\LIBS\CEGUI-CEGUI-DEPENDENCIES-0ECDF3A9E49B\SRC\JPEG-8C\JCONFIG.H
C:\PROGRAM FILES (X86)\WINDOWS KITS\10\INCLUDE\10.0.10240.0\UCRT\STDDEF.H
C:\PROGRAM FILES (X86)\WINDOWS KITS\10\INCLUDE\10.0.10240.0\UCRT\CORECRT.H
C:\PROGRAM FILES (X86)\VC\INCLUDE\VCRUNTIME.H
C:\PROGRAM FILES (X86)\VC\INCLUDE\SAL.H
C:\PROGRAM FILES (X86)\VC\INCLUDE\CONCURRENCYSAL.H
C:\PROGRAM FILES (X86)\VC\INCLUDE\VADEFS.H
C:\PROGRAM FILES (X86)\WINDOWS KITS\10\INCLUDE\10.0.10240.0\UCRT\STDLIB.H
C:\PROGRAM FILES (X86)\WINDOWS KITS\10\INCLUDE\10.0.10240.0\UCRT\CORECRT_MALLOC.H
C:\PROGRAM FILES (X86)\WINDOWS KITS\10\INCLUDE\10.0.10240.0\UCRT\CORECRT_SEARCH.H
C:\PROGRAM FILES (X86)\WINDOWS KITS\10\INCLUDE\10.0.10240.0\UCRT\CORECRT_WSTDLIB.H
C:\PROGRAM FILES (X86)\VC\INCLUDE\LIMITS.H
C:\PROGRAM FILES (X86)\WINDOWS KITS\10\INCLUDE\10.0.10240.0\UCRT\STDIO.H
C:\PROGRAM FILES (X86)\WINDOWS KITS\10\INCLUDE\10.0.10240.0\UCRT\CORECRT_WSTDIO.H
C:\PROGRAM FILES (X86)\WINDOWS KITS\10\INCLUDE\10.0.10240.0\UCRT\CORECRT_STDIO_CONFIG.H
C:\PROGRAM FILES (X86)\WINDOWS KITS\10\INCLUDE\10.0.10240.0\UCRT\STRING.H
C:\PROGRAM FILES (X86)\WINDOWS KITS\10\INCLUDE\10.0.10240.0\UCRT\CORECRT_MEMORY.H
C:\PROGRAM FILES (X86)\WINDOWS KITS\10\INCLUDE\10.0.10240.0\UCRT\CORECRT_MEMCPY_S.H
C:\PROGRAM FILES (X86)\WINDOWS KITS\10\INCLUDE\10.0.10240.0\UCRT\ERRNO.H
C:\PROGRAM FILES (X86)\VC\INCLUDE\VCRUNTIME_STRING.H
C:\PROGRAM FILES (X86)\WINDOWS KITS\10\INCLUDE\10.0.10240.0\UCRT\CORECRT_WSTRING.H
P:\LIBS\CEGUI-CEGUI-DEPENDENCIES-0ECDF3A9E49B\SRC\JPEG-8C\JPEGLIB.H
P:\LIBS\CEGUI-CEGUI-DEPENDENCIES-0ECDF3A9E49B\SRC\JPEG-8C\JMORECFG.H
P:\LIBS\CEGUI-CEGUI-DEPENDENCIES-0ECDF3A9E49B\SRC\JPEG-8C\JPEGINT.H
P:\LIBS\CEGUI-CEGUI-DEPENDENCIES-0ECDF3A9E49B\SRC\JPEG-8C\JERROR.H
^P:\LIBS\CEGUI-CEGUI-DEPENDENCIES-0ECDF3A9E49B\SRC\JPEG-8C\JDAPISTD.C
P:\LIBS\CEGUI-CEGUI-DEPENDENCIES-0ECDF3A9E49B\SRC\JPEG-8C\JINCLUDE.H
P:\LIBS\CEGUI-CEGUI-DEPENDENCIES-0ECDF3A9E49B\SRC\JPEG-8C\JCONFIG.H
C:\PROGRAM FILES (X86)\WINDOWS KITS\10\INCLUDE\10.0.10240.0\UCRT\STDDEF.H
C:\PROGRAM FILES (X86)\WINDOWS KITS\10\INCLUDE\10.0.10240.0\UCRT\CORECRT.H
C:\PROGRAM FILES (X86)\VC\INCLUDE\VCRUNTIME.H
C:\PROGRAM FILES (X86)\VC\INCLUDE\SAL.H
C:\PROGRAM FILES (X86)\VC\INCLUDE\CONCURRENCYSAL.H
C:\PROGRAM FILES (X86)\VC\INCLUDE\VADEFS.H
C:\PROGRAM FILES (X86)\WINDOWS KITS\10\INCLUDE\10.0.10240.0\UCRT\STDLIB.H
C:\PROGRAM FILES (X86)\WINDOWS KITS\10\INCLUDE\10.0.10240.0\UCRT\CORECRT_MALLOC.H
C:\PROGRAM FILES (X86)\WINDOWS KITS\10\INCLUDE\10.0.10240.0\UCRT\CORECRT_SEARCH.H
C:\PROGRAM FILES (X86)\WINDOWS KITS\10\INCLUDE\10.0.10240.0\UCRT\CORECRT_WSTDLIB.H
C:\PROGRAM FILES (X86)\VC\INCLUDE\LIMITS.H
C:\PROGRAM FILES (X86)\WINDOWS KITS\10\INCLUDE\10.0.10240.0\UCRT\STDIO.H
C:\PROGRAM FILES (X86)\WINDOWS KITS\10\INCLUDE\10.0.10240.0\UCRT\CORECRT_WSTDIO.H
C:\PROGRAM FILES (X86)\WINDOWS KITS\10\INCLUDE\10.0.10240.0\UCRT\CORECRT_STDIO_CONFIG.H
C:\PROGRAM FILES (X86)\WINDOWS KITS\10\INCLUDE\10.0.10240.0\UCRT\STRING.H
C:\PROGRAM FILES (X86)\WINDOWS KITS\10\INCLUDE\10.0.10240.0\UCRT\CORECRT_MEMORY.H
C:\PROGRAM FILES (X86)\WINDOWS KITS\10\INCLUDE\10.0.10240.0\UCRT\CORECRT_MEMCPY_S.H
C:\PROGRAM FILES (X86)\WINDOWS KITS\10\INCLUDE\10.0.10240.0\UCRT\ERRNO.H
C:\PROGRAM FILES (X86)\VC\INCLUDE\VCRUNTIME_STRING.H
C:\PROGRAM FILES (X86)\WINDOWS KITS\10\INCLUDE\10.0.10240.0\UCRT\CORECRT_WSTRING.H
P:\LIBS\CEGUI-CEGUI-DEPENDENCIES-0ECDF3A9E49B\SRC\JPEG-8C\JPEGLIB.H
P:\LIBS\CEGUI-CEGUI-DEPENDENCIES-0ECDF3A9E49B\SRC\JPEG-8C\JMORECFG.H
P:\LIBS\CEGUI-CEGUI-DEPENDENCIES-0ECDF3A9E49B\SRC\JPEG-8C\JPEGINT.H
P:\LIBS\CEGUI-CEGUI-DEPENDENCIES-0ECDF3A9E49B\SRC\JPEG-8C\JERROR.H
^P:\LIBS\CEGUI-CEGUI-DEPENDENCIES-0ECDF3A9E49B\SRC\JPEG-8C\JDARITH.C
P:\LIBS\CEGUI-CEGUI-DEPENDENCIES-0ECDF3A9E49B\SRC\JPEG-8C\JINCLUDE.H
P:\LIBS\CEGUI-CEGUI-DEPENDENCIES-0ECDF3A9E49B\SRC\JPEG-8C\JCONFIG.H
C:\PROGRAM FILES (X86)\WINDOWS KITS\10\INCLUDE\10.0.10240.0\UCRT\STDDEF.H
C:\PROGRAM FILES (X86)\WINDOWS KITS\10\INCLUDE\10.0.10240.0\UCRT\CORECRT.H
C:\PROGRAM FILES (X86)\VC\INCLUDE\VCRUNTIME.H
C:\PROGRAM FILES (X86)\VC\INCLUDE\SAL.H
C:\PROGRAM FILES (X86)\VC\INCLUDE\CONCURRENCYSAL.H
C:\PROGRAM FILES (X86)\VC\INCLUDE\VADEFS.H
C:\PROGRAM FILES (X86)\WINDOWS KITS\10\INCLUDE\10.0.10240.0\UCRT\STDLIB.H
C:\PROGRAM FILES (X86)\WINDOWS KITS\10\INCLUDE\10.0.10240.0\UCRT\CORECRT_MALLOC.H
C:\PROGRAM FILES (X86)\WINDOWS KITS\10\INCLUDE\10.0.10240.0\UCRT\CORECRT_SEARCH.H
C:\PROGRAM FILES (X86)\WINDOWS KITS\10\INCLUDE\10.0.10240.0\UCRT\CORECRT_WSTDLIB.H
C:\PROGRAM FILES (X86)\VC\INCLUDE\LIMITS.H
C:\PROGRAM FILES (X86)\WINDOWS KITS\10\INCLUDE\10.0.10240.0\UCRT\STDIO.H
C:\PROGRAM FILES (X86)\WINDOWS KITS\10\INCLUDE\10.0.10240.0\UCRT\CORECRT_WSTDIO.H
C:\PROGRAM FILES (X86)\WINDOWS KITS\10\INCLUDE\10.0.10240.0\UCRT\CORECRT_STDIO_CONFIG.H
C:\PROGRAM FILES (X86)\WINDOWS KITS\10\INCLUDE\10.0.10240.0\UCRT\STRING.H
C:\PROGRAM FILES (X86)\WINDOWS KITS\10\INCLUDE\10.0.10240.0\UCRT\CORECRT_MEMORY.H
C:\PROGRAM FILES (X86)\WINDOWS KITS\10\INCLUDE\10.0.10240.0\UCRT\CORECRT_MEMCPY_S.H
C:\PROGRAM FILES (X86)\WINDOWS KITS\10\INCLUDE\10.0.10240.0\UCRT\ERRNO.H
C:\PROGRAM FILES (X86)\VC\INCLUDE\VCRUNTIME_STRING.H
C:\PROGRAM FILES (X86)\WINDOWS KITS\10\INCLUDE\10.0.10240.0\UCRT\CORECRT_WSTRING.H
P:\LIBS\CEGUI-CEGUI-DEPENDENCIES-0ECDF3A9E49B\SRC\JPEG-8C\JPEGLIB.H
P:\LIBS\CEGUI-CEGUI-DEPENDENCIES-0ECDF3A9E49B\SRC\JPEG-8C\JMORECFG.H
P:\LIBS\CEGUI-CEGUI-DEPENDENCIES-0ECDF3A9E49B\SRC\JPEG-8C\JPEGINT.H
P:\LIBS\CEGUI-CEGUI-DEPENDENCIES-0ECDF3A9E49B\SRC\JPEG-8C\JERROR.H
^P:\LIBS\CEGUI-CEGUI-DEPENDENCIES-0ECDF3A9E49B\SRC\JPEG-8C\JDATADST.C
P:\LIBS\CEGUI-CEGUI-DEPENDENCIES-0ECDF3A9E49B\SRC\JPEG-8C\JINCLUDE.H
P:\LIBS\CEGUI-CEGUI-DEPENDENCIES-0ECDF3A9E49B\SRC\JPEG-8C\JCONFIG.H
C:\PROGRAM FILES (X86)\WINDOWS KITS\10\INCLUDE\10.0.10240.0\UCRT\STDDEF.H
C:\PROGRAM FILES (X86)\WINDOWS KITS\10\INCLUDE\10.0.10240.0\UCRT\CORECRT.H
C:\PROGRAM FILES (X86)\VC\INCLUDE\VCRUNTIME.H
C:\PROGRAM FILES (X86)\VC\INCLUDE\SAL.H
C:\PROGRAM FILES (X86)\VC\INCLUDE\CONCURRENCYSAL.H
C:\PROGRAM FILES (X86)\VC\INCLUDE\VADEFS.H
C:\PROGRAM FILES (X86)\WINDOWS KITS\10\INCLUDE\10.0.10240.0\UCRT\STDLIB.H
C:\PROGRAM FILES (X86)\WINDOWS KITS\10\INCLUDE\10.0.10240.0\UCRT\CORECRT_MALLOC.H
C:\PROGRAM FILES (X86)\WINDOWS KITS\10\INCLUDE\10.0.10240.0\UCRT\CORECRT_SEARCH.H
C:\PROGRAM FILES (X86)\WINDOWS KITS\10\INCLUDE\10.0.10240.0\UCRT\CORECRT_WSTDLIB.H
C:\PROGRAM FILES (X86)\VC\INCLUDE\LIMITS.H
C:\PROGRAM FILES (X86)\WINDOWS KITS\10\INCLUDE\10.0.10240.0\UCRT\STDIO.H
C:\PROGRAM FILES (X86)\WINDOWS KITS\10\INCLUDE\10.0.10240.0\UCRT\CORECRT_WSTDIO.H
C:\PROGRAM FILES (X86)\WINDOWS KITS\10\INCLUDE\10.0.10240.0\UCRT\CORECRT_STDIO_CONFIG.H
C:\PROGRAM FILES (X86)\WINDOWS KITS\10\INCLUDE\10.0.10240.0\UCRT\STRING.H
C:\PROGRAM FILES (X86)\WINDOWS KITS\10\INCLUDE\10.0.10240.0\UCRT\CORECRT_MEMORY.H
C:\PROGRAM FILES (X86)\WINDOWS KITS\10\INCLUDE\10.0.10240.0\UCRT\CORECRT_MEMCPY_S.H
C:\PROGRAM FILES (X86)\WINDOWS KITS\10\INCLUDE\10.0.10240.0\UCRT\ERRNO.H
C:\PROGRAM FILES (X86)\VC\INCLUDE\VCRUNTIME_STRING.H
C:\PROGRAM FILES (X86)\WINDOWS KITS\10\INCLUDE\10.0.10240.0\UCRT\CORECRT_WSTRING.H
P:\LIBS\CEGUI-CEGUI-DEPENDENCIES-0ECDF3A9E49B\SRC\JPEG-8C\JPEGLIB.H
P:\LIBS\CEGUI-CEGUI-DEPENDENCIES-0ECDF3A9E49B\SRC\JPEG-8C\JMORECFG.H
P:\LIBS\CEGUI-CEGUI-DEPENDENCIES-0ECDF3A9E49B\SRC\JPEG-8C\JERROR.H
^P:\LIBS\CEGUI-CEGUI-DEPENDENCIES-0ECDF3A9E49B\SRC\JPEG-8C\JDATASRC.C
P:\LIBS\CEGUI-CEGUI-DEPENDENCIES-0ECDF3A9E49B\SRC\JPEG-8C\JINCLUDE.H
P:\LIBS\CEGUI-CEGUI-DEPENDENCIES-0ECDF3A9E49B\SRC\JPEG-8C\JCONFIG.H
C:\PROGRAM FILES (X86)\WINDOWS KITS\10\INCLUDE\10.0.10240.0\UCRT\STDDEF.H
C:\PROGRAM FILES (X86)\WINDOWS KITS\10\INCLUDE\10.0.10240.0\UCRT\CORECRT.H
C:\PROGRAM FILES (X86)\VC\INCLUDE\VCRUNTIME.H
C:\PROGRAM FILES (X86)\VC\INCLUDE\SAL.H
C:\PROGRAM FILES (X86)\VC\INCLUDE\CONCURRENCYSAL.H
C:\PROGRAM FILES (X86)\VC\INCLUDE\VADEFS.H
C:\PROGRAM FILES (X86)\WINDOWS KITS\10\INCLUDE\10.0.10240.0\UCRT\STDLIB.H
C:\PROGRAM FILES (X86)\WINDOWS KITS\10\INCLUDE\10.0.10240.0\UCRT\CORECRT_MALLOC.H
C:\PROGRAM FILES (X86)\WINDOWS KITS\10\INCLUDE\10.0.10240.0\UCRT\CORECRT_SEARCH.H
C:\PROGRAM FILES (X86)\WINDOWS KITS\10\INCLUDE\10.0.10240.0\UCRT\CORECRT_WSTDLIB.H
C:\PROGRAM FILES (X86)\VC\INCLUDE\LIMITS.H
C:\PROGRAM FILES (X86)\WINDOWS KITS\10\INCLUDE\10.0.10240.0\UCRT\STDIO.H
C:\PROGRAM FILES (X86)\WINDOWS KITS\10\INCLUDE\10.0.10240.0\UCRT\CORECRT_WSTDIO.H
C:\PROGRAM FILES (X86)\WINDOWS KITS\10\INCLUDE\10.0.10240.0\UCRT\CORECRT_STDIO_CONFIG.H
C:\PROGRAM FILES (X86)\WINDOWS KITS\10\INCLUDE\10.0.10240.0\UCRT\STRING.H
C:\PROGRAM FILES (X86)\WINDOWS KITS\10\INCLUDE\10.0.10240.0\UCRT\CORECRT_MEMORY.H
C:\PROGRAM FILES (X86)\WINDOWS KITS\10\INCLUDE\10.0.10240.0\UCRT\CORECRT_MEMCPY_S.H
C:\PROGRAM FILES (X86)\WINDOWS KITS\10\INCLUDE\10.0.10240.0\UCRT\ERRNO.H
C:\PROGRAM FILES (X86)\VC\INCLUDE\VCRUNTIME_STRING.H
C:\PROGRAM FILES (X86)\WINDOWS KITS\10\INCLUDE\10.0.10240.0\UCRT\CORECRT_WSTRING.H
P:\LIBS\CEGUI-CEGUI-DEPENDENCIES-0ECDF3A9E49B\SRC\JPEG-8C\JPEGLIB.H
P:\LIBS\CEGUI-CEGUI-DEPENDENCIES-0ECDF3A9E49B\SRC\JPEG-8C\JMORECFG.H
P:\LIBS\CEGUI-CEGUI-DEPENDENCIES-0ECDF3A9E49B\SRC\JPEG-8C\JERROR.H
^P:\LIBS\CEGUI-CEGUI-DEPENDENCIES-0ECDF3A9E49B\SRC\JPEG-8C\JDCOEFCT.C
P:\LIBS\CEGUI-CEGUI-DEPENDENCIES-0ECDF3A9E49B\SRC\JPEG-8C\JINCLUDE.H
P:\LIBS\CEGUI-CEGUI-DEPENDENCIES-0ECDF3A9E49B\SRC\JPEG-8C\JCONFIG.H
C:\PROGRAM FILES (X86)\WINDOWS KITS\10\INCLUDE\10.0.10240.0\UCRT\STDDEF.H
C:\PROGRAM FILES (X86)\WINDOWS KITS\10\INCLUDE\10.0.10240.0\UCRT\CORECRT.H
C:\PROGRAM FILES (X86)\VC\INCLUDE\VCRUNTIME.H
C:\PROGRAM FILES (X86)\VC\INCLUDE\SAL.H
C:\PROGRAM FILES (X86)\VC\INCLUDE\CONCURRENCYSAL.H
C:\PROGRAM FILES (X86)\VC\INCLUDE\VADEFS.H
C:\PROGRAM FILES (X86)\WINDOWS KITS\10\INCLUDE\10.0.10240.0\UCRT\STDLIB.H
C:\PROGRAM FILES (X86)\WINDOWS KITS\10\INCLUDE\10.0.10240.0\UCRT\CORECRT_MALLOC.H
C:\PROGRAM FILES (X86)\WINDOWS KITS\10\INCLUDE\10.0.10240.0\UCRT\CORECRT_SEARCH.H
C:\PROGRAM FILES (X86)\WINDOWS KITS\10\INCLUDE\10.0.10240.0\UCRT\CORECRT_WSTDLIB.H
C:\PROGRAM FILES (X86)\VC\INCLUDE\LIMITS.H
C:\PROGRAM FILES (X86)\WINDOWS KITS\10\INCLUDE\10.0.10240.0\UCRT\STDIO.H
C:\PROGRAM FILES (X86)\WINDOWS KITS\10\INCLUDE\10.0.10240.0\UCRT\CORECRT_WSTDIO.H
C:\PROGRAM FILES (X86)\WINDOWS KITS\10\INCLUDE\10.0.10240.0\UCRT\CORECRT_STDIO_CONFIG.H
C:\PROGRAM FILES (X86)\WINDOWS KITS\10\INCLUDE\10.0.10240.0\UCRT\STRING.H
C:\PROGRAM FILES (X86)\WINDOWS KITS\10\INCLUDE\10.0.10240.0\UCRT\CORECRT_MEMORY.H
C:\PROGRAM FILES (X86)\WINDOWS KITS\10\INCLUDE\10.0.10240.0\UCRT\CORECRT_MEMCPY_S.H
C:\PROGRAM FILES (X86)\WINDOWS KITS\10\INCLUDE\10.0.10240.0\UCRT\ERRNO.H
C:\PROGRAM FILES (X86)\VC\INCLUDE\VCRUNTIME_STRING.H
C:\PROGRAM FILES (X86)\WINDOWS KITS\10\INCLUDE\10.0.10240.0\UCRT\CORECRT_WSTRING.H
P:\LIBS\CEGUI-CEGUI-DEPENDENCIES-0ECDF3A9E49B\SRC\JPEG-8C\JPEGLIB.H
P:\LIBS\CEGUI-CEGUI-DEPENDENCIES-0ECDF3A9E49B\SRC\JPEG-8C\JMORECFG.H
P:\LIBS\CEGUI-CEGUI-DEPENDENCIES-0ECDF3A9E49B\SRC\JPEG-8C\JPEGINT.H
P:\LIBS\CEGUI-CEGUI-DEPENDENCIES-0ECDF3A9E49B\SRC\JPEG-8C\JERROR.H
^P:\LIBS\CEGUI-CEGUI-DEPENDENCIES-0ECDF3A9E49B\SRC\JPEG-8C\JDCOLOR.C
P:\LIBS\CEGUI-CEGUI-DEPENDENCIES-0ECDF3A9E49B\SRC\JPEG-8C\JINCLUDE.H
P:\LIBS\CEGUI-CEGUI-DEPENDENCIES-0ECDF3A9E49B\SRC\JPEG-8C\JCONFIG.H
C:\PROGRAM FILES (X86)\WINDOWS KITS\10\INCLUDE\10.0.10240.0\UCRT\STDDEF.H
C:\PROGRAM FILES (X86)\WINDOWS KITS\10\INCLUDE\10.0.10240.0\UCRT\CORECRT.H
C:\PROGRAM FILES (X86)\VC\INCLUDE\VCRUNTIME.H
C:\PROGRAM FILES (X86)\VC\INCLUDE\SAL.H
C:\PROGRAM FILES (X86)\VC\INCLUDE\CONCURRENCYSAL.H
C:\PROGRAM FILES (X86)\VC\INCLUDE\VADEFS.H
C:\PROGRAM FILES (X86)\WINDOWS KITS\10\INCLUDE\10.0.10240.0\UCRT\STDLIB.H
C:\PROGRAM FILES (X86)\WINDOWS KITS\10\INCLUDE\10.0.10240.0\UCRT\CORECRT_MALLOC.H
C:\PROGRAM FILES (X86)\WINDOWS KITS\10\INCLUDE\10.0.10240.0\UCRT\CORECRT_SEARCH.H
C:\PROGRAM FILES (X86)\WINDOWS KITS\10\INCLUDE\10.0.10240.0\UCRT\CORECRT_WSTDLIB.H
C:\PROGRAM FILES (X86)\VC\INCLUDE\LIMITS.H
C:\PROGRAM FILES (X86)\WINDOWS KITS\10\INCLUDE\10.0.10240.0\UCRT\STDIO.H
C:\PROGRAM FILES (X86)\WINDOWS KITS\10\INCLUDE\10.0.10240.0\UCRT\CORECRT_WSTDIO.H
C:\PROGRAM FILES (X86)\WINDOWS KITS\10\INCLUDE\10.0.10240.0\UCRT\CORECRT_STDIO_CONFIG.H
C:\PROGRAM FILES (X86)\WINDOWS KITS\10\INCLUDE\10.0.10240.0\UCRT\STRING.H
C:\PROGRAM FILES (X86)\WINDOWS KITS\10\INCLUDE\10.0.10240.0\UCRT\CORECRT_MEMORY.H
C:\PROGRAM FILES (X86)\WINDOWS KITS\10\INCLUDE\10.0.10240.0\UCRT\CORECRT_MEMCPY_S.H
C:\PROGRAM FILES (X86)\WINDOWS KITS\10\INCLUDE\10.0.10240.0\UCRT\ERRNO.H
C:\PROGRAM FILES (X86)\VC\INCLUDE\VCRUNTIME_STRING.H
C:\PROGRAM FILES (X86)\WINDOWS KITS\10\INCLUDE\10.0.10240.0\UCRT\CORECRT_WSTRING.H
P:\LIBS\CEGUI-CEGUI-DEPENDENCIES-0ECDF3A9E49B\SRC\JPEG-8C\JPEGLIB.H
P:\LIBS\CEGUI-CEGUI-DEPENDENCIES-0ECDF3A9E49B\SRC\JPEG-8C\JMORECFG.H
P:\LIBS\CEGUI-CEGUI-DEPENDENCIES-0ECDF3A9E49B\SRC\JPEG-8C\JPEGINT.H
P:\LIBS\CEGUI-CEGUI-DEPENDENCIES-0ECDF3A9E49B\SRC\JPEG-8C\JERROR.H
^P:\LIBS\CEGUI-CEGUI-DEPENDENCIES-0ECDF3A9E49B\SRC\JPEG-8C\JDDCTMGR.C
P:\LIBS\CEGUI-CEGUI-DEPENDENCIES-0ECDF3A9E49B\SRC\JPEG-8C\JINCLUDE.H
P:\LIBS\CEGUI-CEGUI-DEPENDENCIES-0ECDF3A9E49B\SRC\JPEG-8C\JCONFIG.H
C:\PROGRAM FILES (X86)\WINDOWS KITS\10\INCLUDE\10.0.10240.0\UCRT\STDDEF.H
C:\PROGRAM FILES (X86)\WINDOWS KITS\10\INCLUDE\10.0.10240.0\UCRT\CORECRT.H
C:\PROGRAM FILES (X86)\VC\INCLUDE\VCRUNTIME.H
C:\PROGRAM FILES (X86)\VC\INCLUDE\SAL.H
C:\PROGRAM FILES (X86)\VC\INCLUDE\CONCURRENCYSAL.H
C:\PROGRAM FILES (X86)\VC\INCLUDE\VADEFS.H
C:\PROGRAM FILES (X86)\WINDOWS KITS\10\INCLUDE\10.0.10240.0\UCRT\STDLIB.H
C:\PROGRAM FILES (X86)\WINDOWS KITS\10\INCLUDE\10.0.10240.0\UCRT\CORECRT_MALLOC.H
C:\PROGRAM FILES (X86)\WINDOWS KITS\10\INCLUDE\10.0.10240.0\UCRT\CORECRT_SEARCH.H
C:\PROGRAM FILES (X86)\WINDOWS KITS\10\INCLUDE\10.0.10240.0\UCRT\CORECRT_WSTDLIB.H
C:\PROGRAM FILES (X86)\VC\INCLUDE\LIMITS.H
C:\PROGRAM FILES (X86)\WINDOWS KITS\10\INCLUDE\10.0.10240.0\UCRT\STDIO.H
C:\PROGRAM FILES (X86)\WINDOWS KITS\10\INCLUDE\10.0.10240.0\UCRT\CORECRT_WSTDIO.H
C:\PROGRAM FILES (X86)\WINDOWS KITS\10\INCLUDE\10.0.10240.0\UCRT\CORECRT_STDIO_CONFIG.H
C:\PROGRAM FILES (X86)\WINDOWS KITS\10\INCLUDE\10.0.10240.0\UCRT\STRING.H
C:\PROGRAM FILES (X86)\WINDOWS KITS\10\INCLUDE\10.0.10240.0\UCRT\CORECRT_MEMORY.H
C:\PROGRAM FILES (X86)\WINDOWS KITS\10\INCLUDE\10.0.10240.0\UCRT\CORECRT_MEMCPY_S.H
C:\PROGRAM FILES (X86)\WINDOWS KITS\10\INCLUDE\10.0.10240.0\UCRT\ERRNO.H
C:\PROGRAM FILES (X86)\VC\INCLUDE\VCRUNTIME_STRING.H
C:\PROGRAM FILES (X86)\WINDOWS KITS\10\INCLUDE\10.0.10240.0\UCRT\CORECRT_WSTRING.H
P:\LIBS\CEGUI-CEGUI-DEPENDENCIES-0ECDF3A9E49B\SRC\JPEG-8C\JPEGLIB.H
P:\LIBS\CEGUI-CEGUI-DEPENDENCIES-0ECDF3A9E49B\SRC\JPEG-8C\JMORECFG.H
P:\LIBS\CEGUI-CEGUI-DEPENDENCIES-0ECDF3A9E49B\SRC\JPEG-8C\JPEGINT.H
P:\LIBS\CEGUI-CEGUI-DEPENDENCIES-0ECDF3A9E49B\SRC\JPEG-8C\JERROR.H
P:\LIBS\CEGUI-CEGUI-DEPENDENCIES-0ECDF3A9E49B\SRC\JPEG-8C\JDCT.H
^P:\LIBS\CEGUI-CEGUI-DEPENDENCIES-0ECDF3A9E49B\SRC\JPEG-8C\JDHUFF.C
P:\LIBS\CEGUI-CEGUI-DEPENDENCIES-0ECDF3A9E49B\SRC\JPEG-8C\JINCLUDE.H
P:\LIBS\CEGUI-CEGUI-DEPENDENCIES-0ECDF3A9E49B\SRC\JPEG-8C\JCONFIG.H
C:\PROGRAM FILES (X86)\WINDOWS KITS\10\INCLUDE\10.0.10240.0\UCRT\STDDEF.H
C:\PROGRAM FILES (X86)\WINDOWS KITS\10\INCLUDE\10.0.10240.0\UCRT\CORECRT.H
C:\PROGRAM FILES (X86)\VC\INCLUDE\VCRUNTIME.H
C:\PROGRAM FILES (X86)\VC\INCLUDE\SAL.H
C:\PROGRAM FILES (X86)\VC\INCLUDE\CONCURRENCYSAL.H
C:\PROGRAM FILES (X86)\VC\INCLUDE\VADEFS.H
C:\PROGRAM FILES (X86)\WINDOWS KITS\10\INCLUDE\10.0.10240.0\UCRT\STDLIB.H
C:\PROGRAM FILES (X86)\WINDOWS KITS\10\INCLUDE\10.0.10240.0\UCRT\CORECRT_MALLOC.H
C:\PROGRAM FILES (X86)\WINDOWS KITS\10\INCLUDE\10.0.10240.0\UCRT\CORECRT_SEARCH.H
C:\PROGRAM FILES (X86)\WINDOWS KITS\10\INCLUDE\10.0.10240.0\UCRT\CORECRT_WSTDLIB.H
C:\PROGRAM FILES (X86)\VC\INCLUDE\LIMITS.H
C:\PROGRAM FILES (X86)\WINDOWS KITS\10\INCLUDE\10.0.10240.0\UCRT\STDIO.H
C:\PROGRAM FILES (X86)\WINDOWS KITS\10\INCLUDE\10.0.10240.0\UCRT\CORECRT_WSTDIO.H
C:\PROGRAM FILES (X86)\WINDOWS KITS\10\INCLUDE\10.0.10240.0\UCRT\CORECRT_STDIO_CONFIG.H
C:\PROGRAM FILES (X86)\WINDOWS KITS\10\INCLUDE\10.0.10240.0\UCRT\STRING.H
C:\PROGRAM FILES (X86)\WINDOWS KITS\10\INCLUDE\10.0.10240.0\UCRT\CORECRT_MEMORY.H
C:\PROGRAM FILES (X86)\WINDOWS KITS\10\INCLUDE\10.0.10240.0\UCRT\CORECRT_MEMCPY_S.H
C:\PROGRAM FILES (X86)\WINDOWS KITS\10\INCLUDE\10.0.10240.0\UCRT\ERRNO.H
C:\PROGRAM FILES (X86)\VC\INCLUDE\VCRUNTIME_STRING.H
C:\PROGRAM FILES (X86)\WINDOWS KITS\10\INCLUDE\10.0.10240.0\UCRT\CORECRT_WSTRING.H
P:\LIBS\CEGUI-CEGUI-DEPENDENCIES-0ECDF3A9E49B\SRC\JPEG-8C\JPEGLIB.H
P:\LIBS\CEGUI-CEGUI-DEPENDENCIES-0ECDF3A9E49B\SRC\JPEG-8C\JMORECFG.H
P:\LIBS\CEGUI-CEGUI-DEPENDENCIES-0ECDF3A9E49B\SRC\JPEG-8C\JPEGINT.H
P:\LIBS\CEGUI-CEGUI-DEPENDENCIES-0ECDF3A9E49B\SRC\JPEG-8C\JERROR.H
^P:\LIBS\CEGUI-CEGUI-DEPENDENCIES-0ECDF3A9E49B\SRC\JPEG-8C\JDINPUT.C
P:\LIBS\CEGUI-CEGUI-DEPENDENCIES-0ECDF3A9E49B\SRC\JPEG-8C\JINCLUDE.H
P:\LIBS\CEGUI-CEGUI-DEPENDENCIES-0ECDF3A9E49B\SRC\JPEG-8C\JCONFIG.H
C:\PROGRAM FILES (X86)\WINDOWS KITS\10\INCLUDE\10.0.10240.0\UCRT\STDDEF.H
C:\PROGRAM FILES (X86)\WINDOWS KITS\10\INCLUDE\10.0.10240.0\UCRT\CORECRT.H
C:\PROGRAM FILES (X86)\VC\INCLUDE\VCRUNTIME.H
C:\PROGRAM FILES (X86)\VC\INCLUDE\SAL.H
C:\PROGRAM FILES (X86)\VC\INCLUDE\CONCURRENCYSAL.H
C:\PROGRAM FILES (X86)\VC\INCLUDE\VADEFS.H
C:\PROGRAM FILES (X86)\WINDOWS KITS\10\INCLUDE\10.0.10240.0\UCRT\STDLIB.H
C:\PROGRAM FILES (X86)\WINDOWS KITS\10\INCLUDE\10.0.10240.0\UCRT\CORECRT_MALLOC.H
C:\PROGRAM FILES (X86)\WINDOWS KITS\10\INCLUDE\10.0.10240.0\UCRT\CORECRT_SEARCH.H
C:\PROGRAM FILES (X86)\WINDOWS KITS\10\INCLUDE\10.0.10240.0\UCRT\CORECRT_WSTDLIB.H
C:\PROGRAM FILES (X86)\VC\INCLUDE\LIMITS.H
C:\PROGRAM FILES (X86)\WINDOWS KITS\10\INCLUDE\10.0.10240.0\UCRT\STDIO.H
C:\PROGRAM FILES (X86)\WINDOWS KITS\10\INCLUDE\10.0.10240.0\UCRT\CORECRT_WSTDIO.H
C:\PROGRAM FILES (X86)\WINDOWS KITS\10\INCLUDE\10.0.10240.0\UCRT\CORECRT_STDIO_CONFIG.H
C:\PROGRAM FILES (X86)\WINDOWS KITS\10\INCLUDE\10.0.10240.0\UCRT\STRING.H
C:\PROGRAM FILES (X86)\WINDOWS KITS\10\INCLUDE\10.0.10240.0\UCRT\CORECRT_MEMORY.H
C:\PROGRAM FILES (X86)\WINDOWS KITS\10\INCLUDE\10.0.10240.0\UCRT\CORECRT_MEMCPY_S.H
C:\PROGRAM FILES (X86)\WINDOWS KITS\10\INCLUDE\10.0.10240.0\UCRT\ERRNO.H
C:\PROGRAM FILES (X86)\VC\INCLUDE\VCRUNTIME_STRING.H
C:\PROGRAM FILES (X86)\WINDOWS KITS\10\INCLUDE\10.0.10240.0\UCRT\CORECRT_WSTRING.H
P:\LIBS\CEGUI-CEGUI-DEPENDENCIES-0ECDF3A9E49B\SRC\JPEG-8C\JPEGLIB.H
P:\LIBS\CEGUI-CEGUI-DEPENDENCIES-0ECDF3A9E49B\SRC\JPEG-8C\JMORECFG.H
P:\LIBS\CEGUI-CEGUI-DEPENDENCIES-0ECDF3A9E49B\SRC\JPEG-8C\JPEGINT.H
P:\LIBS\CEGUI-CEGUI-DEPENDENCIES-0ECDF3A9E49B\SRC\JPEG-8C\JERROR.H
^P:\LIBS\CEGUI-CEGUI-DEPENDENCIES-0ECDF3A9E49B\SRC\JPEG-8C\JDMAINCT.C
P:\LIBS\CEGUI-CEGUI-DEPENDENCIES-0ECDF3A9E49B\SRC\JPEG-8C\JINCLUDE.H
P:\LIBS\CEGUI-CEGUI-DEPENDENCIES-0ECDF3A9E49B\SRC\JPEG-8C\JCONFIG.H
C:\PROGRAM FILES (X86)\WINDOWS KITS\10\INCLUDE\10.0.10240.0\UCRT\STDDEF.H
C:\PROGRAM FILES (X86)\WINDOWS KITS\10\INCLUDE\10.0.10240.0\UCRT\CORECRT.H
C:\PROGRAM FILES (X86)\VC\INCLUDE\VCRUNTIME.H
C:\PROGRAM FILES (X86)\VC\INCLUDE\SAL.H
C:\PROGRAM FILES (X86)\VC\INCLUDE\CONCURRENCYSAL.H
C:\PROGRAM FILES (X86)\VC\INCLUDE\VADEFS.H
C:\PROGRAM FILES (X86)\WINDOWS KITS\10\INCLUDE\10.0.10240.0\UCRT\STDLIB.H
C:\PROGRAM FILES (X86)\WINDOWS KITS\10\INCLUDE\10.0.10240.0\UCRT\CORECRT_MALLOC.H
C:\PROGRAM FILES (X86)\WINDOWS KITS\10\INCLUDE\10.0.10240.0\UCRT\CORECRT_SEARCH.H
C:\PROGRAM FILES (X86)\WINDOWS KITS\10\INCLUDE\10.0.10240.0\UCRT\CORECRT_WSTDLIB.H
C:\PROGRAM FILES (X86)\VC\INCLUDE\LIMITS.H
C:\PROGRAM FILES (X86)\WINDOWS KITS\10\INCLUDE\10.0.10240.0\UCRT\STDIO.H
C:\PROGRAM FILES (X86)\WINDOWS KITS\10\INCLUDE\10.0.10240.0\UCRT\CORECRT_WSTDIO.H
C:\PROGRAM FILES (X86)\WINDOWS KITS\10\INCLUDE\10.0.10240.0\UCRT\CORECRT_STDIO_CONFIG.H
C:\PROGRAM FILES (X86)\WINDOWS KITS\10\INCLUDE\10.0.10240.0\UCRT\STRING.H
C:\PROGRAM FILES (X86)\WINDOWS KITS\10\INCLUDE\10.0.10240.0\UCRT\CORECRT_MEMORY.H
C:\PROGRAM FILES (X86)\WINDOWS KITS\10\INCLUDE\10.0.10240.0\UCRT\CORECRT_MEMCPY_S.H
C:\PROGRAM FILES (X86)\WINDOWS KITS\10\INCLUDE\10.0.10240.0\UCRT\ERRNO.H
C:\PROGRAM FILES (X86)\VC\INCLUDE\VCRUNTIME_STRING.H
C:\PROGRAM FILES (X86)\WINDOWS KITS\10\INCLUDE\10.0.10240.0\UCRT\CORECRT_WSTRING.H
P:\LIBS\CEGUI-CEGUI-DEPENDENCIES-0ECDF3A9E49B\SRC\JPEG-8C\JPEGLIB.H
P:\LIBS\CEGUI-CEGUI-DEPENDENCIES-0ECDF3A9E49B\SRC\JPEG-8C\JMORECFG.H
P:\LIBS\CEGUI-CEGUI-DEPENDENCIES-0ECDF3A9E49B\SRC\JPEG-8C\JPEGINT.H
P:\LIBS\CEGUI-CEGUI-DEPENDENCIES-0ECDF3A9E49B\SRC\JPEG-8C\JERROR.H
^P:\LIBS\CEGUI-CEGUI-DEPENDENCIES-0ECDF3A9E49B\SRC\JPEG-8C\JDMARKER.C
P:\LIBS\CEGUI-CEGUI-DEPENDENCIES-0ECDF3A9E49B\SRC\JPEG-8C\JINCLUDE.H
P:\LIBS\CEGUI-CEGUI-DEPENDENCIES-0ECDF3A9E49B\SRC\JPEG-8C\JCONFIG.H
C:\PROGRAM FILES (X86)\WINDOWS KITS\10\INCLUDE\10.0.10240.0\UCRT\STDDEF.H
C:\PROGRAM FILES (X86)\WINDOWS KITS\10\INCLUDE\10.0.10240.0\UCRT\CORECRT.H
C:\PROGRAM FILES (X86)\VC\INCLUDE\VCRUNTIME.H
C:\PROGRAM FILES (X86)\VC\INCLUDE\SAL.H
C:\PROGRAM FILES (X86)\VC\INCLUDE\CONCURRENCYSAL.H
C:\PROGRAM FILES (X86)\VC\INCLUDE\VADEFS.H
C:\PROGRAM FILES (X86)\WINDOWS KITS\10\INCLUDE\10.0.10240.0\UCRT\STDLIB.H
C:\PROGRAM FILES (X86)\WINDOWS KITS\10\INCLUDE\10.0.10240.0\UCRT\CORECRT_MALLOC.H
C:\PROGRAM FILES (X86)\WINDOWS KITS\10\INCLUDE\10.0.10240.0\UCRT\CORECRT_SEARCH.H
C:\PROGRAM FILES (X86)\WINDOWS KITS\10\INCLUDE\10.0.10240.0\UCRT\CORECRT_WSTDLIB.H
C:\PROGRAM FILES (X86)\VC\INCLUDE\LIMITS.H
C:\PROGRAM FILES (X86)\WINDOWS KITS\10\INCLUDE\10.0.10240.0\UCRT\STDIO.H
C:\PROGRAM FILES (X86)\WINDOWS KITS\10\INCLUDE\10.0.10240.0\UCRT\CORECRT_WSTDIO.H
C:\PROGRAM FILES (X86)\WINDOWS KITS\10\INCLUDE\10.0.10240.0\UCRT\CORECRT_STDIO_CONFIG.H
C:\PROGRAM FILES (X86)\WINDOWS KITS\10\INCLUDE\10.0.10240.0\UCRT\STRING.H
C:\PROGRAM FILES (X86)\WINDOWS KITS\10\INCLUDE\10.0.10240.0\UCRT\CORECRT_MEMORY.H
C:\PROGRAM FILES (X86)\WINDOWS KITS\10\INCLUDE\10.0.10240.0\UCRT\CORECRT_MEMCPY_S.H
C:\PROGRAM FILES (X86)\WINDOWS KITS\10\INCLUDE\10.0.10240.0\UCRT\ERRNO.H
C:\PROGRAM FILES (X86)\VC\INCLUDE\VCRUNTIME_STRING.H
C:\PROGRAM FILES (X86)\WINDOWS KITS\10\INCLUDE\10.0.10240.0\UCRT\CORECRT_WSTRING.H
P:\LIBS\CEGUI-CEGUI-DEPENDENCIES-0ECDF3A9E49B\SRC\JPEG-8C\JPEGLIB.H
P:\LIBS\CEGUI-CEGUI-DEPENDENCIES-0ECDF3A9E49B\SRC\JPEG-8C\JMORECFG.H
P:\LIBS\CEGUI-CEGUI-DEPENDENCIES-0ECDF3A9E49B\SRC\JPEG-8C\JPEGINT.H
P:\LIBS\CEGUI-CEGUI-DEPENDENCIES-0ECDF3A9E49B\SRC\JPEG-8C\JERROR.H
^P:\LIBS\CEGUI-CEGUI-DEPENDENCIES-0ECDF3A9E49B\SRC\JPEG-8C\JDMASTER.C
P:\LIBS\CEGUI-CEGUI-DEPENDENCIES-0ECDF3A9E49B\SRC\JPEG-8C\JINCLUDE.H
P:\LIBS\CEGUI-CEGUI-DEPENDENCIES-0ECDF3A9E49B\SRC\JPEG-8C\JCONFIG.H
C:\PROGRAM FILES (X86)\WINDOWS KITS\10\INCLUDE\10.0.10240.0\UCRT\STDDEF.H
C:\PROGRAM FILES (X86)\WINDOWS KITS\10\INCLUDE\10.0.10240.0\UCRT\CORECRT.H
C:\PROGRAM FILES (X86)\VC\INCLUDE\VCRUNTIME.H
C:\PROGRAM FILES (X86)\VC\INCLUDE\SAL.H
C:\PROGRAM FILES (X86)\VC\INCLUDE\CONCURRENCYSAL.H
C:\PROGRAM FILES (X86)\VC\INCLUDE\VADEFS.H
C:\PROGRAM FILES (X86)\WINDOWS KITS\10\INCLUDE\10.0.10240.0\UCRT\STDLIB.H
C:\PROGRAM FILES (X86)\WINDOWS KITS\10\INCLUDE\10.0.10240.0\UCRT\CORECRT_MALLOC.H
C:\PROGRAM FILES (X86)\WINDOWS KITS\10\INCLUDE\10.0.10240.0\UCRT\CORECRT_SEARCH.H
C:\PROGRAM FILES (X86)\WINDOWS KITS\10\INCLUDE\10.0.10240.0\UCRT\CORECRT_WSTDLIB.H
C:\PROGRAM FILES (X86)\VC\INCLUDE\LIMITS.H
C:\PROGRAM FILES (X86)\WINDOWS KITS\10\INCLUDE\10.0.10240.0\UCRT\STDIO.H
C:\PROGRAM FILES (X86)\WINDOWS KITS\10\INCLUDE\10.0.10240.0\UCRT\CORECRT_WSTDIO.H
C:\PROGRAM FILES (X86)\WINDOWS KITS\10\INCLUDE\10.0.10240.0\UCRT\CORECRT_STDIO_CONFIG.H
C:\PROGRAM FILES (X86)\WINDOWS KITS\10\INCLUDE\10.0.10240.0\UCRT\STRING.H
C:\PROGRAM FILES (X86)\WINDOWS KITS\10\INCLUDE\10.0.10240.0\UCRT\CORECRT_MEMORY.H
C:\PROGRAM FILES (X86)\WINDOWS KITS\10\INCLUDE\10.0.10240.0\UCRT\CORECRT_MEMCPY_S.H
C:\PROGRAM FILES (X86)\WINDOWS KITS\10\INCLUDE\10.0.10240.0\UCRT\ERRNO.H
C:\PROGRAM FILES (X86)\VC\INCLUDE\VCRUNTIME_STRING.H
C:\PROGRAM FILES (X86)\WINDOWS KITS\10\INCLUDE\10.0.10240.0\UCRT\CORECRT_WSTRING.H
P:\LIBS\CEGUI-CEGUI-DEPENDENCIES-0ECDF3A9E49B\SRC\JPEG-8C\JPEGLIB.H
P:\LIBS\CEGUI-CEGUI-DEPENDENCIES-0ECDF3A9E49B\SRC\JPEG-8C\JMORECFG.H
P:\LIBS\CEGUI-CEGUI-DEPENDENCIES-0ECDF3A9E49B\SRC\JPEG-8C\JPEGINT.H
P:\LIBS\CEGUI-CEGUI-DEPENDENCIES-0ECDF3A9E49B\SRC\JPEG-8C\JERROR.H
^P:\LIBS\CEGUI-CEGUI-DEPENDENCIES-0ECDF3A9E49B\SRC\JPEG-8C\JDMERGE.C
P:\LIBS\CEGUI-CEGUI-DEPENDENCIES-0ECDF3A9E49B\SRC\JPEG-8C\JINCLUDE.H
P:\LIBS\CEGUI-CEGUI-DEPENDENCIES-0ECDF3A9E49B\SRC\JPEG-8C\JCONFIG.H
C:\PROGRAM FILES (X86)\WINDOWS KITS\10\INCLUDE\10.0.10240.0\UCRT\STDDEF.H
C:\PROGRAM FILES (X86)\WINDOWS KITS\10\INCLUDE\10.0.10240.0\UCRT\CORECRT.H
C:\PROGRAM FILES (X86)\VC\INCLUDE\VCRUNTIME.H
C:\PROGRAM FILES (X86)\VC\INCLUDE\SAL.H
C:\PROGRAM FILES (X86)\VC\INCLUDE\CONCURRENCYSAL.H
C:\PROGRAM FILES (X86)\VC\INCLUDE\VADEFS.H
C:\PROGRAM FILES (X86)\WINDOWS KITS\10\INCLUDE\10.0.10240.0\UCRT\STDLIB.H
C:\PROGRAM FILES (X86)\WINDOWS KITS\10\INCLUDE\10.0.10240.0\UCRT\CORECRT_MALLOC.H
C:\PROGRAM FILES (X86)\WINDOWS KITS\10\INCLUDE\10.0.10240.0\UCRT\CORECRT_SEARCH.H
C:\PROGRAM FILES (X86)\WINDOWS KITS\10\INCLUDE\10.0.10240.0\UCRT\CORECRT_WSTDLIB.H
C:\PROGRAM FILES (X86)\VC\INCLUDE\LIMITS.H
C:\PROGRAM FILES (X86)\WINDOWS KITS\10\INCLUDE\10.0.10240.0\UCRT\STDIO.H
C:\PROGRAM FILES (X86)\WINDOWS KITS\10\INCLUDE\10.0.10240.0\UCRT\CORECRT_WSTDIO.H
C:\PROGRAM FILES (X86)\WINDOWS KITS\10\INCLUDE\10.0.10240.0\UCRT\CORECRT_STDIO_CONFIG.H
C:\PROGRAM FILES (X86)\WINDOWS KITS\10\INCLUDE\10.0.10240.0\UCRT\STRING.H
C:\PROGRAM FILES (X86)\WINDOWS KITS\10\INCLUDE\10.0.10240.0\UCRT\CORECRT_MEMORY.H
C:\PROGRAM FILES (X86)\WINDOWS KITS\10\INCLUDE\10.0.10240.0\UCRT\CORECRT_MEMCPY_S.H
C:\PROGRAM FILES (X86)\WINDOWS KITS\10\INCLUDE\10.0.10240.0\UCRT\ERRNO.H
C:\PROGRAM FILES (X86)\VC\INCLUDE\VCRUNTIME_STRING.H
C:\PROGRAM FILES (X86)\WINDOWS KITS\10\INCLUDE\10.0.10240.0\UCRT\CORECRT_WSTRING.H
P:\LIBS\CEGUI-CEGUI-DEPENDENCIES-0ECDF3A9E49B\SRC\JPEG-8C\JPEGLIB.H
P:\LIBS\CEGUI-CEGUI-DEPENDENCIES-0ECDF3A9E49B\SRC\JPEG-8C\JMORECFG.H
P:\LIBS\CEGUI-CEGUI-DEPENDENCIES-0ECDF3A9E49B\SRC\JPEG-8C\JPEGINT.H
P:\LIBS\CEGUI-CEGUI-DEPENDENCIES-0ECDF3A9E49B\SRC\JPEG-8C\JERROR.H
^P:\LIBS\CEGUI-CEGUI-DEPENDENCIES-0ECDF3A9E49B\SRC\JPEG-8C\JDPOSTCT.C
P:\LIBS\CEGUI-CEGUI-DEPENDENCIES-0ECDF3A9E49B\SRC\JPEG-8C\JINCLUDE.H
P:\LIBS\CEGUI-CEGUI-DEPENDENCIES-0ECDF3A9E49B\SRC\JPEG-8C\JCONFIG.H
C:\PROGRAM FILES (X86)\WINDOWS KITS\10\INCLUDE\10.0.10240.0\UCRT\STDDEF.H
C:\PROGRAM FILES (X86)\WINDOWS KITS\10\INCLUDE\10.0.10240.0\UCRT\CORECRT.H
C:\PROGRAM FILES (X86)\VC\INCLUDE\VCRUNTIME.H
C:\PROGRAM FILES (X86)\VC\INCLUDE\SAL.H
C:\PROGRAM FILES (X86)\VC\INCLUDE\CONCURRENCYSAL.H
C:\PROGRAM FILES (X86)\VC\INCLUDE\VADEFS.H
C:\PROGRAM FILES (X86)\WINDOWS KITS\10\INCLUDE\10.0.10240.0\UCRT\STDLIB.H
C:\PROGRAM FILES (X86)\WINDOWS KITS\10\INCLUDE\10.0.10240.0\UCRT\CORECRT_MALLOC.H
C:\PROGRAM FILES (X86)\WINDOWS KITS\10\INCLUDE\10.0.10240.0\UCRT\CORECRT_SEARCH.H
C:\PROGRAM FILES (X86)\WINDOWS KITS\10\INCLUDE\10.0.10240.0\UCRT\CORECRT_WSTDLIB.H
C:\PROGRAM FILES (X86)\VC\INCLUDE\LIMITS.H
C:\PROGRAM FILES (X86)\WINDOWS KITS\10\INCLUDE\10.0.10240.0\UCRT\STDIO.H
C:\PROGRAM FILES (X86)\WINDOWS KITS\10\INCLUDE\10.0.10240.0\UCRT\CORECRT_WSTDIO.H
C:\PROGRAM FILES (X86)\WINDOWS KITS\10\INCLUDE\10.0.10240.0\UCRT\CORECRT_STDIO_CONFIG.H
C:\PROGRAM FILES (X86)\WINDOWS KITS\10\INCLUDE\10.0.10240.0\UCRT\STRING.H
C:\PROGRAM FILES (X86)\WINDOWS KITS\10\INCLUDE\10.0.10240.0\UCRT\CORECRT_MEMORY.H
C:\PROGRAM FILES (X86)\WINDOWS KITS\10\INCLUDE\10.0.10240.0\UCRT\CORECRT_MEMCPY_S.H
C:\PROGRAM FILES (X86)\WINDOWS KITS\10\INCLUDE\10.0.10240.0\UCRT\ERRNO.H
C:\PROGRAM FILES (X86)\VC\INCLUDE\VCRUNTIME_STRING.H
C:\PROGRAM FILES (X86)\WINDOWS KITS\10\INCLUDE\10.0.10240.0\UCRT\CORECRT_WSTRING.H
P:\LIBS\CEGUI-CEGUI-DEPENDENCIES-0ECDF3A9E49B\SRC\JPEG-8C\JPEGLIB.H
P:\LIBS\CEGUI-CEGUI-DEPENDENCIES-0ECDF3A9E49B\SRC\JPEG-8C\JMORECFG.H
P:\LIBS\CEGUI-CEGUI-DEPENDENCIES-0ECDF3A9E49B\SRC\JPEG-8C\JPEGINT.H
P:\LIBS\CEGUI-CEGUI-DEPENDENCIES-0ECDF3A9E49B\SRC\JPEG-8C\JERROR.H
^P:\LIBS\CEGUI-CEGUI-DEPENDENCIES-0ECDF3A9E49B\SRC\JPEG-8C\JDSAMPLE.C
P:\LIBS\CEGUI-CEGUI-DEPENDENCIES-0ECDF3A9E49B\SRC\JPEG-8C\JINCLUDE.H
P:\LIBS\CEGUI-CEGUI-DEPENDENCIES-0ECDF3A9E49B\SRC\JPEG-8C\JCONFIG.H
C:\PROGRAM FILES (X86)\WINDOWS KITS\10\INCLUDE\10.0.10240.0\UCRT\STDDEF.H
C:\PROGRAM FILES (X86)\WINDOWS KITS\10\INCLUDE\10.0.10240.0\UCRT\CORECRT.H
C:\PROGRAM FILES (X86)\VC\INCLUDE\VCRUNTIME.H
C:\PROGRAM FILES (X86)\VC\INCLUDE\SAL.H
C:\PROGRAM FILES (X86)\VC\INCLUDE\CONCURRENCYSAL.H
C:\PROGRAM FILES (X86)\VC\INCLUDE\VADEFS.H
C:\PROGRAM FILES (X86)\WINDOWS KITS\10\INCLUDE\10.0.10240.0\UCRT\STDLIB.H
C:\PROGRAM FILES (X86)\WINDOWS KITS\10\INCLUDE\10.0.10240.0\UCRT\CORECRT_MALLOC.H
C:\PROGRAM FILES (X86)\WINDOWS KITS\10\INCLUDE\10.0.10240.0\UCRT\CORECRT_SEARCH.H
C:\PROGRAM FILES (X86)\WINDOWS KITS\10\INCLUDE\10.0.10240.0\UCRT\CORECRT_WSTDLIB.H
C:\PROGRAM FILES (X86)\VC\INCLUDE\LIMITS.H
C:\PROGRAM FILES (X86)\WINDOWS KITS\10\INCLUDE\10.0.10240.0\UCRT\STDIO.H
C:\PROGRAM FILES (X86)\WINDOWS KITS\10\INCLUDE\10.0.10240.0\UCRT\CORECRT_WSTDIO.H
C:\PROGRAM FILES (X86)\WINDOWS KITS\10\INCLUDE\10.0.10240.0\UCRT\CORECRT_STDIO_CONFIG.H
C:\PROGRAM FILES (X86)\WINDOWS KITS\10\INCLUDE\10.0.10240.0\UCRT\STRING.H
C:\PROGRAM FILES (X86)\WINDOWS KITS\10\INCLUDE\10.0.10240.0\UCRT\CORECRT_MEMORY.H
C:\PROGRAM FILES (X86)\WINDOWS KITS\10\INCLUDE\10.0.10240.0\UCRT\CORECRT_MEMCPY_S.H
C:\PROGRAM FILES (X86)\WINDOWS KITS\10\INCLUDE\10.0.10240.0\UCRT\ERRNO.H
C:\PROGRAM FILES (X86)\VC\INCLUDE\VCRUNTIME_STRING.H
C:\PROGRAM FILES (X86)\WINDOWS KITS\10\INCLUDE\10.0.10240.0\UCRT\CORECRT_WSTRING.H
P:\LIBS\CEGUI-CEGUI-DEPENDENCIES-0ECDF3A9E49B\SRC\JPEG-8C\JPEGLIB.H
P:\LIBS\CEGUI-CEGUI-DEPENDENCIES-0ECDF3A9E49B\SRC\JPEG-8C\JMORECFG.H
P:\LIBS\CEGUI-CEGUI-DEPENDENCIES-0ECDF3A9E49B\SRC\JPEG-8C\JPEGINT.H
P:\LIBS\CEGUI-CEGUI-DEPENDENCIES-0ECDF3A9E49B\SRC\JPEG-8C\JERROR.H
^P:\LIBS\CEGUI-CEGUI-DEPENDENCIES-0ECDF3A9E49B\SRC\JPEG-8C\JDTRANS.C
P:\LIBS\CEGUI-CEGUI-DEPENDENCIES-0ECDF3A9E49B\SRC\JPEG-8C\JINCLUDE.H
P:\LIBS\CEGUI-CEGUI-DEPENDENCIES-0ECDF3A9E49B\SRC\JPEG-8C\JCONFIG.H
C:\PROGRAM FILES (X86)\WINDOWS KITS\10\INCLUDE\10.0.10240.0\UCRT\STDDEF.H
C:\PROGRAM FILES (X86)\WINDOWS KITS\10\INCLUDE\10.0.10240.0\UCRT\CORECRT.H
C:\PROGRAM FILES (X86)\VC\INCLUDE\VCRUNTIME.H
C:\PROGRAM FILES (X86)\VC\INCLUDE\SAL.H
C:\PROGRAM FILES (X86)\VC\INCLUDE\CONCURRENCYSAL.H
C:\PROGRAM FILES (X86)\VC\INCLUDE\VADEFS.H
C:\PROGRAM FILES (X86)\WINDOWS KITS\10\INCLUDE\10.0.10240.0\UCRT\STDLIB.H
C:\PROGRAM FILES (X86)\WINDOWS KITS\10\INCLUDE\10.0.10240.0\UCRT\CORECRT_MALLOC.H
C:\PROGRAM FILES (X86)\WINDOWS KITS\10\INCLUDE\10.0.10240.0\UCRT\CORECRT_SEARCH.H
C:\PROGRAM FILES (X86)\WINDOWS KITS\10\INCLUDE\10.0.10240.0\UCRT\CORECRT_WSTDLIB.H
C:\PROGRAM FILES (X86)\VC\INCLUDE\LIMITS.H
C:\PROGRAM FILES (X86)\WINDOWS KITS\10\INCLUDE\10.0.10240.0\UCRT\STDIO.H
C:\PROGRAM FILES (X86)\WINDOWS KITS\10\INCLUDE\10.0.10240.0\UCRT\CORECRT_WSTDIO.H
C:\PROGRAM FILES (X86)\WINDOWS KITS\10\INCLUDE\10.0.10240.0\UCRT\CORECRT_STDIO_CONFIG.H
C:\PROGRAM FILES (X86)\WINDOWS KITS\10\INCLUDE\10.0.10240.0\UCRT\STRING.H
C:\PROGRAM FILES (X86)\WINDOWS KITS\10\INCLUDE\10.0.10240.0\UCRT\CORECRT_MEMORY.H
C:\PROGRAM FILES (X86)\WINDOWS KITS\10\INCLUDE\10.0.10240.0\UCRT\CORECRT_MEMCPY_S.H
C:\PROGRAM FILES (X86)\WINDOWS KITS\10\INCLUDE\10.0.10240.0\UCRT\ERRNO.H
C:\PROGRAM FILES (X86)\VC\INCLUDE\VCRUNTIME_STRING.H
C:\PROGRAM FILES (X86)\WINDOWS KITS\10\INCLUDE\10.0.10240.0\UCRT\CORECRT_WSTRING.H
P:\LIBS\CEGUI-CEGUI-DEPENDENCIES-0ECDF3A9E49B\SRC\JPEG-8C\JPEGLIB.H
P:\LIBS\CEGUI-CEGUI-DEPENDENCIES-0ECDF3A9E49B\SRC\JPEG-8C\JMORECFG.H
P:\LIBS\CEGUI-CEGUI-DEPENDENCIES-0ECDF3A9E49B\SRC\JPEG-8C\JPEGINT.H
P:\LIBS\CEGUI-CEGUI-DEPENDENCIES-0ECDF3A9E49B\SRC\JPEG-8C\JERROR.H
^P:\LIBS\CEGUI-CEGUI-DEPENDENCIES-0ECDF3A9E49B\SRC\JPEG-8C\JERROR.C
P:\LIBS\CEGUI-CEGUI-DEPENDENCIES-0ECDF3A9E49B\SRC\JPEG-8C\JINCLUDE.H
P:\LIBS\CEGUI-CEGUI-DEPENDENCIES-0ECDF3A9E49B\SRC\JPEG-8C\JCONFIG.H
C:\PROGRAM FILES (X86)\WINDOWS KITS\10\INCLUDE\10.0.10240.0\UCRT\STDDEF.H
C:\PROGRAM FILES (X86)\WINDOWS KITS\10\INCLUDE\10.0.10240.0\UCRT\CORECRT.H
C:\PROGRAM FILES (X86)\VC\INCLUDE\VCRUNTIME.H
C:\PROGRAM FILES (X86)\VC\INCLUDE\SAL.H
C:\PROGRAM FILES (X86)\VC\INCLUDE\CONCURRENCYSAL.H
C:\PROGRAM FILES (X86)\VC\INCLUDE\VADEFS.H
C:\PROGRAM FILES (X86)\WINDOWS KITS\10\INCLUDE\10.0.10240.0\UCRT\STDLIB.H
C:\PROGRAM FILES (X86)\WINDOWS KITS\10\INCLUDE\10.0.10240.0\UCRT\CORECRT_MALLOC.H
C:\PROGRAM FILES (X86)\WINDOWS KITS\10\INCLUDE\10.0.10240.0\UCRT\CORECRT_SEARCH.H
C:\PROGRAM FILES (X86)\WINDOWS KITS\10\INCLUDE\10.0.10240.0\UCRT\CORECRT_WSTDLIB.H
C:\PROGRAM FILES (X86)\VC\INCLUDE\LIMITS.H
C:\PROGRAM FILES (X86)\WINDOWS KITS\10\INCLUDE\10.0.10240.0\UCRT\STDIO.H
C:\PROGRAM FILES (X86)\WINDOWS KITS\10\INCLUDE\10.0.10240.0\UCRT\CORECRT_WSTDIO.H
C:\PROGRAM FILES (X86)\WINDOWS KITS\10\INCLUDE\10.0.10240.0\UCRT\CORECRT_STDIO_CONFIG.H
C:\PROGRAM FILES (X86)\WINDOWS KITS\10\INCLUDE\10.0.10240.0\UCRT\STRING.H
C:\PROGRAM FILES (X86)\WINDOWS KITS\10\INCLUDE\10.0.10240.0\UCRT\CORECRT_MEMORY.H
C:\PROGRAM FILES (X86)\WINDOWS KITS\10\INCLUDE\10.0.10240.0\UCRT\CORECRT_MEMCPY_S.H
C:\PROGRAM FILES (X86)\WINDOWS KITS\10\INCLUDE\10.0.10240.0\UCRT\ERRNO.H
C:\PROGRAM FILES (X86)\VC\INCLUDE\VCRUNTIME_STRING.H
C:\PROGRAM FILES (X86)\WINDOWS KITS\10\INCLUDE\10.0.10240.0\UCRT\CORECRT_WSTRING.H
P:\LIBS\CEGUI-CEGUI-DEPENDENCIES-0ECDF3A9E49B\SRC\JPEG-8C\JPEGLIB.H
P:\LIBS\CEGUI-CEGUI-DEPENDENCIES-0ECDF3A9E49B\SRC\JPEG-8C\JMORECFG.H
P:\LIBS\CEGUI-CEGUI-DEPENDENCIES-0ECDF3A9E49B\SRC\JPEG-8C\JVERSION.H
P:\LIBS\CEGUI-CEGUI-DEPENDENCIES-0ECDF3A9E49B\SRC\JPEG-8C\JERROR.H
^P:\LIBS\CEGUI-CEGUI-DEPENDENCIES-0ECDF3A9E49B\SRC\JPEG-8C\JFDCTFLT.C
P:\LIBS\CEGUI-CEGUI-DEPENDENCIES-0ECDF3A9E49B\SRC\JPEG-8C\JINCLUDE.H
P:\LIBS\CEGUI-CEGUI-DEPENDENCIES-0ECDF3A9E49B\SRC\JPEG-8C\JCONFIG.H
C:\PROGRAM FILES (X86)\WINDOWS KITS\10\INCLUDE\10.0.10240.0\UCRT\STDDEF.H
C:\PROGRAM FILES (X86)\WINDOWS KITS\10\INCLUDE\10.0.10240.0\UCRT\CORECRT.H
C:\PROGRAM FILES (X86)\VC\INCLUDE\VCRUNTIME.H
C:\PROGRAM FILES (X86)\VC\INCLUDE\SAL.H
C:\PROGRAM FILES (X86)\VC\INCLUDE\CONCURRENCYSAL.H
C:\PROGRAM FILES (X86)\VC\INCLUDE\VADEFS.H
C:\PROGRAM FILES (X86)\WINDOWS KITS\10\INCLUDE\10.0.10240.0\UCRT\STDLIB.H
C:\PROGRAM FILES (X86)\WINDOWS KITS\10\INCLUDE\10.0.10240.0\UCRT\CORECRT_MALLOC.H
C:\PROGRAM FILES (X86)\WINDOWS KITS\10\INCLUDE\10.0.10240.0\UCRT\CORECRT_SEARCH.H
C:\PROGRAM FILES (X86)\WINDOWS KITS\10\INCLUDE\10.0.10240.0\UCRT\CORECRT_WSTDLIB.H
C:\PROGRAM FILES (X86)\VC\INCLUDE\LIMITS.H
C:\PROGRAM FILES (X86)\WINDOWS KITS\10\INCLUDE\10.0.10240.0\UCRT\STDIO.H
C:\PROGRAM FILES (X86)\WINDOWS KITS\10\INCLUDE\10.0.10240.0\UCRT\CORECRT_WSTDIO.H
C:\PROGRAM FILES (X86)\WINDOWS KITS\10\INCLUDE\10.0.10240.0\UCRT\CORECRT_STDIO_CONFIG.H
C:\PROGRAM FILES (X86)\WINDOWS KITS\10\INCLUDE\10.0.10240.0\UCRT\STRING.H
C:\PROGRAM FILES (X86)\WINDOWS KITS\10\INCLUDE\10.0.10240.0\UCRT\CORECRT_MEMORY.H
C:\PROGRAM FILES (X86)\WINDOWS KITS\10\INCLUDE\10.0.10240.0\UCRT\CORECRT_MEMCPY_S.H
C:\PROGRAM FILES (X86)\WINDOWS KITS\10\INCLUDE\10.0.10240.0\UCRT\ERRNO.H
C:\PROGRAM FILES (X86)\VC\INCLUDE\VCRUNTIME_STRING.H
C:\PROGRAM FILES (X86)\WINDOWS KITS\10\INCLUDE\10.0.10240.0\UCRT\CORECRT_WSTRING.H
P:\LIBS\CEGUI-CEGUI-DEPENDENCIES-0ECDF3A9E49B\SRC\JPEG-8C\JPEGLIB.H
P:\LIBS\CEGUI-CEGUI-DEPENDENCIES-0ECDF3A9E49B\SRC\JPEG-8C\JMORECFG.H
P:\LIBS\CEGUI-CEGUI-DEPENDENCIES-0ECDF3A9E49B\SRC\JPEG-8C\JPEGINT.H
P:\LIBS\CEGUI-CEGUI-DEPENDENCIES-0ECDF3A9E49B\SRC\JPEG-8C\JERROR.H
P:\LIBS\CEGUI-CEGUI-DEPENDENCIES-0ECDF3A9E49B\SRC\JPEG-8C\JDCT.H
^P:\LIBS\CEGUI-CEGUI-DEPENDENCIES-0ECDF3A9E49B\SRC\JPEG-8C\JFDCTFST.C
P:\LIBS\CEGUI-CEGUI-DEPENDENCIES-0ECDF3A9E49B\SRC\JPEG-8C\JINCLUDE.H
P:\LIBS\CEGUI-CEGUI-DEPENDENCIES-0ECDF3A9E49B\SRC\JPEG-8C\JCONFIG.H
C:\PROGRAM FILES (X86)\WINDOWS KITS\10\INCLUDE\10.0.10240.0\UCRT\STDDEF.H
C:\PROGRAM FILES (X86)\WINDOWS KITS\10\INCLUDE\10.0.10240.0\UCRT\CORECRT.H
C:\PROGRAM FILES (X86)\VC\INCLUDE\VCRUNTIME.H
C:\PROGRAM FILES (X86)\VC\INCLUDE\SAL.H
C:\PROGRAM FILES (X86)\VC\INCLUDE\CONCURRENCYSAL.H
C:\PROGRAM FILES (X86)\VC\INCLUDE\VADEFS.H
C:\PROGRAM FILES (X86)\WINDOWS KITS\10\INCLUDE\10.0.10240.0\UCRT\STDLIB.H
C:\PROGRAM FILES (X86)\WINDOWS KITS\10\INCLUDE\10.0.10240.0\UCRT\CORECRT_MALLOC.H
C:\PROGRAM FILES (X86)\WINDOWS KITS\10\INCLUDE\10.0.10240.0\UCRT\CORECRT_SEARCH.H
C:\PROGRAM FILES (X86)\WINDOWS KITS\10\INCLUDE\10.0.10240.0\UCRT\CORECRT_WSTDLIB.H
C:\PROGRAM FILES (X86)\VC\INCLUDE\LIMITS.H
C:\PROGRAM FILES (X86)\WINDOWS KITS\10\INCLUDE\10.0.10240.0\UCRT\STDIO.H
C:\PROGRAM FILES (X86)\WINDOWS KITS\10\INCLUDE\10.0.10240.0\UCRT\CORECRT_WSTDIO.H
C:\PROGRAM FILES (X86)\WINDOWS KITS\10\INCLUDE\10.0.10240.0\UCRT\CORECRT_STDIO_CONFIG.H
C:\PROGRAM FILES (X86)\WINDOWS KITS\10\INCLUDE\10.0.10240.0\UCRT\STRING.H
C:\PROGRAM FILES (X86)\WINDOWS KITS\10\INCLUDE\10.0.10240.0\UCRT\CORECRT_MEMORY.H
C:\PROGRAM FILES (X86)\WINDOWS KITS\10\INCLUDE\10.0.10240.0\UCRT\CORECRT_MEMCPY_S.H
C:\PROGRAM FILES (X86)\WINDOWS KITS\10\INCLUDE\10.0.10240.0\UCRT\ERRNO.H
C:\PROGRAM FILES (X86)\VC\INCLUDE\VCRUNTIME_STRING.H
C:\PROGRAM FILES (X86)\WINDOWS KITS\10\INCLUDE\10.0.10240.0\UCRT\CORECRT_WSTRING.H
P:\LIBS\CEGUI-CEGUI-DEPENDENCIES-0ECDF3A9E49B\SRC\JPEG-8C\JPEGLIB.H
P:\LIBS\CEGUI-CEGUI-DEPENDENCIES-0ECDF3A9E49B\SRC\JPEG-8C\JMORECFG.H
P:\LIBS\CEGUI-CEGUI-DEPENDENCIES-0ECDF3A9E49B\SRC\JPEG-8C\JPEGINT.H
P:\LIBS\CEGUI-CEGUI-DEPENDENCIES-0ECDF3A9E49B\SRC\JPEG-8C\JERROR.H
P:\LIBS\CEGUI-CEGUI-DEPENDENCIES-0ECDF3A9E49B\SRC\JPEG-8C\JDCT.H
^P:\LIBS\CEGUI-CEGUI-DEPENDENCIES-0ECDF3A9E49B\SRC\JPEG-8C\JFDCTINT.C
P:\LIBS\CEGUI-CEGUI-DEPENDENCIES-0ECDF3A9E49B\SRC\JPEG-8C\JINCLUDE.H
P:\LIBS\CEGUI-CEGUI-DEPENDENCIES-0ECDF3A9E49B\SRC\JPEG-8C\JCONFIG.H
C:\PROGRAM FILES (X86)\WINDOWS KITS\10\INCLUDE\10.0.10240.0\UCRT\STDDEF.H
C:\PROGRAM FILES (X86)\WINDOWS KITS\10\INCLUDE\10.0.10240.0\UCRT\CORECRT.H
C:\PROGRAM FILES (X86)\VC\INCLUDE\VCRUNTIME.H
C:\PROGRAM FILES (X86)\VC\INCLUDE\SAL.H
C:\PROGRAM FILES (X86)\VC\INCLUDE\CONCURRENCYSAL.H
C:\PROGRAM FILES (X86)\VC\INCLUDE\VADEFS.H
C:\PROGRAM FILES (X86)\WINDOWS KITS\10\INCLUDE\10.0.10240.0\UCRT\STDLIB.H
C:\PROGRAM FILES (X86)\WINDOWS KITS\10\INCLUDE\10.0.10240.0\UCRT\CORECRT_MALLOC.H
C:\PROGRAM FILES (X86)\WINDOWS KITS\10\INCLUDE\10.0.10240.0\UCRT\CORECRT_SEARCH.H
C:\PROGRAM FILES (X86)\WINDOWS KITS\10\INCLUDE\10.0.10240.0\UCRT\CORECRT_WSTDLIB.H
C:\PROGRAM FILES (X86)\VC\INCLUDE\LIMITS.H
C:\PROGRAM FILES (X86)\WINDOWS KITS\10\INCLUDE\10.0.10240.0\UCRT\STDIO.H
C:\PROGRAM FILES (X86)\WINDOWS KITS\10\INCLUDE\10.0.10240.0\UCRT\CORECRT_WSTDIO.H
C:\PROGRAM FILES (X86)\WINDOWS KITS\10\INCLUDE\10.0.10240.0\UCRT\CORECRT_STDIO_CONFIG.H
C:\PROGRAM FILES (X86)\WINDOWS KITS\10\INCLUDE\10.0.10240.0\UCRT\STRING.H
C:\PROGRAM FILES (X86)\WINDOWS KITS\10\INCLUDE\10.0.10240.0\UCRT\CORECRT_MEMORY.H
C:\PROGRAM FILES (X86)\WINDOWS KITS\10\INCLUDE\10.0.10240.0\UCRT\CORECRT_MEMCPY_S.H
C:\PROGRAM FILES (X86)\WINDOWS KITS\10\INCLUDE\10.0.10240.0\UCRT\ERRNO.H
C:\PROGRAM FILES (X86)\VC\INCLUDE\VCRUNTIME_STRING.H
C:\PROGRAM FILES (X86)\WINDOWS KITS\10\INCLUDE\10.0.10240.0\UCRT\CORECRT_WSTRING.H
P:\LIBS\CEGUI-CEGUI-DEPENDENCIES-0ECDF3A9E49B\SRC\JPEG-8C\JPEGLIB.H
P:\LIBS\CEGUI-CEGUI-DEPENDENCIES-0ECDF3A9E49B\SRC\JPEG-8C\JMORECFG.H
P:\LIBS\CEGUI-CEGUI-DEPENDENCIES-0ECDF3A9E49B\SRC\JPEG-8C\JPEGINT.H
P:\LIBS\CEGUI-CEGUI-DEPENDENCIES-0ECDF3A9E49B\SRC\JPEG-8C\JERROR.H
P:\LIBS\CEGUI-CEGUI-DEPENDENCIES-0ECDF3A9E49B\SRC\JPEG-8C\JDCT.H
^P:\LIBS\CEGUI-CEGUI-DEPENDENCIES-0ECDF3A9E49B\SRC\JPEG-8C\JIDCTFLT.C
P:\LIBS\CEGUI-CEGUI-DEPENDENCIES-0ECDF3A9E49B\SRC\JPEG-8C\JINCLUDE.H
P:\LIBS\CEGUI-CEGUI-DEPENDENCIES-0ECDF3A9E49B\SRC\JPEG-8C\JCONFIG.H
C:\PROGRAM FILES (X86)\WINDOWS KITS\10\INCLUDE\10.0.10240.0\UCRT\STDDEF.H
C:\PROGRAM FILES (X86)\WINDOWS KITS\10\INCLUDE\10.0.10240.0\UCRT\CORECRT.H
C:\PROGRAM FILES (X86)\VC\INCLUDE\VCRUNTIME.H
C:\PROGRAM FILES (X86)\VC\INCLUDE\SAL.H
C:\PROGRAM FILES (X86)\VC\INCLUDE\CONCURRENCYSAL.H
C:\PROGRAM FILES (X86)\VC\INCLUDE\VADEFS.H
C:\PROGRAM FILES (X86)\WINDOWS KITS\10\INCLUDE\10.0.10240.0\UCRT\STDLIB.H
C:\PROGRAM FILES (X86)\WINDOWS KITS\10\INCLUDE\10.0.10240.0\UCRT\CORECRT_MALLOC.H
C:\PROGRAM FILES (X86)\WINDOWS KITS\10\INCLUDE\10.0.10240.0\UCRT\CORECRT_SEARCH.H
C:\PROGRAM FILES (X86)\WINDOWS KITS\10\INCLUDE\10.0.10240.0\UCRT\CORECRT_WSTDLIB.H
C:\PROGRAM FILES (X86)\VC\INCLUDE\LIMITS.H
C:\PROGRAM FILES (X86)\WINDOWS KITS\10\INCLUDE\10.0.10240.0\UCRT\STDIO.H
C:\PROGRAM FILES (X86)\WINDOWS KITS\10\INCLUDE\10.0.10240.0\UCRT\CORECRT_WSTDIO.H
C:\PROGRAM FILES (X86)\WINDOWS KITS\10\INCLUDE\10.0.10240.0\UCRT\CORECRT_STDIO_CONFIG.H
C:\PROGRAM FILES (X86)\WINDOWS KITS\10\INCLUDE\10.0.10240.0\UCRT\STRING.H
C:\PROGRAM FILES (X86)\WINDOWS KITS\10\INCLUDE\10.0.10240.0\UCRT\CORECRT_MEMORY.H
C:\PROGRAM FILES (X86)\WINDOWS KITS\10\INCLUDE\10.0.10240.0\UCRT\CORECRT_MEMCPY_S.H
C:\PROGRAM FILES (X86)\WINDOWS KITS\10\INCLUDE\10.0.10240.0\UCRT\ERRNO.H
C:\PROGRAM FILES (X86)\VC\INCLUDE\VCRUNTIME_STRING.H
C:\PROGRAM FILES (X86)\WINDOWS KITS\10\INCLUDE\10.0.10240.0\UCRT\CORECRT_WSTRING.H
P:\LIBS\CEGUI-CEGUI-DEPENDENCIES-0ECDF3A9E49B\SRC\JPEG-8C\JPEGLIB.H
P:\LIBS\CEGUI-CEGUI-DEPENDENCIES-0ECDF3A9E49B\SRC\JPEG-8C\JMORECFG.H
P:\LIBS\CEGUI-CEGUI-DEPENDENCIES-0ECDF3A9E49B\SRC\JPEG-8C\JPEGINT.H
P:\LIBS\CEGUI-CEGUI-DEPENDENCIES-0ECDF3A9E49B\SRC\JPEG-8C\JERROR.H
P:\LIBS\CEGUI-CEGUI-DEPENDENCIES-0ECDF3A9E49B\SRC\JPEG-8C\JDCT.H
^P:\LIBS\CEGUI-CEGUI-DEPENDENCIES-0ECDF3A9E49B\SRC\JPEG-8C\JIDCTFST.C
P:\LIBS\CEGUI-CEGUI-DEPENDENCIES-0ECDF3A9E49B\SRC\JPEG-8C\JINCLUDE.H
P:\LIBS\CEGUI-CEGUI-DEPENDENCIES-0ECDF3A9E49B\SRC\JPEG-8C\JCONFIG.H
C:\PROGRAM FILES (X86)\WINDOWS KITS\10\INCLUDE\10.0.10240.0\UCRT\STDDEF.H
C:\PROGRAM FILES (X86)\WINDOWS KITS\10\INCLUDE\10.0.10240.0\UCRT\CORECRT.H
C:\PROGRAM FILES (X86)\VC\INCLUDE\VCRUNTIME.H
C:\PROGRAM FILES (X86)\VC\INCLUDE\SAL.H
C:\PROGRAM FILES (X86)\VC\INCLUDE\CONCURRENCYSAL.H
C:\PROGRAM FILES (X86)\VC\INCLUDE\VADEFS.H
C:\PROGRAM FILES (X86)\WINDOWS KITS\10\INCLUDE\10.0.10240.0\UCRT\STDLIB.H
C:\PROGRAM FILES (X86)\WINDOWS KITS\10\INCLUDE\10.0.10240.0\UCRT\CORECRT_MALLOC.H
C:\PROGRAM FILES (X86)\WINDOWS KITS\10\INCLUDE\10.0.10240.0\UCRT\CORECRT_SEARCH.H
C:\PROGRAM FILES (X86)\WINDOWS KITS\10\INCLUDE\10.0.10240.0\UCRT\CORECRT_WSTDLIB.H
C:\PROGRAM FILES (X86)\VC\INCLUDE\LIMITS.H
C:\PROGRAM FILES (X86)\WINDOWS KITS\10\INCLUDE\10.0.10240.0\UCRT\STDIO.H
C:\PROGRAM FILES (X86)\WINDOWS KITS\10\INCLUDE\10.0.10240.0\UCRT\CORECRT_WSTDIO.H
C:\PROGRAM FILES (X86)\WINDOWS KITS\10\INCLUDE\10.0.10240.0\UCRT\CORECRT_STDIO_CONFIG.H
C:\PROGRAM FILES (X86)\WINDOWS KITS\10\INCLUDE\10.0.10240.0\UCRT\STRING.H
C:\PROGRAM FILES (X86)\WINDOWS KITS\10\INCLUDE\10.0.10240.0\UCRT\CORECRT_MEMORY.H
C:\PROGRAM FILES (X86)\WINDOWS KITS\10\INCLUDE\10.0.10240.0\UCRT\CORECRT_MEMCPY_S.H
C:\PROGRAM FILES (X86)\WINDOWS KITS\10\INCLUDE\10.0.10240.0\UCRT\ERRNO.H
C:\PROGRAM FILES (X86)\VC\INCLUDE\VCRUNTIME_STRING.H
C:\PROGRAM FILES (X86)\WINDOWS KITS\10\INCLUDE\10.0.10240.0\UCRT\CORECRT_WSTRING.H
P:\LIBS\CEGUI-CEGUI-DEPENDENCIES-0ECDF3A9E49B\SRC\JPEG-8C\JPEGLIB.H
P:\LIBS\CEGUI-CEGUI-DEPENDENCIES-0ECDF3A9E49B\SRC\JPEG-8C\JMORECFG.H
P:\LIBS\CEGUI-CEGUI-DEPENDENCIES-0ECDF3A9E49B\SRC\JPEG-8C\JPEGINT.H
P:\LIBS\CEGUI-CEGUI-DEPENDENCIES-0ECDF3A9E49B\SRC\JPEG-8C\JERROR.H
P:\LIBS\CEGUI-CEGUI-DEPENDENCIES-0ECDF3A9E49B\SRC\JPEG-8C\JDCT.H
^P:\LIBS\CEGUI-CEGUI-DEPENDENCIES-0ECDF3A9E49B\SRC\JPEG-8C\JIDCTINT.C
P:\LIBS\CEGUI-CEGUI-DEPENDENCIES-0ECDF3A9E49B\SRC\JPEG-8C\JINCLUDE.H
P:\LIBS\CEGUI-CEGUI-DEPENDENCIES-0ECDF3A9E49B\SRC\JPEG-8C\JCONFIG.H
C:\PROGRAM FILES (X86)\WINDOWS KITS\10\INCLUDE\10.0.10240.0\UCRT\STDDEF.H
C:\PROGRAM FILES (X86)\WINDOWS KITS\10\INCLUDE\10.0.10240.0\UCRT\CORECRT.H
C:\PROGRAM FILES (X86)\VC\INCLUDE\VCRUNTIME.H
C:\PROGRAM FILES (X86)\VC\INCLUDE\SAL.H
C:\PROGRAM FILES (X86)\VC\INCLUDE\CONCURRENCYSAL.H
C:\PROGRAM FILES (X86)\VC\INCLUDE\VADEFS.H
C:\PROGRAM FILES (X86)\WINDOWS KITS\10\INCLUDE\10.0.10240.0\UCRT\STDLIB.H
C:\PROGRAM FILES (X86)\WINDOWS KITS\10\INCLUDE\10.0.10240.0\UCRT\CORECRT_MALLOC.H
C:\PROGRAM FILES (X86)\WINDOWS KITS\10\INCLUDE\10.0.10240.0\UCRT\CORECRT_SEARCH.H
C:\PROGRAM FILES (X86)\WINDOWS KITS\10\INCLUDE\10.0.10240.0\UCRT\CORECRT_WSTDLIB.H
C:\PROGRAM FILES (X86)\VC\INCLUDE\LIMITS.H
C:\PROGRAM FILES (X86)\WINDOWS KITS\10\INCLUDE\10.0.10240.0\UCRT\STDIO.H
C:\PROGRAM FILES (X86)\WINDOWS KITS\10\INCLUDE\10.0.10240.0\UCRT\CORECRT_WSTDIO.H
C:\PROGRAM FILES (X86)\WINDOWS KITS\10\INCLUDE\10.0.10240.0\UCRT\CORECRT_STDIO_CONFIG.H
C:\PROGRAM FILES (X86)\WINDOWS KITS\10\INCLUDE\10.0.10240.0\UCRT\STRING.H
C:\PROGRAM FILES (X86)\WINDOWS KITS\10\INCLUDE\10.0.10240.0\UCRT\CORECRT_MEMORY.H
C:\PROGRAM FILES (X86)\WINDOWS KITS\10\INCLUDE\10.0.10240.0\UCRT\CORECRT_MEMCPY_S.H
C:\PROGRAM FILES (X86)\WINDOWS KITS\10\INCLUDE\10.0.10240.0\UCRT\ERRNO.H
C:\PROGRAM FILES (X86)\VC\INCLUDE\VCRUNTIME_STRING.H
C:\PROGRAM FILES (X86)\WINDOWS KITS\10\INCLUDE\10.0.10240.0\UCRT\CORECRT_WSTRING.H
P:\LIBS\CEGUI-CEGUI-DEPENDENCIES-0ECDF3A9E49B\SRC\JPEG-8C\JPEGLIB.H
P:\LIBS\CEGUI-CEGUI-DEPENDENCIES-0ECDF3A9E49B\SRC\JPEG-8C\JMORECFG.H
P:\LIBS\CEGUI-CEGUI-DEPENDENCIES-0ECDF3A9E49B\SRC\JPEG-8C\JPEGINT.H
P:\LIBS\CEGUI-CEGUI-DEPENDENCIES-0ECDF3A9E49B\SRC\JPEG-8C\JERROR.H
P:\LIBS\CEGUI-CEGUI-DEPENDENCIES-0ECDF3A9E49B\SRC\JPEG-8C\JDCT.H
^P:\LIBS\CEGUI-CEGUI-DEPENDENCIES-0ECDF3A9E49B\SRC\JPEG-8C\JMEMMGR.C
P:\LIBS\CEGUI-CEGUI-DEPENDENCIES-0ECDF3A9E49B\SRC\JPEG-8C\JINCLUDE.H
P:\LIBS\CEGUI-CEGUI-DEPENDENCIES-0ECDF3A9E49B\SRC\JPEG-8C\JCONFIG.H
C:\PROGRAM FILES (X86)\WINDOWS KITS\10\INCLUDE\10.0.10240.0\UCRT\STDDEF.H
C:\PROGRAM FILES (X86)\WINDOWS KITS\10\INCLUDE\10.0.10240.0\UCRT\CORECRT.H
C:\PROGRAM FILES (X86)\VC\INCLUDE\VCRUNTIME.H
C:\PROGRAM FILES (X86)\VC\INCLUDE\SAL.H
C:\PROGRAM FILES (X86)\VC\INCLUDE\CONCURRENCYSAL.H
C:\PROGRAM FILES (X86)\VC\INCLUDE\VADEFS.H
C:\PROGRAM FILES (X86)\WINDOWS KITS\10\INCLUDE\10.0.10240.0\UCRT\STDLIB.H
C:\PROGRAM FILES (X86)\WINDOWS KITS\10\INCLUDE\10.0.10240.0\UCRT\CORECRT_MALLOC.H
C:\PROGRAM FILES (X86)\WINDOWS KITS\10\INCLUDE\10.0.10240.0\UCRT\CORECRT_SEARCH.H
C:\PROGRAM FILES (X86)\WINDOWS KITS\10\INCLUDE\10.0.10240.0\UCRT\CORECRT_WSTDLIB.H
C:\PROGRAM FILES (X86)\VC\INCLUDE\LIMITS.H
C:\PROGRAM FILES (X86)\WINDOWS KITS\10\INCLUDE\10.0.10240.0\UCRT\STDIO.H
C:\PROGRAM FILES (X86)\WINDOWS KITS\10\INCLUDE\10.0.10240.0\UCRT\CORECRT_WSTDIO.H
C:\PROGRAM FILES (X86)\WINDOWS KITS\10\INCLUDE\10.0.10240.0\UCRT\CORECRT_STDIO_CONFIG.H
C:\PROGRAM FILES (X86)\WINDOWS KITS\10\INCLUDE\10.0.10240.0\UCRT\STRING.H
C:\PROGRAM FILES (X86)\WINDOWS KITS\10\INCLUDE\10.0.10240.0\UCRT\CORECRT_MEMORY.H
C:\PROGRAM FILES (X86)\WINDOWS KITS\10\INCLUDE\10.0.10240.0\UCRT\CORECRT_MEMCPY_S.H
C:\PROGRAM FILES (X86)\WINDOWS KITS\10\INCLUDE\10.0.10240.0\UCRT\ERRNO.H
C:\PROGRAM FILES (X86)\VC\INCLUDE\VCRUNTIME_STRING.H
C:\PROGRAM FILES (X86)\WINDOWS KITS\10\INCLUDE\10.0.10240.0\UCRT\CORECRT_WSTRING.H
P:\LIBS\CEGUI-CEGUI-DEPENDENCIES-0ECDF3A9E49B\SRC\JPEG-8C\JPEGLIB.H
P:\LIBS\CEGUI-CEGUI-DEPENDENCIES-0ECDF3A9E49B\SRC\JPEG-8C\JMORECFG.H
P:\LIBS\CEGUI-CEGUI-DEPENDENCIES-0ECDF3A9E49B\SRC\JPEG-8C\JPEGINT.H
P:\LIBS\CEGUI-CEGUI-DEPENDENCIES-0ECDF3A9E49B\SRC\JPEG-8C\JERROR.H
P:\LIBS\CEGUI-CEGUI-DEPENDENCIES-0ECDF3A9E49B\SRC\JPEG-8C\JMEMSYS.H
^P:\LIBS\CEGUI-CEGUI-DEPENDENCIES-0ECDF3A9E49B\SRC\JPEG-8C\JMEMNOBS.C
P:\LIBS\CEGUI-CEGUI-DEPENDENCIES-0ECDF3A9E49B\SRC\JPEG-8C\JINCLUDE.H
P:\LIBS\CEGUI-CEGUI-DEPENDENCIES-0ECDF3A9E49B\SRC\JPEG-8C\JCONFIG.H
C:\PROGRAM FILES (X86)\WINDOWS KITS\10\INCLUDE\10.0.10240.0\UCRT\STDDEF.H
C:\PROGRAM FILES (X86)\WINDOWS KITS\10\INCLUDE\10.0.10240.0\UCRT\CORECRT.H
C:\PROGRAM FILES (X86)\VC\INCLUDE\VCRUNTIME.H
C:\PROGRAM FILES (X86)\VC\INCLUDE\SAL.H
C:\PROGRAM FILES (X86)\VC\INCLUDE\CONCURRENCYSAL.H
C:\PROGRAM FILES (X86)\VC\INCLUDE\VADEFS.H
C:\PROGRAM FILES (X86)\WINDOWS KITS\10\INCLUDE\10.0.10240.0\UCRT\STDLIB.H
C:\PROGRAM FILES (X86)\WINDOWS KITS\10\INCLUDE\10.0.10240.0\UCRT\CORECRT_MALLOC.H
C:\PROGRAM FILES (X86)\WINDOWS KITS\10\INCLUDE\10.0.10240.0\UCRT\CORECRT_SEARCH.H
C:\PROGRAM FILES (X86)\WINDOWS KITS\10\INCLUDE\10.0.10240.0\UCRT\CORECRT_WSTDLIB.H
C:\PROGRAM FILES (X86)\VC\INCLUDE\LIMITS.H
C:\PROGRAM FILES (X86)\WINDOWS KITS\10\INCLUDE\10.0.10240.0\UCRT\STDIO.H
C:\PROGRAM FILES (X86)\WINDOWS KITS\10\INCLUDE\10.0.10240.0\UCRT\CORECRT_WSTDIO.H
C:\PROGRAM FILES (X86)\WINDOWS KITS\10\INCLUDE\10.0.10240.0\UCRT\CORECRT_STDIO_CONFIG.H
C:\PROGRAM FILES (X86)\WINDOWS KITS\10\INCLUDE\10.0.10240.0\UCRT\STRING.H
C:\PROGRAM FILES (X86)\WINDOWS KITS\10\INCLUDE\10.0.10240.0\UCRT\CORECRT_MEMORY.H
C:\PROGRAM FILES (X86)\WINDOWS KITS\10\INCLUDE\10.0.10240.0\UCRT\CORECRT_MEMCPY_S.H
C:\PROGRAM FILES (X86)\WINDOWS KITS\10\INCLUDE\10.0.10240.0\UCRT\ERRNO.H
C:\PROGRAM FILES (X86)\VC\INCLUDE\VCRUNTIME_STRING.H
C:\PROGRAM FILES (X86)\WINDOWS KITS\10\INCLUDE\10.0.10240.0\UCRT\CORECRT_WSTRING.H
P:\LIBS\CEGUI-CEGUI-DEPENDENCIES-0ECDF3A9E49B\SRC\JPEG-8C\JPEGLIB.H
P:\LIBS\CEGUI-CEGUI-DEPENDENCIES-0ECDF3A9E49B\SRC\JPEG-8C\JMORECFG.H
P:\LIBS\CEGUI-CEGUI-DEPENDENCIES-0ECDF3A9E49B\SRC\JPEG-8C\JPEGINT.H
P:\LIBS\CEGUI-CEGUI-DEPENDENCIES-0ECDF3A9E49B\SRC\JPEG-8C\JERROR.H
P:\LIBS\CEGUI-CEGUI-DEPENDENCIES-0ECDF3A9E49B\SRC\JPEG-8C\JMEMSYS.H
^P:\LIBS\CEGUI-CEGUI-DEPENDENCIES-0ECDF3A9E49B\SRC\JPEG-8C\JQUANT1.C
P:\LIBS\CEGUI-CEGUI-DEPENDENCIES-0ECDF3A9E49B\SRC\JPEG-8C\JINCLUDE.H
P:\LIBS\CEGUI-CEGUI-DEPENDENCIES-0ECDF3A9E49B\SRC\JPEG-8C\JCONFIG.H
C:\PROGRAM FILES (X86)\WINDOWS KITS\10\INCLUDE\10.0.10240.0\UCRT\STDDEF.H
C:\PROGRAM FILES (X86)\WINDOWS KITS\10\INCLUDE\10.0.10240.0\UCRT\CORECRT.H
C:\PROGRAM FILES (X86)\VC\INCLUDE\VCRUNTIME.H
C:\PROGRAM FILES (X86)\VC\INCLUDE\SAL.H
C:\PROGRAM FILES (X86)\VC\INCLUDE\CONCURRENCYSAL.H
C:\PROGRAM FILES (X86)\VC\INCLUDE\VADEFS.H
C:\PROGRAM FILES (X86)\WINDOWS KITS\10\INCLUDE\10.0.10240.0\UCRT\STDLIB.H
C:\PROGRAM FILES (X86)\WINDOWS KITS\10\INCLUDE\10.0.10240.0\UCRT\CORECRT_MALLOC.H
C:\PROGRAM FILES (X86)\WINDOWS KITS\10\INCLUDE\10.0.10240.0\UCRT\CORECRT_SEARCH.H
C:\PROGRAM FILES (X86)\WINDOWS KITS\10\INCLUDE\10.0.10240.0\UCRT\CORECRT_WSTDLIB.H
C:\PROGRAM FILES (X86)\VC\INCLUDE\LIMITS.H
C:\PROGRAM FILES (X86)\WINDOWS KITS\10\INCLUDE\10.0.10240.0\UCRT\STDIO.H
C:\PROGRAM FILES (X86)\WINDOWS KITS\10\INCLUDE\10.0.10240.0\UCRT\CORECRT_WSTDIO.H
C:\PROGRAM FILES (X86)\WINDOWS KITS\10\INCLUDE\10.0.10240.0\UCRT\CORECRT_STDIO_CONFIG.H
C:\PROGRAM FILES (X86)\WINDOWS KITS\10\INCLUDE\10.0.10240.0\UCRT\STRING.H
C:\PROGRAM FILES (X86)\WINDOWS KITS\10\INCLUDE\10.0.10240.0\UCRT\CORECRT_MEMORY.H
C:\PROGRAM FILES (X86)\WINDOWS KITS\10\INCLUDE\10.0.10240.0\UCRT\CORECRT_MEMCPY_S.H
C:\PROGRAM FILES (X86)\WINDOWS KITS\10\INCLUDE\10.0.10240.0\UCRT\ERRNO.H
C:\PROGRAM FILES (X86)\VC\INCLUDE\VCRUNTIME_STRING.H
C:\PROGRAM FILES (X86)\WINDOWS KITS\10\INCLUDE\10.0.10240.0\UCRT\CORECRT_WSTRING.H
P:\LIBS\CEGUI-CEGUI-DEPENDENCIES-0ECDF3A9E49B\SRC\JPEG-8C\JPEGLIB.H
P:\LIBS\CEGUI-CEGUI-DEPENDENCIES-0ECDF3A9E49B\SRC\JPEG-8C\JMORECFG.H
P:\LIBS\CEGUI-CEGUI-DEPENDENCIES-0ECDF3A9E49B\SRC\JPEG-8C\JPEGINT.H
P:\LIBS\CEGUI-CEGUI-DEPENDENCIES-0ECDF3A9E49B\SRC\JPEG-8C\JERROR.H
^P:\LIBS\CEGUI-CEGUI-DEPENDENCIES-0ECDF3A9E49B\SRC\JPEG-8C\JQUANT2.C
P:\LIBS\CEGUI-CEGUI-DEPENDENCIES-0ECDF3A9E49B\SRC\JPEG-8C\JINCLUDE.H
P:\LIBS\CEGUI-CEGUI-DEPENDENCIES-0ECDF3A9E49B\SRC\JPEG-8C\JCONFIG.H
C:\PROGRAM FILES (X86)\WINDOWS KITS\10\INCLUDE\10.0.10240.0\UCRT\STDDEF.H
C:\PROGRAM FILES (X86)\WINDOWS KITS\10\INCLUDE\10.0.10240.0\UCRT\CORECRT.H
C:\PROGRAM FILES (X86)\VC\INCLUDE\VCRUNTIME.H
C:\PROGRAM FILES (X86)\VC\INCLUDE\SAL.H
C:\PROGRAM FILES (X86)\VC\INCLUDE\CONCURRENCYSAL.H
C:\PROGRAM FILES (X86)\VC\INCLUDE\VADEFS.H
C:\PROGRAM FILES (X86)\WINDOWS KITS\10\INCLUDE\10.0.10240.0\UCRT\STDLIB.H
C:\PROGRAM FILES (X86)\WINDOWS KITS\10\INCLUDE\10.0.10240.0\UCRT\CORECRT_MALLOC.H
C:\PROGRAM FILES (X86)\WINDOWS KITS\10\INCLUDE\10.0.10240.0\UCRT\CORECRT_SEARCH.H
C:\PROGRAM FILES (X86)\WINDOWS KITS\10\INCLUDE\10.0.10240.0\UCRT\CORECRT_WSTDLIB.H
C:\PROGRAM FILES (X86)\VC\INCLUDE\LIMITS.H
C:\PROGRAM FILES (X86)\WINDOWS KITS\10\INCLUDE\10.0.10240.0\UCRT\STDIO.H
C:\PROGRAM FILES (X86)\WINDOWS KITS\10\INCLUDE\10.0.10240.0\UCRT\CORECRT_WSTDIO.H
C:\PROGRAM FILES (X86)\WINDOWS KITS\10\INCLUDE\10.0.10240.0\UCRT\CORECRT_STDIO_CONFIG.H
C:\PROGRAM FILES (X86)\WINDOWS KITS\10\INCLUDE\10.0.10240.0\UCRT\STRING.H
C:\PROGRAM FILES (X86)\WINDOWS KITS\10\INCLUDE\10.0.10240.0\UCRT\CORECRT_MEMORY.H
C:\PROGRAM FILES (X86)\WINDOWS KITS\10\INCLUDE\10.0.10240.0\UCRT\CORECRT_MEMCPY_S.H
C:\PROGRAM FILES (X86)\WINDOWS KITS\10\INCLUDE\10.0.10240.0\UCRT\ERRNO.H
C:\PROGRAM FILES (X86)\VC\INCLUDE\VCRUNTIME_STRING.H
C:\PROGRAM FILES (X86)\WINDOWS KITS\10\INCLUDE\10.0.10240.0\UCRT\CORECRT_WSTRING.H
P:\LIBS\CEGUI-CEGUI-DEPENDENCIES-0ECDF3A9E49B\SRC\JPEG-8C\JPEGLIB.H
P:\LIBS\CEGUI-CEGUI-DEPENDENCIES-0ECDF3A9E49B\SRC\JPEG-8C\JMORECFG.H
P:\LIBS\CEGUI-CEGUI-DEPENDENCIES-0ECDF3A9E49B\SRC\JPEG-8C\JPEGINT.H
P:\LIBS\CEGUI-CEGUI-DEPENDENCIES-0ECDF3A9E49B\SRC\JPEG-8C\JERROR.H
^P:\LIBS\CEGUI-CEGUI-DEPENDENCIES-0ECDF3A9E49B\SRC\JPEG-8C\JUTILS.C
P:\LIBS\CEGUI-CEGUI-DEPENDENCIES-0ECDF3A9E49B\SRC\JPEG-8C\JINCLUDE.H
P:\LIBS\CEGUI-CEGUI-DEPENDENCIES-0ECDF3A9E49B\SRC\JPEG-8C\JCONFIG.H
C:\PROGRAM FILES (X86)\WINDOWS KITS\10\INCLUDE\10.0.10240.0\UCRT\STDDEF.H
C:\PROGRAM FILES (X86)\WINDOWS KITS\10\INCLUDE\10.0.10240.0\UCRT\CORECRT.H
C:\PROGRAM FILES (X86)\VC\INCLUDE\VCRUNTIME.H
C:\PROGRAM FILES (X86)\VC\INCLUDE\SAL.H
C:\PROGRAM FILES (X86)\VC\INCLUDE\CONCURRENCYSAL.H
C:\PROGRAM FILES (X86)\VC\INCLUDE\VADEFS.H
C:\PROGRAM FILES (X86)\WINDOWS KITS\10\INCLUDE\10.0.10240.0\UCRT\STDLIB.H
C:\PROGRAM FILES (X86)\WINDOWS KITS\10\INCLUDE\10.0.10240.0\UCRT\CORECRT_MALLOC.H
C:\PROGRAM FILES (X86)\WINDOWS KITS\10\INCLUDE\10.0.10240.0\UCRT\CORECRT_SEARCH.H
C:\PROGRAM FILES (X86)\WINDOWS KITS\10\INCLUDE\10.0.10240.0\UCRT\CORECRT_WSTDLIB.H
C:\PROGRAM FILES (X86)\VC\INCLUDE\LIMITS.H
C:\PROGRAM FILES (X86)\WINDOWS KITS\10\INCLUDE\10.0.10240.0\UCRT\STDIO.H
C:\PROGRAM FILES (X86)\WINDOWS KITS\10\INCLUDE\10.0.10240.0\UCRT\CORECRT_WSTDIO.H
C:\PROGRAM FILES (X86)\WINDOWS KITS\10\INCLUDE\10.0.10240.0\UCRT\CORECRT_STDIO_CONFIG.H
C:\PROGRAM FILES (X86)\WINDOWS KITS\10\INCLUDE\10.0.10240.0\UCRT\STRING.H
C:\PROGRAM FILES (X86)\WINDOWS KITS\10\INCLUDE\10.0.10240.0\UCRT\CORECRT_MEMORY.H
C:\PROGRAM FILES (X86)\WINDOWS KITS\10\INCLUDE\10.0.10240.0\UCRT\CORECRT_MEMCPY_S.H
C:\PROGRAM FILES (X86)\WINDOWS KITS\10\INCLUDE\10.0.10240.0\UCRT\ERRNO.H
C:\PROGRAM FILES (X86)\VC\INCLUDE\VCRUNTIME_STRING.H
C:\PROGRAM FILES (X86)\WINDOWS KITS\10\INCLUDE\10.0.10240.0\UCRT\CORECRT_WSTRING.H
P:\LIBS\CEGUI-CEGUI-DEPENDENCIES-0ECDF3A9E49B\SRC\JPEG-8C\JPEGLIB.H
P:\LIBS\CEGUI-CEGUI-DEPENDENCIES-0ECDF3A9E49B\SRC\JPEG-8C\JMORECFG.H
P:\LIBS\CEGUI-CEGUI-DEPENDENCIES-0ECDF3A9E49B\SRC\JPEG-8C\JPEGINT.H
P:\LIBS\CEGUI-CEGUI-DEPENDENCIES-0ECDF3A9E49B\SRC\JPEG-8C\JERROR.H
