^P:\LIBS\CEGUI-0.8.7\CEGUI\SRC\WINDOWRENDERERSETS\CORE\BUTTON.CPP|P:\LIBS\CEGUI-0.8.7\CEGUI\SRC\WINDOWRENDERERSETS\CORE\DEFAULT.CPP|P:\LIBS\CEGUI-0.8.7\CEGUI\SRC\WINDOWRENDERERSETS\CORE\EDITBOX.CPP|P:\LIBS\CEGUI-0.8.7\CEGUI\SRC\WINDOWRENDERERSETS\CORE\FRAMEWINDOW.CPP|P:\LIBS\CEGUI-0.8.7\CEGUI\SRC\WINDOWRENDERERSETS\CORE\ITEMENTRY.CPP|P:\LIBS\CEGUI-0.8.7\CEGUI\SRC\WINDOWRENDERERSETS\CORE\ITEMLISTBOX.CPP|P:\LIBS\CEGUI-0.8.7\CEGUI\SRC\WINDOWRENDERERSETS\CORE\LISTBOX.CPP|P:\LIBS\CEGUI-0.8.7\CEGUI\SRC\WINDOWRENDERERSETS\CORE\LISTHEADER.CPP|P:\LIBS\CEGUI-0.8.7\CEGUI\SRC\WINDOWRENDERERSETS\CORE\LISTHEADERSEGMENT.CPP|P:\LIBS\CEGUI-0.8.7\CEGUI\SRC\WINDOWRENDERERSETS\CORE\MENUBAR.CPP|P:\LIBS\CEGUI-0.8.7\CEGUI\SRC\WINDOWRENDERERSETS\CORE\MENUITEM.CPP|P:\LIBS\CEGUI-0.8.7\CEGUI\SRC\WINDOWRENDERERSETS\CORE\MODULE.CPP|P:\LIBS\CEGUI-0.8.7\CEGUI\SRC\WINDOWRENDERERSETS\CORE\MULTICOLUMNLIST.CPP|P:\LIBS\CEGUI-0.8.7\CEGUI\SRC\WINDOWRENDERERSETS\CORE\MULTILINEEDITBOX.CPP|P:\LIBS\CEGUI-0.8.7\CEGUI\SRC\WINDOWRENDERERSETS\CORE\POPUPMENU.CPP|P:\LIBS\CEGUI-0.8.7\CEGUI\SRC\WINDOWRENDERERSETS\CORE\PROGRESSBAR.CPP|P:\LIBS\CEGUI-0.8.7\CEGUI\SRC\WINDOWRENDERERSETS\CORE\SCROLLABLEPANE.CPP|P:\LIBS\CEGUI-0.8.7\CEGUI\SRC\WINDOWRENDERERSETS\CORE\SCROLLBAR.CPP|P:\LIBS\CEGUI-0.8.7\CEGUI\SRC\WINDOWRENDERERSETS\CORE\SLIDER.CPP|P:\LIBS\CEGUI-0.8.7\CEGUI\SRC\WINDOWRENDERERSETS\CORE\STATIC.CPP|P:\LIBS\CEGUI-0.8.7\CEGUI\SRC\WINDOWRENDERERSETS\CORE\STATICIMAGE.CPP|P:\LIBS\CEGUI-0.8.7\CEGUI\SRC\WINDOWRENDERERSETS\CORE\STATICTEXT.CPP|P:\LIBS\CEGUI-0.8.7\CEGUI\SRC\WINDOWRENDERERSETS\CORE\TABBUTTON.CPP|P:\LIBS\CEGUI-0.8.7\CEGUI\SRC\WINDOWRENDERERSETS\CORE\TABCONTROL.CPP|P:\LIBS\CEGUI-0.8.7\CEGUI\SRC\WINDOWRENDERERSETS\CORE\TITLEBAR.CPP|P:\LIBS\CEGUI-0.8.7\CEGUI\SRC\WINDOWRENDERERSETS\CORE\TOGGLEBUTTON.CPP|P:\LIBS\CEGUI-0.8.7\CEGUI\SRC\WINDOWRENDERERSETS\CORE\TOOLTIP.CPP|P:\LIBS\CEGUI-0.8.7\CEGUI\SRC\WINDOWRENDERERSETS\CORE\TREE.CPP
P:\LIBS\CEGUI-0.8.7\BUILD\CEGUI\SRC\WINDOWRENDERERSETS\CORE\CEGUICOREWINDOWRENDERERSET.DIR\DEBUG\LISTHEADER.OBJ
P:\LIBS\CEGUI-0.8.7\BUILD\CEGUI\SRC\WINDOWRENDERERSETS\CORE\CEGUICOREWINDOWRENDERERSET.DIR\DEBUG\POPUPMENU.OBJ
P:\LIBS\CEGUI-0.8.7\BUILD\CEGUI\SRC\WINDOWRENDERERSETS\CORE\CEGUICOREWINDOWRENDERERSET.DIR\DEBUG\STATICIMAGE.OBJ
P:\LIBS\CEGUI-0.8.7\BUILD\CEGUI\SRC\WINDOWRENDERERSETS\CORE\CEGUICOREWINDOWRENDERERSET.DIR\DEBUG\DEFAULT.OBJ
P:\LIBS\CEGUI-0.8.7\BUILD\CEGUI\SRC\WINDOWRENDERERSETS\CORE\CEGUICOREWINDOWRENDERERSET.DIR\DEBUG\LISTBOX.OBJ
P:\LIBS\CEGUI-0.8.7\BUILD\CEGUI\SRC\WINDOWRENDERERSETS\CORE\CEGUICOREWINDOWRENDERERSET.DIR\DEBUG\SLIDER.OBJ
P:\LIBS\CEGUI-0.8.7\BUILD\CEGUI\SRC\WINDOWRENDERERSETS\CORE\CEGUICOREWINDOWRENDERERSET.DIR\DEBUG\TOGGLEBUTTON.OBJ
P:\LIBS\CEGUI-0.8.7\BUILD\CEGUI\SRC\WINDOWRENDERERSETS\CORE\CEGUICOREWINDOWRENDERERSET.DIR\DEBUG\FRAMEWINDOW.OBJ
P:\LIBS\CEGUI-0.8.7\BUILD\CEGUI\SRC\WINDOWRENDERERSETS\CORE\CEGUICOREWINDOWRENDERERSET.DIR\DEBUG\MENUBAR.OBJ
P:\LIBS\CEGUI-0.8.7\BUILD\CEGUI\SRC\WINDOWRENDERERSETS\CORE\CEGUICOREWINDOWRENDERERSET.DIR\DEBUG\SCROLLBAR.OBJ
P:\LIBS\CEGUI-0.8.7\BUILD\CEGUI\SRC\WINDOWRENDERERSETS\CORE\CEGUICOREWINDOWRENDERERSET.DIR\DEBUG\TITLEBAR.OBJ
P:\LIBS\CEGUI-0.8.7\BUILD\CEGUI\SRC\WINDOWRENDERERSETS\CORE\CEGUICOREWINDOWRENDERERSET.DIR\DEBUG\LISTHEADERSEGMENT.OBJ
P:\LIBS\CEGUI-0.8.7\BUILD\CEGUI\SRC\WINDOWRENDERERSETS\CORE\CEGUICOREWINDOWRENDERERSET.DIR\DEBUG\MODULE.OBJ
P:\LIBS\CEGUI-0.8.7\BUILD\CEGUI\SRC\WINDOWRENDERERSETS\CORE\CEGUICOREWINDOWRENDERERSET.DIR\DEBUG\TABCONTROL.OBJ
P:\LIBS\CEGUI-0.8.7\BUILD\CEGUI\SRC\WINDOWRENDERERSETS\CORE\CEGUICOREWINDOWRENDERERSET.DIR\DEBUG\ITEMENTRY.OBJ
P:\LIBS\CEGUI-0.8.7\BUILD\CEGUI\SRC\WINDOWRENDERERSETS\CORE\CEGUICOREWINDOWRENDERERSET.DIR\DEBUG\MULTICOLUMNLIST.OBJ
P:\LIBS\CEGUI-0.8.7\BUILD\CEGUI\SRC\WINDOWRENDERERSETS\CORE\CEGUICOREWINDOWRENDERERSET.DIR\DEBUG\STATIC.OBJ
P:\LIBS\CEGUI-0.8.7\BUILD\CEGUI\SRC\WINDOWRENDERERSETS\CORE\CEGUICOREWINDOWRENDERERSET.DIR\DEBUG\TREE.OBJ
P:\LIBS\CEGUI-0.8.7\BUILD\CEGUI\SRC\WINDOWRENDERERSETS\CORE\CEGUICOREWINDOWRENDERERSET.DIR\DEBUG\ITEMLISTBOX.OBJ
P:\LIBS\CEGUI-0.8.7\BUILD\CEGUI\SRC\WINDOWRENDERERSETS\CORE\CEGUICOREWINDOWRENDERERSET.DIR\DEBUG\MULTILINEEDITBOX.OBJ
P:\LIBS\CEGUI-0.8.7\BUILD\CEGUI\SRC\WINDOWRENDERERSETS\CORE\CEGUICOREWINDOWRENDERERSET.DIR\DEBUG\STATICTEXT.OBJ
P:\LIBS\CEGUI-0.8.7\BUILD\CEGUI\SRC\WINDOWRENDERERSETS\CORE\CEGUICOREWINDOWRENDERERSET.DIR\DEBUG\EDITBOX.OBJ
P:\LIBS\CEGUI-0.8.7\BUILD\CEGUI\SRC\WINDOWRENDERERSETS\CORE\CEGUICOREWINDOWRENDERERSET.DIR\DEBUG\PROGRESSBAR.OBJ
P:\LIBS\CEGUI-0.8.7\BUILD\CEGUI\SRC\WINDOWRENDERERSETS\CORE\CEGUICOREWINDOWRENDERERSET.DIR\DEBUG\TABBUTTON.OBJ
P:\LIBS\CEGUI-0.8.7\BUILD\CEGUI\SRC\WINDOWRENDERERSETS\CORE\CEGUICOREWINDOWRENDERERSET.DIR\DEBUG\BUTTON.OBJ
P:\LIBS\CEGUI-0.8.7\BUILD\CEGUI\SRC\WINDOWRENDERERSETS\CORE\CEGUICOREWINDOWRENDERERSET.DIR\DEBUG\MENUITEM.OBJ
P:\LIBS\CEGUI-0.8.7\BUILD\CEGUI\SRC\WINDOWRENDERERSETS\CORE\CEGUICOREWINDOWRENDERERSET.DIR\DEBUG\SCROLLABLEPANE.OBJ
P:\LIBS\CEGUI-0.8.7\BUILD\CEGUI\SRC\WINDOWRENDERERSETS\CORE\CEGUICOREWINDOWRENDERERSET.DIR\DEBUG\TOOLTIP.OBJ
^P:\LIBS\CEGUI-0.8.7\CEGUI\SRC\WINDOWRENDERERSETS\CORE\BUTTON.CPP
P:\LIBS\CEGUI-0.8.7\BUILD\CEGUI\SRC\WINDOWRENDERERSETS\CORE\CEGUICOREWINDOWRENDERERSET.DIR\DEBUG\VC140.PDB
^P:\LIBS\CEGUI-0.8.7\CEGUI\SRC\WINDOWRENDERERSETS\CORE\DEFAULT.CPP
P:\LIBS\CEGUI-0.8.7\BUILD\CEGUI\SRC\WINDOWRENDERERSETS\CORE\CEGUICOREWINDOWRENDERERSET.DIR\DEBUG\VC140.PDB
^P:\LIBS\CEGUI-0.8.7\CEGUI\SRC\WINDOWRENDERERSETS\CORE\EDITBOX.CPP
P:\LIBS\CEGUI-0.8.7\BUILD\CEGUI\SRC\WINDOWRENDERERSETS\CORE\CEGUICOREWINDOWRENDERERSET.DIR\DEBUG\VC140.PDB
^P:\LIBS\CEGUI-0.8.7\CEGUI\SRC\WINDOWRENDERERSETS\CORE\FRAMEWINDOW.CPP
P:\LIBS\CEGUI-0.8.7\BUILD\CEGUI\SRC\WINDOWRENDERERSETS\CORE\CEGUICOREWINDOWRENDERERSET.DIR\DEBUG\VC140.PDB
^P:\LIBS\CEGUI-0.8.7\CEGUI\SRC\WINDOWRENDERERSETS\CORE\ITEMENTRY.CPP
P:\LIBS\CEGUI-0.8.7\BUILD\CEGUI\SRC\WINDOWRENDERERSETS\CORE\CEGUICOREWINDOWRENDERERSET.DIR\DEBUG\VC140.PDB
^P:\LIBS\CEGUI-0.8.7\CEGUI\SRC\WINDOWRENDERERSETS\CORE\ITEMLISTBOX.CPP
P:\LIBS\CEGUI-0.8.7\BUILD\CEGUI\SRC\WINDOWRENDERERSETS\CORE\CEGUICOREWINDOWRENDERERSET.DIR\DEBUG\VC140.PDB
^P:\LIBS\CEGUI-0.8.7\CEGUI\SRC\WINDOWRENDERERSETS\CORE\LISTHEADER.CPP
P:\LIBS\CEGUI-0.8.7\BUILD\CEGUI\SRC\WINDOWRENDERERSETS\CORE\CEGUICOREWINDOWRENDERERSET.DIR\DEBUG\VC140.PDB
^P:\LIBS\CEGUI-0.8.7\CEGUI\SRC\WINDOWRENDERERSETS\CORE\LISTHEADERSEGMENT.CPP
P:\LIBS\CEGUI-0.8.7\BUILD\CEGUI\SRC\WINDOWRENDERERSETS\CORE\CEGUICOREWINDOWRENDERERSET.DIR\DEBUG\VC140.PDB
^P:\LIBS\CEGUI-0.8.7\CEGUI\SRC\WINDOWRENDERERSETS\CORE\LISTBOX.CPP
P:\LIBS\CEGUI-0.8.7\BUILD\CEGUI\SRC\WINDOWRENDERERSETS\CORE\CEGUICOREWINDOWRENDERERSET.DIR\DEBUG\VC140.PDB
^P:\LIBS\CEGUI-0.8.7\CEGUI\SRC\WINDOWRENDERERSETS\CORE\MENUITEM.CPP
P:\LIBS\CEGUI-0.8.7\BUILD\CEGUI\SRC\WINDOWRENDERERSETS\CORE\CEGUICOREWINDOWRENDERERSET.DIR\DEBUG\VC140.PDB
^P:\LIBS\CEGUI-0.8.7\CEGUI\SRC\WINDOWRENDERERSETS\CORE\MENUBAR.CPP
P:\LIBS\CEGUI-0.8.7\BUILD\CEGUI\SRC\WINDOWRENDERERSETS\CORE\CEGUICOREWINDOWRENDERERSET.DIR\DEBUG\VC140.PDB
^P:\LIBS\CEGUI-0.8.7\CEGUI\SRC\WINDOWRENDERERSETS\CORE\MODULE.CPP
P:\LIBS\CEGUI-0.8.7\BUILD\CEGUI\SRC\WINDOWRENDERERSETS\CORE\CEGUICOREWINDOWRENDERERSET.DIR\DEBUG\VC140.PDB
^P:\LIBS\CEGUI-0.8.7\CEGUI\SRC\WINDOWRENDERERSETS\CORE\MULTICOLUMNLIST.CPP
P:\LIBS\CEGUI-0.8.7\BUILD\CEGUI\SRC\WINDOWRENDERERSETS\CORE\CEGUICOREWINDOWRENDERERSET.DIR\DEBUG\VC140.PDB
^P:\LIBS\CEGUI-0.8.7\CEGUI\SRC\WINDOWRENDERERSETS\CORE\MULTILINEEDITBOX.CPP
P:\LIBS\CEGUI-0.8.7\BUILD\CEGUI\SRC\WINDOWRENDERERSETS\CORE\CEGUICOREWINDOWRENDERERSET.DIR\DEBUG\VC140.PDB
^P:\LIBS\CEGUI-0.8.7\CEGUI\SRC\WINDOWRENDERERSETS\CORE\POPUPMENU.CPP
P:\LIBS\CEGUI-0.8.7\BUILD\CEGUI\SRC\WINDOWRENDERERSETS\CORE\CEGUICOREWINDOWRENDERERSET.DIR\DEBUG\VC140.PDB
^P:\LIBS\CEGUI-0.8.7\CEGUI\SRC\WINDOWRENDERERSETS\CORE\PROGRESSBAR.CPP
P:\LIBS\CEGUI-0.8.7\BUILD\CEGUI\SRC\WINDOWRENDERERSETS\CORE\CEGUICOREWINDOWRENDERERSET.DIR\DEBUG\VC140.PDB
^P:\LIBS\CEGUI-0.8.7\CEGUI\SRC\WINDOWRENDERERSETS\CORE\SCROLLABLEPANE.CPP
P:\LIBS\CEGUI-0.8.7\BUILD\CEGUI\SRC\WINDOWRENDERERSETS\CORE\CEGUICOREWINDOWRENDERERSET.DIR\DEBUG\VC140.PDB
^P:\LIBS\CEGUI-0.8.7\CEGUI\SRC\WINDOWRENDERERSETS\CORE\SCROLLBAR.CPP
P:\LIBS\CEGUI-0.8.7\BUILD\CEGUI\SRC\WINDOWRENDERERSETS\CORE\CEGUICOREWINDOWRENDERERSET.DIR\DEBUG\VC140.PDB
^P:\LIBS\CEGUI-0.8.7\CEGUI\SRC\WINDOWRENDERERSETS\CORE\SLIDER.CPP
P:\LIBS\CEGUI-0.8.7\BUILD\CEGUI\SRC\WINDOWRENDERERSETS\CORE\CEGUICOREWINDOWRENDERERSET.DIR\DEBUG\VC140.PDB
^P:\LIBS\CEGUI-0.8.7\CEGUI\SRC\WINDOWRENDERERSETS\CORE\STATIC.CPP
P:\LIBS\CEGUI-0.8.7\BUILD\CEGUI\SRC\WINDOWRENDERERSETS\CORE\CEGUICOREWINDOWRENDERERSET.DIR\DEBUG\VC140.PDB
^P:\LIBS\CEGUI-0.8.7\CEGUI\SRC\WINDOWRENDERERSETS\CORE\STATICIMAGE.CPP
P:\LIBS\CEGUI-0.8.7\BUILD\CEGUI\SRC\WINDOWRENDERERSETS\CORE\CEGUICOREWINDOWRENDERERSET.DIR\DEBUG\VC140.PDB
^P:\LIBS\CEGUI-0.8.7\CEGUI\SRC\WINDOWRENDERERSETS\CORE\STATICTEXT.CPP
P:\LIBS\CEGUI-0.8.7\BUILD\CEGUI\SRC\WINDOWRENDERERSETS\CORE\CEGUICOREWINDOWRENDERERSET.DIR\DEBUG\VC140.PDB
^P:\LIBS\CEGUI-0.8.7\CEGUI\SRC\WINDOWRENDERERSETS\CORE\TABBUTTON.CPP
P:\LIBS\CEGUI-0.8.7\BUILD\CEGUI\SRC\WINDOWRENDERERSETS\CORE\CEGUICOREWINDOWRENDERERSET.DIR\DEBUG\VC140.PDB
^P:\LIBS\CEGUI-0.8.7\CEGUI\SRC\WINDOWRENDERERSETS\CORE\TABCONTROL.CPP
P:\LIBS\CEGUI-0.8.7\BUILD\CEGUI\SRC\WINDOWRENDERERSETS\CORE\CEGUICOREWINDOWRENDERERSET.DIR\DEBUG\VC140.PDB
^P:\LIBS\CEGUI-0.8.7\CEGUI\SRC\WINDOWRENDERERSETS\CORE\TITLEBAR.CPP
P:\LIBS\CEGUI-0.8.7\BUILD\CEGUI\SRC\WINDOWRENDERERSETS\CORE\CEGUICOREWINDOWRENDERERSET.DIR\DEBUG\VC140.PDB
^P:\LIBS\CEGUI-0.8.7\CEGUI\SRC\WINDOWRENDERERSETS\CORE\TOGGLEBUTTON.CPP
P:\LIBS\CEGUI-0.8.7\BUILD\CEGUI\SRC\WINDOWRENDERERSETS\CORE\CEGUICOREWINDOWRENDERERSET.DIR\DEBUG\VC140.PDB
^P:\LIBS\CEGUI-0.8.7\CEGUI\SRC\WINDOWRENDERERSETS\CORE\TOOLTIP.CPP
P:\LIBS\CEGUI-0.8.7\BUILD\CEGUI\SRC\WINDOWRENDERERSETS\CORE\CEGUICOREWINDOWRENDERERSET.DIR\DEBUG\VC140.PDB
^P:\LIBS\CEGUI-0.8.7\CEGUI\SRC\WINDOWRENDERERSETS\CORE\TREE.CPP
P:\LIBS\CEGUI-0.8.7\BUILD\CEGUI\SRC\WINDOWRENDERERSETS\CORE\CEGUICOREWINDOWRENDERERSET.DIR\DEBUG\VC140.PDB
