^P:\LIBS\CEGUI-CEGUI-DEPENDENCIES-0ECDF3A9E49B\SRC\FREETYPE-2.4.4\SRC\BASE\FTSYSTEM.C
/c /I"P:\LIBS\CEGUI-CEGUI-DEPENDENCIES-0ECDF3A9E49B\SRC\FREETYPE-2.4.4\CEGUI-BUILD\..\INCLUDE" /Zi /nologo /W3 /WX- /Od /Ob0 /Oy- /D WIN32 /D _WINDOWS /D _DEBUG /D FT2_BUILD_LIBRARY /D FT_DEBUG_LEVEL_ERROR /D FT_DEBUG_LEVEL_TRACE /D _CRT_SECURE_NO_WARNINGS /D "CMAKE_INTDIR=\"Debug\"" /D freetype_EXPORTS /D _WINDLL /D _MBCS /Gm- /RTC1 /MDd /GS /fp:precise /Zc:wchar_t /Zc:forScope /Zc:inline /Fo"FREETYPE.DIR\DEBUG\\" /Fd"FREETYPE.DIR\DEBUG\VC140.PDB" /Gd /TC /analyze- P:\LIBS\CEGUI-CEGUI-DEPENDENCIES-0ECDF3A9E49B\SRC\FREETYPE-2.4.4\SRC\BASE\FTSYSTEM.C
^P:\LIBS\CEGUI-CEGUI-DEPENDENCIES-0ECDF3A9E49B\SRC\FREETYPE-2.4.4\SRC\BASE\FTINIT.C
/c /I"P:\LIBS\CEGUI-CEGUI-DEPENDENCIES-0ECDF3A9E49B\SRC\FREETYPE-2.4.4\CEGUI-BUILD\..\INCLUDE" /Zi /nologo /W3 /WX- /Od /Ob0 /Oy- /D WIN32 /D _WINDOWS /D _DEBUG /D FT2_BUILD_LIBRARY /D FT_DEBUG_LEVEL_ERROR /D FT_DEBUG_LEVEL_TRACE /D _CRT_SECURE_NO_WARNINGS /D "CMAKE_INTDIR=\"Debug\"" /D freetype_EXPORTS /D _WINDLL /D _MBCS /Gm- /RTC1 /MDd /GS /fp:precise /Zc:wchar_t /Zc:forScope /Zc:inline /Fo"FREETYPE.DIR\DEBUG\\" /Fd"FREETYPE.DIR\DEBUG\VC140.PDB" /Gd /TC /analyze- P:\LIBS\CEGUI-CEGUI-DEPENDENCIES-0ECDF3A9E49B\SRC\FREETYPE-2.4.4\SRC\BASE\FTINIT.C
^P:\LIBS\CEGUI-CEGUI-DEPENDENCIES-0ECDF3A9E49B\SRC\FREETYPE-2.4.4\SRC\BASE\FTDEBUG.C
/c /I"P:\LIBS\CEGUI-CEGUI-DEPENDENCIES-0ECDF3A9E49B\SRC\FREETYPE-2.4.4\CEGUI-BUILD\..\INCLUDE" /Zi /nologo /W3 /WX- /Od /Ob0 /Oy- /D WIN32 /D _WINDOWS /D _DEBUG /D FT2_BUILD_LIBRARY /D FT_DEBUG_LEVEL_ERROR /D FT_DEBUG_LEVEL_TRACE /D _CRT_SECURE_NO_WARNINGS /D "CMAKE_INTDIR=\"Debug\"" /D freetype_EXPORTS /D _WINDLL /D _MBCS /Gm- /RTC1 /MDd /GS /fp:precise /Zc:wchar_t /Zc:forScope /Zc:inline /Fo"FREETYPE.DIR\DEBUG\\" /Fd"FREETYPE.DIR\DEBUG\VC140.PDB" /Gd /TC /analyze- P:\LIBS\CEGUI-CEGUI-DEPENDENCIES-0ECDF3A9E49B\SRC\FREETYPE-2.4.4\SRC\BASE\FTDEBUG.C
^P:\LIBS\CEGUI-CEGUI-DEPENDENCIES-0ECDF3A9E49B\SRC\FREETYPE-2.4.4\SRC\BASE\FTBASE.C
/c /I"P:\LIBS\CEGUI-CEGUI-DEPENDENCIES-0ECDF3A9E49B\SRC\FREETYPE-2.4.4\CEGUI-BUILD\..\INCLUDE" /Zi /nologo /W3 /WX- /Od /Ob0 /Oy- /D WIN32 /D _WINDOWS /D _DEBUG /D FT2_BUILD_LIBRARY /D FT_DEBUG_LEVEL_ERROR /D FT_DEBUG_LEVEL_TRACE /D _CRT_SECURE_NO_WARNINGS /D "CMAKE_INTDIR=\"Debug\"" /D freetype_EXPORTS /D _WINDLL /D _MBCS /Gm- /RTC1 /MDd /GS /fp:precise /Zc:wchar_t /Zc:forScope /Zc:inline /Fo"FREETYPE.DIR\DEBUG\\" /Fd"FREETYPE.DIR\DEBUG\VC140.PDB" /Gd /TC /analyze- P:\LIBS\CEGUI-CEGUI-DEPENDENCIES-0ECDF3A9E49B\SRC\FREETYPE-2.4.4\SRC\BASE\FTBASE.C
^P:\LIBS\CEGUI-CEGUI-DEPENDENCIES-0ECDF3A9E49B\SRC\FREETYPE-2.4.4\SRC\BASE\FTBBOX.C
/c /I"P:\LIBS\CEGUI-CEGUI-DEPENDENCIES-0ECDF3A9E49B\SRC\FREETYPE-2.4.4\CEGUI-BUILD\..\INCLUDE" /Zi /nologo /W3 /WX- /Od /Ob0 /Oy- /D WIN32 /D _WINDOWS /D _DEBUG /D FT2_BUILD_LIBRARY /D FT_DEBUG_LEVEL_ERROR /D FT_DEBUG_LEVEL_TRACE /D _CRT_SECURE_NO_WARNINGS /D "CMAKE_INTDIR=\"Debug\"" /D freetype_EXPORTS /D _WINDLL /D _MBCS /Gm- /RTC1 /MDd /GS /fp:precise /Zc:wchar_t /Zc:forScope /Zc:inline /Fo"FREETYPE.DIR\DEBUG\\" /Fd"FREETYPE.DIR\DEBUG\VC140.PDB" /Gd /TC /analyze- P:\LIBS\CEGUI-CEGUI-DEPENDENCIES-0ECDF3A9E49B\SRC\FREETYPE-2.4.4\SRC\BASE\FTBBOX.C
^P:\LIBS\CEGUI-CEGUI-DEPENDENCIES-0ECDF3A9E49B\SRC\FREETYPE-2.4.4\SRC\BASE\FTGLYPH.C
/c /I"P:\LIBS\CEGUI-CEGUI-DEPENDENCIES-0ECDF3A9E49B\SRC\FREETYPE-2.4.4\CEGUI-BUILD\..\INCLUDE" /Zi /nologo /W3 /WX- /Od /Ob0 /Oy- /D WIN32 /D _WINDOWS /D _DEBUG /D FT2_BUILD_LIBRARY /D FT_DEBUG_LEVEL_ERROR /D FT_DEBUG_LEVEL_TRACE /D _CRT_SECURE_NO_WARNINGS /D "CMAKE_INTDIR=\"Debug\"" /D freetype_EXPORTS /D _WINDLL /D _MBCS /Gm- /RTC1 /MDd /GS /fp:precise /Zc:wchar_t /Zc:forScope /Zc:inline /Fo"FREETYPE.DIR\DEBUG\\" /Fd"FREETYPE.DIR\DEBUG\VC140.PDB" /Gd /TC /analyze- P:\LIBS\CEGUI-CEGUI-DEPENDENCIES-0ECDF3A9E49B\SRC\FREETYPE-2.4.4\SRC\BASE\FTGLYPH.C
^P:\LIBS\CEGUI-CEGUI-DEPENDENCIES-0ECDF3A9E49B\SRC\FREETYPE-2.4.4\SRC\BASE\FTBDF.C
/c /I"P:\LIBS\CEGUI-CEGUI-DEPENDENCIES-0ECDF3A9E49B\SRC\FREETYPE-2.4.4\CEGUI-BUILD\..\INCLUDE" /Zi /nologo /W3 /WX- /Od /Ob0 /Oy- /D WIN32 /D _WINDOWS /D _DEBUG /D FT2_BUILD_LIBRARY /D FT_DEBUG_LEVEL_ERROR /D FT_DEBUG_LEVEL_TRACE /D _CRT_SECURE_NO_WARNINGS /D "CMAKE_INTDIR=\"Debug\"" /D freetype_EXPORTS /D _WINDLL /D _MBCS /Gm- /RTC1 /MDd /GS /fp:precise /Zc:wchar_t /Zc:forScope /Zc:inline /Fo"FREETYPE.DIR\DEBUG\\" /Fd"FREETYPE.DIR\DEBUG\VC140.PDB" /Gd /TC /analyze- P:\LIBS\CEGUI-CEGUI-DEPENDENCIES-0ECDF3A9E49B\SRC\FREETYPE-2.4.4\SRC\BASE\FTBDF.C
^P:\LIBS\CEGUI-CEGUI-DEPENDENCIES-0ECDF3A9E49B\SRC\FREETYPE-2.4.4\SRC\BASE\FTBITMAP.C
/c /I"P:\LIBS\CEGUI-CEGUI-DEPENDENCIES-0ECDF3A9E49B\SRC\FREETYPE-2.4.4\CEGUI-BUILD\..\INCLUDE" /Zi /nologo /W3 /WX- /Od /Ob0 /Oy- /D WIN32 /D _WINDOWS /D _DEBUG /D FT2_BUILD_LIBRARY /D FT_DEBUG_LEVEL_ERROR /D FT_DEBUG_LEVEL_TRACE /D _CRT_SECURE_NO_WARNINGS /D "CMAKE_INTDIR=\"Debug\"" /D freetype_EXPORTS /D _WINDLL /D _MBCS /Gm- /RTC1 /MDd /GS /fp:precise /Zc:wchar_t /Zc:forScope /Zc:inline /Fo"FREETYPE.DIR\DEBUG\\" /Fd"FREETYPE.DIR\DEBUG\VC140.PDB" /Gd /TC /analyze- P:\LIBS\CEGUI-CEGUI-DEPENDENCIES-0ECDF3A9E49B\SRC\FREETYPE-2.4.4\SRC\BASE\FTBITMAP.C
^P:\LIBS\CEGUI-CEGUI-DEPENDENCIES-0ECDF3A9E49B\SRC\FREETYPE-2.4.4\SRC\BASE\FTCID.C
/c /I"P:\LIBS\CEGUI-CEGUI-DEPENDENCIES-0ECDF3A9E49B\SRC\FREETYPE-2.4.4\CEGUI-BUILD\..\INCLUDE" /Zi /nologo /W3 /WX- /Od /Ob0 /Oy- /D WIN32 /D _WINDOWS /D _DEBUG /D FT2_BUILD_LIBRARY /D FT_DEBUG_LEVEL_ERROR /D FT_DEBUG_LEVEL_TRACE /D _CRT_SECURE_NO_WARNINGS /D "CMAKE_INTDIR=\"Debug\"" /D freetype_EXPORTS /D _WINDLL /D _MBCS /Gm- /RTC1 /MDd /GS /fp:precise /Zc:wchar_t /Zc:forScope /Zc:inline /Fo"FREETYPE.DIR\DEBUG\\" /Fd"FREETYPE.DIR\DEBUG\VC140.PDB" /Gd /TC /analyze- P:\LIBS\CEGUI-CEGUI-DEPENDENCIES-0ECDF3A9E49B\SRC\FREETYPE-2.4.4\SRC\BASE\FTCID.C
^P:\LIBS\CEGUI-CEGUI-DEPENDENCIES-0ECDF3A9E49B\SRC\FREETYPE-2.4.4\SRC\BASE\FTFSTYPE.C
/c /I"P:\LIBS\CEGUI-CEGUI-DEPENDENCIES-0ECDF3A9E49B\SRC\FREETYPE-2.4.4\CEGUI-BUILD\..\INCLUDE" /Zi /nologo /W3 /WX- /Od /Ob0 /Oy- /D WIN32 /D _WINDOWS /D _DEBUG /D FT2_BUILD_LIBRARY /D FT_DEBUG_LEVEL_ERROR /D FT_DEBUG_LEVEL_TRACE /D _CRT_SECURE_NO_WARNINGS /D "CMAKE_INTDIR=\"Debug\"" /D freetype_EXPORTS /D _WINDLL /D _MBCS /Gm- /RTC1 /MDd /GS /fp:precise /Zc:wchar_t /Zc:forScope /Zc:inline /Fo"FREETYPE.DIR\DEBUG\\" /Fd"FREETYPE.DIR\DEBUG\VC140.PDB" /Gd /TC /analyze- P:\LIBS\CEGUI-CEGUI-DEPENDENCIES-0ECDF3A9E49B\SRC\FREETYPE-2.4.4\SRC\BASE\FTFSTYPE.C
^P:\LIBS\CEGUI-CEGUI-DEPENDENCIES-0ECDF3A9E49B\SRC\FREETYPE-2.4.4\SRC\BASE\FTGASP.C
/c /I"P:\LIBS\CEGUI-CEGUI-DEPENDENCIES-0ECDF3A9E49B\SRC\FREETYPE-2.4.4\CEGUI-BUILD\..\INCLUDE" /Zi /nologo /W3 /WX- /Od /Ob0 /Oy- /D WIN32 /D _WINDOWS /D _DEBUG /D FT2_BUILD_LIBRARY /D FT_DEBUG_LEVEL_ERROR /D FT_DEBUG_LEVEL_TRACE /D _CRT_SECURE_NO_WARNINGS /D "CMAKE_INTDIR=\"Debug\"" /D freetype_EXPORTS /D _WINDLL /D _MBCS /Gm- /RTC1 /MDd /GS /fp:precise /Zc:wchar_t /Zc:forScope /Zc:inline /Fo"FREETYPE.DIR\DEBUG\\" /Fd"FREETYPE.DIR\DEBUG\VC140.PDB" /Gd /TC /analyze- P:\LIBS\CEGUI-CEGUI-DEPENDENCIES-0ECDF3A9E49B\SRC\FREETYPE-2.4.4\SRC\BASE\FTGASP.C
^P:\LIBS\CEGUI-CEGUI-DEPENDENCIES-0ECDF3A9E49B\SRC\FREETYPE-2.4.4\SRC\BASE\FTGXVAL.C
/c /I"P:\LIBS\CEGUI-CEGUI-DEPENDENCIES-0ECDF3A9E49B\SRC\FREETYPE-2.4.4\CEGUI-BUILD\..\INCLUDE" /Zi /nologo /W3 /WX- /Od /Ob0 /Oy- /D WIN32 /D _WINDOWS /D _DEBUG /D FT2_BUILD_LIBRARY /D FT_DEBUG_LEVEL_ERROR /D FT_DEBUG_LEVEL_TRACE /D _CRT_SECURE_NO_WARNINGS /D "CMAKE_INTDIR=\"Debug\"" /D freetype_EXPORTS /D _WINDLL /D _MBCS /Gm- /RTC1 /MDd /GS /fp:precise /Zc:wchar_t /Zc:forScope /Zc:inline /Fo"FREETYPE.DIR\DEBUG\\" /Fd"FREETYPE.DIR\DEBUG\VC140.PDB" /Gd /TC /analyze- P:\LIBS\CEGUI-CEGUI-DEPENDENCIES-0ECDF3A9E49B\SRC\FREETYPE-2.4.4\SRC\BASE\FTGXVAL.C
^P:\LIBS\CEGUI-CEGUI-DEPENDENCIES-0ECDF3A9E49B\SRC\FREETYPE-2.4.4\SRC\BASE\FTLCDFIL.C
/c /I"P:\LIBS\CEGUI-CEGUI-DEPENDENCIES-0ECDF3A9E49B\SRC\FREETYPE-2.4.4\CEGUI-BUILD\..\INCLUDE" /Zi /nologo /W3 /WX- /Od /Ob0 /Oy- /D WIN32 /D _WINDOWS /D _DEBUG /D FT2_BUILD_LIBRARY /D FT_DEBUG_LEVEL_ERROR /D FT_DEBUG_LEVEL_TRACE /D _CRT_SECURE_NO_WARNINGS /D "CMAKE_INTDIR=\"Debug\"" /D freetype_EXPORTS /D _WINDLL /D _MBCS /Gm- /RTC1 /MDd /GS /fp:precise /Zc:wchar_t /Zc:forScope /Zc:inline /Fo"FREETYPE.DIR\DEBUG\\" /Fd"FREETYPE.DIR\DEBUG\VC140.PDB" /Gd /TC /analyze- P:\LIBS\CEGUI-CEGUI-DEPENDENCIES-0ECDF3A9E49B\SRC\FREETYPE-2.4.4\SRC\BASE\FTLCDFIL.C
^P:\LIBS\CEGUI-CEGUI-DEPENDENCIES-0ECDF3A9E49B\SRC\FREETYPE-2.4.4\SRC\BASE\FTMM.C
/c /I"P:\LIBS\CEGUI-CEGUI-DEPENDENCIES-0ECDF3A9E49B\SRC\FREETYPE-2.4.4\CEGUI-BUILD\..\INCLUDE" /Zi /nologo /W3 /WX- /Od /Ob0 /Oy- /D WIN32 /D _WINDOWS /D _DEBUG /D FT2_BUILD_LIBRARY /D FT_DEBUG_LEVEL_ERROR /D FT_DEBUG_LEVEL_TRACE /D _CRT_SECURE_NO_WARNINGS /D "CMAKE_INTDIR=\"Debug\"" /D freetype_EXPORTS /D _WINDLL /D _MBCS /Gm- /RTC1 /MDd /GS /fp:precise /Zc:wchar_t /Zc:forScope /Zc:inline /Fo"FREETYPE.DIR\DEBUG\\" /Fd"FREETYPE.DIR\DEBUG\VC140.PDB" /Gd /TC /analyze- P:\LIBS\CEGUI-CEGUI-DEPENDENCIES-0ECDF3A9E49B\SRC\FREETYPE-2.4.4\SRC\BASE\FTMM.C
^P:\LIBS\CEGUI-CEGUI-DEPENDENCIES-0ECDF3A9E49B\SRC\FREETYPE-2.4.4\SRC\BASE\FTOTVAL.C
/c /I"P:\LIBS\CEGUI-CEGUI-DEPENDENCIES-0ECDF3A9E49B\SRC\FREETYPE-2.4.4\CEGUI-BUILD\..\INCLUDE" /Zi /nologo /W3 /WX- /Od /Ob0 /Oy- /D WIN32 /D _WINDOWS /D _DEBUG /D FT2_BUILD_LIBRARY /D FT_DEBUG_LEVEL_ERROR /D FT_DEBUG_LEVEL_TRACE /D _CRT_SECURE_NO_WARNINGS /D "CMAKE_INTDIR=\"Debug\"" /D freetype_EXPORTS /D _WINDLL /D _MBCS /Gm- /RTC1 /MDd /GS /fp:precise /Zc:wchar_t /Zc:forScope /Zc:inline /Fo"FREETYPE.DIR\DEBUG\\" /Fd"FREETYPE.DIR\DEBUG\VC140.PDB" /Gd /TC /analyze- P:\LIBS\CEGUI-CEGUI-DEPENDENCIES-0ECDF3A9E49B\SRC\FREETYPE-2.4.4\SRC\BASE\FTOTVAL.C
^P:\LIBS\CEGUI-CEGUI-DEPENDENCIES-0ECDF3A9E49B\SRC\FREETYPE-2.4.4\SRC\BASE\FTPATENT.C
/c /I"P:\LIBS\CEGUI-CEGUI-DEPENDENCIES-0ECDF3A9E49B\SRC\FREETYPE-2.4.4\CEGUI-BUILD\..\INCLUDE" /Zi /nologo /W3 /WX- /Od /Ob0 /Oy- /D WIN32 /D _WINDOWS /D _DEBUG /D FT2_BUILD_LIBRARY /D FT_DEBUG_LEVEL_ERROR /D FT_DEBUG_LEVEL_TRACE /D _CRT_SECURE_NO_WARNINGS /D "CMAKE_INTDIR=\"Debug\"" /D freetype_EXPORTS /D _WINDLL /D _MBCS /Gm- /RTC1 /MDd /GS /fp:precise /Zc:wchar_t /Zc:forScope /Zc:inline /Fo"FREETYPE.DIR\DEBUG\\" /Fd"FREETYPE.DIR\DEBUG\VC140.PDB" /Gd /TC /analyze- P:\LIBS\CEGUI-CEGUI-DEPENDENCIES-0ECDF3A9E49B\SRC\FREETYPE-2.4.4\SRC\BASE\FTPATENT.C
^P:\LIBS\CEGUI-CEGUI-DEPENDENCIES-0ECDF3A9E49B\SRC\FREETYPE-2.4.4\SRC\BASE\FTPFR.C
/c /I"P:\LIBS\CEGUI-CEGUI-DEPENDENCIES-0ECDF3A9E49B\SRC\FREETYPE-2.4.4\CEGUI-BUILD\..\INCLUDE" /Zi /nologo /W3 /WX- /Od /Ob0 /Oy- /D WIN32 /D _WINDOWS /D _DEBUG /D FT2_BUILD_LIBRARY /D FT_DEBUG_LEVEL_ERROR /D FT_DEBUG_LEVEL_TRACE /D _CRT_SECURE_NO_WARNINGS /D "CMAKE_INTDIR=\"Debug\"" /D freetype_EXPORTS /D _WINDLL /D _MBCS /Gm- /RTC1 /MDd /GS /fp:precise /Zc:wchar_t /Zc:forScope /Zc:inline /Fo"FREETYPE.DIR\DEBUG\\" /Fd"FREETYPE.DIR\DEBUG\VC140.PDB" /Gd /TC /analyze- P:\LIBS\CEGUI-CEGUI-DEPENDENCIES-0ECDF3A9E49B\SRC\FREETYPE-2.4.4\SRC\BASE\FTPFR.C
^P:\LIBS\CEGUI-CEGUI-DEPENDENCIES-0ECDF3A9E49B\SRC\FREETYPE-2.4.4\SRC\BASE\FTSTROKE.C
/c /I"P:\LIBS\CEGUI-CEGUI-DEPENDENCIES-0ECDF3A9E49B\SRC\FREETYPE-2.4.4\CEGUI-BUILD\..\INCLUDE" /Zi /nologo /W3 /WX- /Od /Ob0 /Oy- /D WIN32 /D _WINDOWS /D _DEBUG /D FT2_BUILD_LIBRARY /D FT_DEBUG_LEVEL_ERROR /D FT_DEBUG_LEVEL_TRACE /D _CRT_SECURE_NO_WARNINGS /D "CMAKE_INTDIR=\"Debug\"" /D freetype_EXPORTS /D _WINDLL /D _MBCS /Gm- /RTC1 /MDd /GS /fp:precise /Zc:wchar_t /Zc:forScope /Zc:inline /Fo"FREETYPE.DIR\DEBUG\\" /Fd"FREETYPE.DIR\DEBUG\VC140.PDB" /Gd /TC /analyze- P:\LIBS\CEGUI-CEGUI-DEPENDENCIES-0ECDF3A9E49B\SRC\FREETYPE-2.4.4\SRC\BASE\FTSTROKE.C
^P:\LIBS\CEGUI-CEGUI-DEPENDENCIES-0ECDF3A9E49B\SRC\FREETYPE-2.4.4\SRC\BASE\FTSYNTH.C
/c /I"P:\LIBS\CEGUI-CEGUI-DEPENDENCIES-0ECDF3A9E49B\SRC\FREETYPE-2.4.4\CEGUI-BUILD\..\INCLUDE" /Zi /nologo /W3 /WX- /Od /Ob0 /Oy- /D WIN32 /D _WINDOWS /D _DEBUG /D FT2_BUILD_LIBRARY /D FT_DEBUG_LEVEL_ERROR /D FT_DEBUG_LEVEL_TRACE /D _CRT_SECURE_NO_WARNINGS /D "CMAKE_INTDIR=\"Debug\"" /D freetype_EXPORTS /D _WINDLL /D _MBCS /Gm- /RTC1 /MDd /GS /fp:precise /Zc:wchar_t /Zc:forScope /Zc:inline /Fo"FREETYPE.DIR\DEBUG\\" /Fd"FREETYPE.DIR\DEBUG\VC140.PDB" /Gd /TC /analyze- P:\LIBS\CEGUI-CEGUI-DEPENDENCIES-0ECDF3A9E49B\SRC\FREETYPE-2.4.4\SRC\BASE\FTSYNTH.C
^P:\LIBS\CEGUI-CEGUI-DEPENDENCIES-0ECDF3A9E49B\SRC\FREETYPE-2.4.4\SRC\BASE\FTTYPE1.C
/c /I"P:\LIBS\CEGUI-CEGUI-DEPENDENCIES-0ECDF3A9E49B\SRC\FREETYPE-2.4.4\CEGUI-BUILD\..\INCLUDE" /Zi /nologo /W3 /WX- /Od /Ob0 /Oy- /D WIN32 /D _WINDOWS /D _DEBUG /D FT2_BUILD_LIBRARY /D FT_DEBUG_LEVEL_ERROR /D FT_DEBUG_LEVEL_TRACE /D _CRT_SECURE_NO_WARNINGS /D "CMAKE_INTDIR=\"Debug\"" /D freetype_EXPORTS /D _WINDLL /D _MBCS /Gm- /RTC1 /MDd /GS /fp:precise /Zc:wchar_t /Zc:forScope /Zc:inline /Fo"FREETYPE.DIR\DEBUG\\" /Fd"FREETYPE.DIR\DEBUG\VC140.PDB" /Gd /TC /analyze- P:\LIBS\CEGUI-CEGUI-DEPENDENCIES-0ECDF3A9E49B\SRC\FREETYPE-2.4.4\SRC\BASE\FTTYPE1.C
^P:\LIBS\CEGUI-CEGUI-DEPENDENCIES-0ECDF3A9E49B\SRC\FREETYPE-2.4.4\SRC\BASE\FTWINFNT.C
/c /I"P:\LIBS\CEGUI-CEGUI-DEPENDENCIES-0ECDF3A9E49B\SRC\FREETYPE-2.4.4\CEGUI-BUILD\..\INCLUDE" /Zi /nologo /W3 /WX- /Od /Ob0 /Oy- /D WIN32 /D _WINDOWS /D _DEBUG /D FT2_BUILD_LIBRARY /D FT_DEBUG_LEVEL_ERROR /D FT_DEBUG_LEVEL_TRACE /D _CRT_SECURE_NO_WARNINGS /D "CMAKE_INTDIR=\"Debug\"" /D freetype_EXPORTS /D _WINDLL /D _MBCS /Gm- /RTC1 /MDd /GS /fp:precise /Zc:wchar_t /Zc:forScope /Zc:inline /Fo"FREETYPE.DIR\DEBUG\\" /Fd"FREETYPE.DIR\DEBUG\VC140.PDB" /Gd /TC /analyze- P:\LIBS\CEGUI-CEGUI-DEPENDENCIES-0ECDF3A9E49B\SRC\FREETYPE-2.4.4\SRC\BASE\FTWINFNT.C
^P:\LIBS\CEGUI-CEGUI-DEPENDENCIES-0ECDF3A9E49B\SRC\FREETYPE-2.4.4\SRC\BASE\FTXF86.C
/c /I"P:\LIBS\CEGUI-CEGUI-DEPENDENCIES-0ECDF3A9E49B\SRC\FREETYPE-2.4.4\CEGUI-BUILD\..\INCLUDE" /Zi /nologo /W3 /WX- /Od /Ob0 /Oy- /D WIN32 /D _WINDOWS /D _DEBUG /D FT2_BUILD_LIBRARY /D FT_DEBUG_LEVEL_ERROR /D FT_DEBUG_LEVEL_TRACE /D _CRT_SECURE_NO_WARNINGS /D "CMAKE_INTDIR=\"Debug\"" /D freetype_EXPORTS /D _WINDLL /D _MBCS /Gm- /RTC1 /MDd /GS /fp:precise /Zc:wchar_t /Zc:forScope /Zc:inline /Fo"FREETYPE.DIR\DEBUG\\" /Fd"FREETYPE.DIR\DEBUG\VC140.PDB" /Gd /TC /analyze- P:\LIBS\CEGUI-CEGUI-DEPENDENCIES-0ECDF3A9E49B\SRC\FREETYPE-2.4.4\SRC\BASE\FTXF86.C
^P:\LIBS\CEGUI-CEGUI-DEPENDENCIES-0ECDF3A9E49B\SRC\FREETYPE-2.4.4\SRC\BDF\BDF.C
/c /I"P:\LIBS\CEGUI-CEGUI-DEPENDENCIES-0ECDF3A9E49B\SRC\FREETYPE-2.4.4\CEGUI-BUILD\..\INCLUDE" /Zi /nologo /W3 /WX- /Od /Ob0 /Oy- /D WIN32 /D _WINDOWS /D _DEBUG /D FT2_BUILD_LIBRARY /D FT_DEBUG_LEVEL_ERROR /D FT_DEBUG_LEVEL_TRACE /D _CRT_SECURE_NO_WARNINGS /D "CMAKE_INTDIR=\"Debug\"" /D freetype_EXPORTS /D _WINDLL /D _MBCS /Gm- /RTC1 /MDd /GS /fp:precise /Zc:wchar_t /Zc:forScope /Zc:inline /Fo"FREETYPE.DIR\DEBUG\\" /Fd"FREETYPE.DIR\DEBUG\VC140.PDB" /Gd /TC /analyze- P:\LIBS\CEGUI-CEGUI-DEPENDENCIES-0ECDF3A9E49B\SRC\FREETYPE-2.4.4\SRC\BDF\BDF.C
^P:\LIBS\CEGUI-CEGUI-DEPENDENCIES-0ECDF3A9E49B\SRC\FREETYPE-2.4.4\SRC\CFF\CFF.C
/c /I"P:\LIBS\CEGUI-CEGUI-DEPENDENCIES-0ECDF3A9E49B\SRC\FREETYPE-2.4.4\CEGUI-BUILD\..\INCLUDE" /Zi /nologo /W3 /WX- /Od /Ob0 /Oy- /D WIN32 /D _WINDOWS /D _DEBUG /D FT2_BUILD_LIBRARY /D FT_DEBUG_LEVEL_ERROR /D FT_DEBUG_LEVEL_TRACE /D _CRT_SECURE_NO_WARNINGS /D "CMAKE_INTDIR=\"Debug\"" /D freetype_EXPORTS /D _WINDLL /D _MBCS /Gm- /RTC1 /MDd /GS /fp:precise /Zc:wchar_t /Zc:forScope /Zc:inline /Fo"FREETYPE.DIR\DEBUG\\" /Fd"FREETYPE.DIR\DEBUG\VC140.PDB" /Gd /TC /analyze- P:\LIBS\CEGUI-CEGUI-DEPENDENCIES-0ECDF3A9E49B\SRC\FREETYPE-2.4.4\SRC\CFF\CFF.C
^P:\LIBS\CEGUI-CEGUI-DEPENDENCIES-0ECDF3A9E49B\SRC\FREETYPE-2.4.4\SRC\CID\TYPE1CID.C
/c /I"P:\LIBS\CEGUI-CEGUI-DEPENDENCIES-0ECDF3A9E49B\SRC\FREETYPE-2.4.4\CEGUI-BUILD\..\INCLUDE" /Zi /nologo /W3 /WX- /Od /Ob0 /Oy- /D WIN32 /D _WINDOWS /D _DEBUG /D FT2_BUILD_LIBRARY /D FT_DEBUG_LEVEL_ERROR /D FT_DEBUG_LEVEL_TRACE /D _CRT_SECURE_NO_WARNINGS /D "CMAKE_INTDIR=\"Debug\"" /D freetype_EXPORTS /D _WINDLL /D _MBCS /Gm- /RTC1 /MDd /GS /fp:precise /Zc:wchar_t /Zc:forScope /Zc:inline /Fo"FREETYPE.DIR\DEBUG\\" /Fd"FREETYPE.DIR\DEBUG\VC140.PDB" /Gd /TC /analyze- P:\LIBS\CEGUI-CEGUI-DEPENDENCIES-0ECDF3A9E49B\SRC\FREETYPE-2.4.4\SRC\CID\TYPE1CID.C
^P:\LIBS\CEGUI-CEGUI-DEPENDENCIES-0ECDF3A9E49B\SRC\FREETYPE-2.4.4\SRC\PCF\PCF.C
/c /I"P:\LIBS\CEGUI-CEGUI-DEPENDENCIES-0ECDF3A9E49B\SRC\FREETYPE-2.4.4\CEGUI-BUILD\..\INCLUDE" /Zi /nologo /W3 /WX- /Od /Ob0 /Oy- /D WIN32 /D _WINDOWS /D _DEBUG /D FT2_BUILD_LIBRARY /D FT_DEBUG_LEVEL_ERROR /D FT_DEBUG_LEVEL_TRACE /D _CRT_SECURE_NO_WARNINGS /D "CMAKE_INTDIR=\"Debug\"" /D freetype_EXPORTS /D _WINDLL /D _MBCS /Gm- /RTC1 /MDd /GS /fp:precise /Zc:wchar_t /Zc:forScope /Zc:inline /Fo"FREETYPE.DIR\DEBUG\\" /Fd"FREETYPE.DIR\DEBUG\VC140.PDB" /Gd /TC /analyze- P:\LIBS\CEGUI-CEGUI-DEPENDENCIES-0ECDF3A9E49B\SRC\FREETYPE-2.4.4\SRC\PCF\PCF.C
^P:\LIBS\CEGUI-CEGUI-DEPENDENCIES-0ECDF3A9E49B\SRC\FREETYPE-2.4.4\SRC\PFR\PFR.C
/c /I"P:\LIBS\CEGUI-CEGUI-DEPENDENCIES-0ECDF3A9E49B\SRC\FREETYPE-2.4.4\CEGUI-BUILD\..\INCLUDE" /Zi /nologo /W3 /WX- /Od /Ob0 /Oy- /D WIN32 /D _WINDOWS /D _DEBUG /D FT2_BUILD_LIBRARY /D FT_DEBUG_LEVEL_ERROR /D FT_DEBUG_LEVEL_TRACE /D _CRT_SECURE_NO_WARNINGS /D "CMAKE_INTDIR=\"Debug\"" /D freetype_EXPORTS /D _WINDLL /D _MBCS /Gm- /RTC1 /MDd /GS /fp:precise /Zc:wchar_t /Zc:forScope /Zc:inline /Fo"FREETYPE.DIR\DEBUG\\" /Fd"FREETYPE.DIR\DEBUG\VC140.PDB" /Gd /TC /analyze- P:\LIBS\CEGUI-CEGUI-DEPENDENCIES-0ECDF3A9E49B\SRC\FREETYPE-2.4.4\SRC\PFR\PFR.C
^P:\LIBS\CEGUI-CEGUI-DEPENDENCIES-0ECDF3A9E49B\SRC\FREETYPE-2.4.4\SRC\SFNT\SFNT.C
/c /I"P:\LIBS\CEGUI-CEGUI-DEPENDENCIES-0ECDF3A9E49B\SRC\FREETYPE-2.4.4\CEGUI-BUILD\..\INCLUDE" /Zi /nologo /W3 /WX- /Od /Ob0 /Oy- /D WIN32 /D _WINDOWS /D _DEBUG /D FT2_BUILD_LIBRARY /D FT_DEBUG_LEVEL_ERROR /D FT_DEBUG_LEVEL_TRACE /D _CRT_SECURE_NO_WARNINGS /D "CMAKE_INTDIR=\"Debug\"" /D freetype_EXPORTS /D _WINDLL /D _MBCS /Gm- /RTC1 /MDd /GS /fp:precise /Zc:wchar_t /Zc:forScope /Zc:inline /Fo"FREETYPE.DIR\DEBUG\\" /Fd"FREETYPE.DIR\DEBUG\VC140.PDB" /Gd /TC /analyze- P:\LIBS\CEGUI-CEGUI-DEPENDENCIES-0ECDF3A9E49B\SRC\FREETYPE-2.4.4\SRC\SFNT\SFNT.C
^P:\LIBS\CEGUI-CEGUI-DEPENDENCIES-0ECDF3A9E49B\SRC\FREETYPE-2.4.4\SRC\TRUETYPE\TRUETYPE.C
/c /I"P:\LIBS\CEGUI-CEGUI-DEPENDENCIES-0ECDF3A9E49B\SRC\FREETYPE-2.4.4\CEGUI-BUILD\..\INCLUDE" /Zi /nologo /W3 /WX- /Od /Ob0 /Oy- /D WIN32 /D _WINDOWS /D _DEBUG /D FT2_BUILD_LIBRARY /D FT_DEBUG_LEVEL_ERROR /D FT_DEBUG_LEVEL_TRACE /D _CRT_SECURE_NO_WARNINGS /D "CMAKE_INTDIR=\"Debug\"" /D freetype_EXPORTS /D _WINDLL /D _MBCS /Gm- /RTC1 /MDd /GS /fp:precise /Zc:wchar_t /Zc:forScope /Zc:inline /Fo"FREETYPE.DIR\DEBUG\\" /Fd"FREETYPE.DIR\DEBUG\VC140.PDB" /Gd /TC /analyze- P:\LIBS\CEGUI-CEGUI-DEPENDENCIES-0ECDF3A9E49B\SRC\FREETYPE-2.4.4\SRC\TRUETYPE\TRUETYPE.C
^P:\LIBS\CEGUI-CEGUI-DEPENDENCIES-0ECDF3A9E49B\SRC\FREETYPE-2.4.4\SRC\TYPE1\TYPE1.C
/c /I"P:\LIBS\CEGUI-CEGUI-DEPENDENCIES-0ECDF3A9E49B\SRC\FREETYPE-2.4.4\CEGUI-BUILD\..\INCLUDE" /Zi /nologo /W3 /WX- /Od /Ob0 /Oy- /D WIN32 /D _WINDOWS /D _DEBUG /D FT2_BUILD_LIBRARY /D FT_DEBUG_LEVEL_ERROR /D FT_DEBUG_LEVEL_TRACE /D _CRT_SECURE_NO_WARNINGS /D "CMAKE_INTDIR=\"Debug\"" /D freetype_EXPORTS /D _WINDLL /D _MBCS /Gm- /RTC1 /MDd /GS /fp:precise /Zc:wchar_t /Zc:forScope /Zc:inline /Fo"FREETYPE.DIR\DEBUG\\" /Fd"FREETYPE.DIR\DEBUG\VC140.PDB" /Gd /TC /analyze- P:\LIBS\CEGUI-CEGUI-DEPENDENCIES-0ECDF3A9E49B\SRC\FREETYPE-2.4.4\SRC\TYPE1\TYPE1.C
^P:\LIBS\CEGUI-CEGUI-DEPENDENCIES-0ECDF3A9E49B\SRC\FREETYPE-2.4.4\SRC\TYPE42\TYPE42.C
/c /I"P:\LIBS\CEGUI-CEGUI-DEPENDENCIES-0ECDF3A9E49B\SRC\FREETYPE-2.4.4\CEGUI-BUILD\..\INCLUDE" /Zi /nologo /W3 /WX- /Od /Ob0 /Oy- /D WIN32 /D _WINDOWS /D _DEBUG /D FT2_BUILD_LIBRARY /D FT_DEBUG_LEVEL_ERROR /D FT_DEBUG_LEVEL_TRACE /D _CRT_SECURE_NO_WARNINGS /D "CMAKE_INTDIR=\"Debug\"" /D freetype_EXPORTS /D _WINDLL /D _MBCS /Gm- /RTC1 /MDd /GS /fp:precise /Zc:wchar_t /Zc:forScope /Zc:inline /Fo"FREETYPE.DIR\DEBUG\\" /Fd"FREETYPE.DIR\DEBUG\VC140.PDB" /Gd /TC /analyze- P:\LIBS\CEGUI-CEGUI-DEPENDENCIES-0ECDF3A9E49B\SRC\FREETYPE-2.4.4\SRC\TYPE42\TYPE42.C
^P:\LIBS\CEGUI-CEGUI-DEPENDENCIES-0ECDF3A9E49B\SRC\FREETYPE-2.4.4\SRC\WINFONTS\WINFNT.C
/c /I"P:\LIBS\CEGUI-CEGUI-DEPENDENCIES-0ECDF3A9E49B\SRC\FREETYPE-2.4.4\CEGUI-BUILD\..\INCLUDE" /Zi /nologo /W3 /WX- /Od /Ob0 /Oy- /D WIN32 /D _WINDOWS /D _DEBUG /D FT2_BUILD_LIBRARY /D FT_DEBUG_LEVEL_ERROR /D FT_DEBUG_LEVEL_TRACE /D _CRT_SECURE_NO_WARNINGS /D "CMAKE_INTDIR=\"Debug\"" /D freetype_EXPORTS /D _WINDLL /D _MBCS /Gm- /RTC1 /MDd /GS /fp:precise /Zc:wchar_t /Zc:forScope /Zc:inline /Fo"FREETYPE.DIR\DEBUG\\" /Fd"FREETYPE.DIR\DEBUG\VC140.PDB" /Gd /TC /analyze- P:\LIBS\CEGUI-CEGUI-DEPENDENCIES-0ECDF3A9E49B\SRC\FREETYPE-2.4.4\SRC\WINFONTS\WINFNT.C
^P:\LIBS\CEGUI-CEGUI-DEPENDENCIES-0ECDF3A9E49B\SRC\FREETYPE-2.4.4\SRC\RASTER\RASTER.C
/c /I"P:\LIBS\CEGUI-CEGUI-DEPENDENCIES-0ECDF3A9E49B\SRC\FREETYPE-2.4.4\CEGUI-BUILD\..\INCLUDE" /Zi /nologo /W3 /WX- /Od /Ob0 /Oy- /D WIN32 /D _WINDOWS /D _DEBUG /D FT2_BUILD_LIBRARY /D FT_DEBUG_LEVEL_ERROR /D FT_DEBUG_LEVEL_TRACE /D _CRT_SECURE_NO_WARNINGS /D "CMAKE_INTDIR=\"Debug\"" /D freetype_EXPORTS /D _WINDLL /D _MBCS /Gm- /RTC1 /MDd /GS /fp:precise /Zc:wchar_t /Zc:forScope /Zc:inline /Fo"FREETYPE.DIR\DEBUG\\" /Fd"FREETYPE.DIR\DEBUG\VC140.PDB" /Gd /TC /analyze- P:\LIBS\CEGUI-CEGUI-DEPENDENCIES-0ECDF3A9E49B\SRC\FREETYPE-2.4.4\SRC\RASTER\RASTER.C
^P:\LIBS\CEGUI-CEGUI-DEPENDENCIES-0ECDF3A9E49B\SRC\FREETYPE-2.4.4\SRC\SMOOTH\SMOOTH.C
/c /I"P:\LIBS\CEGUI-CEGUI-DEPENDENCIES-0ECDF3A9E49B\SRC\FREETYPE-2.4.4\CEGUI-BUILD\..\INCLUDE" /Zi /nologo /W3 /WX- /Od /Ob0 /Oy- /D WIN32 /D _WINDOWS /D _DEBUG /D FT2_BUILD_LIBRARY /D FT_DEBUG_LEVEL_ERROR /D FT_DEBUG_LEVEL_TRACE /D _CRT_SECURE_NO_WARNINGS /D "CMAKE_INTDIR=\"Debug\"" /D freetype_EXPORTS /D _WINDLL /D _MBCS /Gm- /RTC1 /MDd /GS /fp:precise /Zc:wchar_t /Zc:forScope /Zc:inline /Fo"FREETYPE.DIR\DEBUG\\" /Fd"FREETYPE.DIR\DEBUG\VC140.PDB" /Gd /TC /analyze- P:\LIBS\CEGUI-CEGUI-DEPENDENCIES-0ECDF3A9E49B\SRC\FREETYPE-2.4.4\SRC\SMOOTH\SMOOTH.C
^P:\LIBS\CEGUI-CEGUI-DEPENDENCIES-0ECDF3A9E49B\SRC\FREETYPE-2.4.4\SRC\AUTOFIT\AUTOFIT.C
/c /I"P:\LIBS\CEGUI-CEGUI-DEPENDENCIES-0ECDF3A9E49B\SRC\FREETYPE-2.4.4\CEGUI-BUILD\..\INCLUDE" /Zi /nologo /W3 /WX- /Od /Ob0 /Oy- /D WIN32 /D _WINDOWS /D _DEBUG /D FT2_BUILD_LIBRARY /D FT_DEBUG_LEVEL_ERROR /D FT_DEBUG_LEVEL_TRACE /D _CRT_SECURE_NO_WARNINGS /D "CMAKE_INTDIR=\"Debug\"" /D freetype_EXPORTS /D _WINDLL /D _MBCS /Gm- /RTC1 /MDd /GS /fp:precise /Zc:wchar_t /Zc:forScope /Zc:inline /Fo"FREETYPE.DIR\DEBUG\\" /Fd"FREETYPE.DIR\DEBUG\VC140.PDB" /Gd /TC /analyze- P:\LIBS\CEGUI-CEGUI-DEPENDENCIES-0ECDF3A9E49B\SRC\FREETYPE-2.4.4\SRC\AUTOFIT\AUTOFIT.C
^P:\LIBS\CEGUI-CEGUI-DEPENDENCIES-0ECDF3A9E49B\SRC\FREETYPE-2.4.4\SRC\CACHE\FTCACHE.C
/c /I"P:\LIBS\CEGUI-CEGUI-DEPENDENCIES-0ECDF3A9E49B\SRC\FREETYPE-2.4.4\CEGUI-BUILD\..\INCLUDE" /Zi /nologo /W3 /WX- /Od /Ob0 /Oy- /D WIN32 /D _WINDOWS /D _DEBUG /D FT2_BUILD_LIBRARY /D FT_DEBUG_LEVEL_ERROR /D FT_DEBUG_LEVEL_TRACE /D _CRT_SECURE_NO_WARNINGS /D "CMAKE_INTDIR=\"Debug\"" /D freetype_EXPORTS /D _WINDLL /D _MBCS /Gm- /RTC1 /MDd /GS /fp:precise /Zc:wchar_t /Zc:forScope /Zc:inline /Fo"FREETYPE.DIR\DEBUG\\" /Fd"FREETYPE.DIR\DEBUG\VC140.PDB" /Gd /TC /analyze- P:\LIBS\CEGUI-CEGUI-DEPENDENCIES-0ECDF3A9E49B\SRC\FREETYPE-2.4.4\SRC\CACHE\FTCACHE.C
^P:\LIBS\CEGUI-CEGUI-DEPENDENCIES-0ECDF3A9E49B\SRC\FREETYPE-2.4.4\SRC\GZIP\FTGZIP.C
/c /I"P:\LIBS\CEGUI-CEGUI-DEPENDENCIES-0ECDF3A9E49B\SRC\FREETYPE-2.4.4\CEGUI-BUILD\..\INCLUDE" /Zi /nologo /W3 /WX- /Od /Ob0 /Oy- /D WIN32 /D _WINDOWS /D _DEBUG /D FT2_BUILD_LIBRARY /D FT_DEBUG_LEVEL_ERROR /D FT_DEBUG_LEVEL_TRACE /D _CRT_SECURE_NO_WARNINGS /D "CMAKE_INTDIR=\"Debug\"" /D freetype_EXPORTS /D _WINDLL /D _MBCS /Gm- /RTC1 /MDd /GS /fp:precise /Zc:wchar_t /Zc:forScope /Zc:inline /Fo"FREETYPE.DIR\DEBUG\\" /Fd"FREETYPE.DIR\DEBUG\VC140.PDB" /Gd /TC /analyze- P:\LIBS\CEGUI-CEGUI-DEPENDENCIES-0ECDF3A9E49B\SRC\FREETYPE-2.4.4\SRC\GZIP\FTGZIP.C
^P:\LIBS\CEGUI-CEGUI-DEPENDENCIES-0ECDF3A9E49B\SRC\FREETYPE-2.4.4\SRC\LZW\FTLZW.C
/c /I"P:\LIBS\CEGUI-CEGUI-DEPENDENCIES-0ECDF3A9E49B\SRC\FREETYPE-2.4.4\CEGUI-BUILD\..\INCLUDE" /Zi /nologo /W3 /WX- /Od /Ob0 /Oy- /D WIN32 /D _WINDOWS /D _DEBUG /D FT2_BUILD_LIBRARY /D FT_DEBUG_LEVEL_ERROR /D FT_DEBUG_LEVEL_TRACE /D _CRT_SECURE_NO_WARNINGS /D "CMAKE_INTDIR=\"Debug\"" /D freetype_EXPORTS /D _WINDLL /D _MBCS /Gm- /RTC1 /MDd /GS /fp:precise /Zc:wchar_t /Zc:forScope /Zc:inline /Fo"FREETYPE.DIR\DEBUG\\" /Fd"FREETYPE.DIR\DEBUG\VC140.PDB" /Gd /TC /analyze- P:\LIBS\CEGUI-CEGUI-DEPENDENCIES-0ECDF3A9E49B\SRC\FREETYPE-2.4.4\SRC\LZW\FTLZW.C
^P:\LIBS\CEGUI-CEGUI-DEPENDENCIES-0ECDF3A9E49B\SRC\FREETYPE-2.4.4\SRC\GXVALID\GXVALID.C
/c /I"P:\LIBS\CEGUI-CEGUI-DEPENDENCIES-0ECDF3A9E49B\SRC\FREETYPE-2.4.4\CEGUI-BUILD\..\INCLUDE" /Zi /nologo /W3 /WX- /Od /Ob0 /Oy- /D WIN32 /D _WINDOWS /D _DEBUG /D FT2_BUILD_LIBRARY /D FT_DEBUG_LEVEL_ERROR /D FT_DEBUG_LEVEL_TRACE /D _CRT_SECURE_NO_WARNINGS /D "CMAKE_INTDIR=\"Debug\"" /D freetype_EXPORTS /D _WINDLL /D _MBCS /Gm- /RTC1 /MDd /GS /fp:precise /Zc:wchar_t /Zc:forScope /Zc:inline /Fo"FREETYPE.DIR\DEBUG\\" /Fd"FREETYPE.DIR\DEBUG\VC140.PDB" /Gd /TC /analyze- P:\LIBS\CEGUI-CEGUI-DEPENDENCIES-0ECDF3A9E49B\SRC\FREETYPE-2.4.4\SRC\GXVALID\GXVALID.C
^P:\LIBS\CEGUI-CEGUI-DEPENDENCIES-0ECDF3A9E49B\SRC\FREETYPE-2.4.4\SRC\OTVALID\OTVALID.C
/c /I"P:\LIBS\CEGUI-CEGUI-DEPENDENCIES-0ECDF3A9E49B\SRC\FREETYPE-2.4.4\CEGUI-BUILD\..\INCLUDE" /Zi /nologo /W3 /WX- /Od /Ob0 /Oy- /D WIN32 /D _WINDOWS /D _DEBUG /D FT2_BUILD_LIBRARY /D FT_DEBUG_LEVEL_ERROR /D FT_DEBUG_LEVEL_TRACE /D _CRT_SECURE_NO_WARNINGS /D "CMAKE_INTDIR=\"Debug\"" /D freetype_EXPORTS /D _WINDLL /D _MBCS /Gm- /RTC1 /MDd /GS /fp:precise /Zc:wchar_t /Zc:forScope /Zc:inline /Fo"FREETYPE.DIR\DEBUG\\" /Fd"FREETYPE.DIR\DEBUG\VC140.PDB" /Gd /TC /analyze- P:\LIBS\CEGUI-CEGUI-DEPENDENCIES-0ECDF3A9E49B\SRC\FREETYPE-2.4.4\SRC\OTVALID\OTVALID.C
^P:\LIBS\CEGUI-CEGUI-DEPENDENCIES-0ECDF3A9E49B\SRC\FREETYPE-2.4.4\SRC\PSAUX\PSAUX.C
/c /I"P:\LIBS\CEGUI-CEGUI-DEPENDENCIES-0ECDF3A9E49B\SRC\FREETYPE-2.4.4\CEGUI-BUILD\..\INCLUDE" /Zi /nologo /W3 /WX- /Od /Ob0 /Oy- /D WIN32 /D _WINDOWS /D _DEBUG /D FT2_BUILD_LIBRARY /D FT_DEBUG_LEVEL_ERROR /D FT_DEBUG_LEVEL_TRACE /D _CRT_SECURE_NO_WARNINGS /D "CMAKE_INTDIR=\"Debug\"" /D freetype_EXPORTS /D _WINDLL /D _MBCS /Gm- /RTC1 /MDd /GS /fp:precise /Zc:wchar_t /Zc:forScope /Zc:inline /Fo"FREETYPE.DIR\DEBUG\\" /Fd"FREETYPE.DIR\DEBUG\VC140.PDB" /Gd /TC /analyze- P:\LIBS\CEGUI-CEGUI-DEPENDENCIES-0ECDF3A9E49B\SRC\FREETYPE-2.4.4\SRC\PSAUX\PSAUX.C
^P:\LIBS\CEGUI-CEGUI-DEPENDENCIES-0ECDF3A9E49B\SRC\FREETYPE-2.4.4\SRC\PSHINTER\PSHINTER.C
/c /I"P:\LIBS\CEGUI-CEGUI-DEPENDENCIES-0ECDF3A9E49B\SRC\FREETYPE-2.4.4\CEGUI-BUILD\..\INCLUDE" /Zi /nologo /W3 /WX- /Od /Ob0 /Oy- /D WIN32 /D _WINDOWS /D _DEBUG /D FT2_BUILD_LIBRARY /D FT_DEBUG_LEVEL_ERROR /D FT_DEBUG_LEVEL_TRACE /D _CRT_SECURE_NO_WARNINGS /D "CMAKE_INTDIR=\"Debug\"" /D freetype_EXPORTS /D _WINDLL /D _MBCS /Gm- /RTC1 /MDd /GS /fp:precise /Zc:wchar_t /Zc:forScope /Zc:inline /Fo"FREETYPE.DIR\DEBUG\\" /Fd"FREETYPE.DIR\DEBUG\VC140.PDB" /Gd /TC /analyze- P:\LIBS\CEGUI-CEGUI-DEPENDENCIES-0ECDF3A9E49B\SRC\FREETYPE-2.4.4\SRC\PSHINTER\PSHINTER.C
^P:\LIBS\CEGUI-CEGUI-DEPENDENCIES-0ECDF3A9E49B\SRC\FREETYPE-2.4.4\SRC\PSNAMES\PSNAMES.C
/c /I"P:\LIBS\CEGUI-CEGUI-DEPENDENCIES-0ECDF3A9E49B\SRC\FREETYPE-2.4.4\CEGUI-BUILD\..\INCLUDE" /Zi /nologo /W3 /WX- /Od /Ob0 /Oy- /D WIN32 /D _WINDOWS /D _DEBUG /D FT2_BUILD_LIBRARY /D FT_DEBUG_LEVEL_ERROR /D FT_DEBUG_LEVEL_TRACE /D _CRT_SECURE_NO_WARNINGS /D "CMAKE_INTDIR=\"Debug\"" /D freetype_EXPORTS /D _WINDLL /D _MBCS /Gm- /RTC1 /MDd /GS /fp:precise /Zc:wchar_t /Zc:forScope /Zc:inline /Fo"FREETYPE.DIR\DEBUG\\" /Fd"FREETYPE.DIR\DEBUG\VC140.PDB" /Gd /TC /analyze- P:\LIBS\CEGUI-CEGUI-DEPENDENCIES-0ECDF3A9E49B\SRC\FREETYPE-2.4.4\SRC\PSNAMES\PSNAMES.C
