^P:\LIBS\CEGUI-CEGUI-DEPENDENCIES-0ECDF3A9E49B\SRC\SILLY\SRC\SILLYDATASOURCE.CPP
P:\LIBS\CEGUI-CEGUI-DEPENDENCIES-0ECDF3A9E49B\SRC\SILLY\INCLUDE\SILLYDATASOURCE.H
P:\LIBS\CEGUI-CEGUI-DEPENDENCIES-0ECDF3A9E49B\SRC\SILLY\INCLUDE\SILLYBASE.H
C:\PROGRAM FILES (X86)\VC\INCLUDE\CASSERT
C:\PROGRAM FILES (X86)\VC\INCLUDE\YVALS.H
C:\PROGRAM FILES (X86)\VC\INCLUDE\XKEYCHECK.H
C:\PROGRAM FILES (X86)\VC\INCLUDE\CRTDEFS.H
C:\PROGRAM FILES (X86)\VC\INCLUDE\VCRUNTIME.H
C:\PROGRAM FILES (X86)\VC\INCLUDE\SAL.H
C:\PROGRAM FILES (X86)\VC\INCLUDE\CONCURRENCYSAL.H
C:\PROGRAM FILES (X86)\VC\INCLUDE\VADEFS.H
C:\PROGRAM FILES (X86)\WINDOWS KITS\10\INCLUDE\10.0.10240.0\UCRT\CORECRT.H
C:\PROGRAM FILES (X86)\VC\INCLUDE\USE_ANSI.H
C:\PROGRAM FILES (X86)\WINDOWS KITS\10\INCLUDE\10.0.10240.0\UCRT\ASSERT.H
C:\PROGRAM FILES (X86)\VC\INCLUDE\CSTDDEF
C:\PROGRAM FILES (X86)\WINDOWS KITS\10\INCLUDE\10.0.10240.0\UCRT\STDDEF.H
P:\LIBS\CEGUI-CEGUI-DEPENDENCIES-0ECDF3A9E49B\SRC\SILLY\INCLUDE\SILLYDATASOURCE.ICPP
^P:\LIBS\CEGUI-CEGUI-DEPENDENCIES-0ECDF3A9E49B\SRC\SILLY\SRC\SILLYFILEDATASOURCE.CPP
P:\LIBS\CEGUI-CEGUI-DEPENDENCIES-0ECDF3A9E49B\SRC\SILLY\INCLUDE\SILLYFILEDATASOURCE.H
P:\LIBS\CEGUI-CEGUI-DEPENDENCIES-0ECDF3A9E49B\SRC\SILLY\INCLUDE\SILLYBASE.H
C:\PROGRAM FILES (X86)\VC\INCLUDE\CASSERT
C:\PROGRAM FILES (X86)\VC\INCLUDE\YVALS.H
C:\PROGRAM FILES (X86)\VC\INCLUDE\XKEYCHECK.H
C:\PROGRAM FILES (X86)\VC\INCLUDE\CRTDEFS.H
C:\PROGRAM FILES (X86)\VC\INCLUDE\VCRUNTIME.H
C:\PROGRAM FILES (X86)\VC\INCLUDE\SAL.H
C:\PROGRAM FILES (X86)\VC\INCLUDE\CONCURRENCYSAL.H
C:\PROGRAM FILES (X86)\VC\INCLUDE\VADEFS.H
C:\PROGRAM FILES (X86)\WINDOWS KITS\10\INCLUDE\10.0.10240.0\UCRT\CORECRT.H
C:\PROGRAM FILES (X86)\VC\INCLUDE\USE_ANSI.H
C:\PROGRAM FILES (X86)\WINDOWS KITS\10\INCLUDE\10.0.10240.0\UCRT\ASSERT.H
C:\PROGRAM FILES (X86)\VC\INCLUDE\CSTDDEF
C:\PROGRAM FILES (X86)\WINDOWS KITS\10\INCLUDE\10.0.10240.0\UCRT\STDDEF.H
P:\LIBS\CEGUI-CEGUI-DEPENDENCIES-0ECDF3A9E49B\SRC\SILLY\INCLUDE\SILLYDATASOURCE.H
P:\LIBS\CEGUI-CEGUI-DEPENDENCIES-0ECDF3A9E49B\SRC\SILLY\INCLUDE\SILLYFILEDATASOURCE.ICPP
C:\PROGRAM FILES (X86)\WINDOWS KITS\10\INCLUDE\10.0.10240.0\UCRT\STDIO.H
C:\PROGRAM FILES (X86)\WINDOWS KITS\10\INCLUDE\10.0.10240.0\UCRT\CORECRT_WSTDIO.H
C:\PROGRAM FILES (X86)\WINDOWS KITS\10\INCLUDE\10.0.10240.0\UCRT\CORECRT_STDIO_CONFIG.H
^P:\LIBS\CEGUI-CEGUI-DEPENDENCIES-0ECDF3A9E49B\SRC\SILLY\SRC\SILLYIMAGE.CPP
P:\LIBS\CEGUI-CEGUI-DEPENDENCIES-0ECDF3A9E49B\SRC\SILLY\INCLUDE\SILLYIMAGE.H
P:\LIBS\CEGUI-CEGUI-DEPENDENCIES-0ECDF3A9E49B\SRC\SILLY\INCLUDE\SILLYBASE.H
C:\PROGRAM FILES (X86)\VC\INCLUDE\CASSERT
C:\PROGRAM FILES (X86)\VC\INCLUDE\YVALS.H
C:\PROGRAM FILES (X86)\VC\INCLUDE\XKEYCHECK.H
C:\PROGRAM FILES (X86)\VC\INCLUDE\CRTDEFS.H
C:\PROGRAM FILES (X86)\VC\INCLUDE\VCRUNTIME.H
C:\PROGRAM FILES (X86)\VC\INCLUDE\SAL.H
C:\PROGRAM FILES (X86)\VC\INCLUDE\CONCURRENCYSAL.H
C:\PROGRAM FILES (X86)\VC\INCLUDE\VADEFS.H
C:\PROGRAM FILES (X86)\WINDOWS KITS\10\INCLUDE\10.0.10240.0\UCRT\CORECRT.H
C:\PROGRAM FILES (X86)\VC\INCLUDE\USE_ANSI.H
C:\PROGRAM FILES (X86)\WINDOWS KITS\10\INCLUDE\10.0.10240.0\UCRT\ASSERT.H
C:\PROGRAM FILES (X86)\VC\INCLUDE\CSTDDEF
C:\PROGRAM FILES (X86)\WINDOWS KITS\10\INCLUDE\10.0.10240.0\UCRT\STDDEF.H
P:\LIBS\CEGUI-CEGUI-DEPENDENCIES-0ECDF3A9E49B\SRC\SILLY\INCLUDE\SILLYIMAGECONTEXT.H
P:\LIBS\CEGUI-CEGUI-DEPENDENCIES-0ECDF3A9E49B\SRC\SILLY\INCLUDE\SILLYDATASOURCE.H
P:\LIBS\CEGUI-CEGUI-DEPENDENCIES-0ECDF3A9E49B\SRC\SILLY\INCLUDE\SILLYIMAGELOADER.H
P:\LIBS\CEGUI-CEGUI-DEPENDENCIES-0ECDF3A9E49B\SRC\SILLY\INCLUDE\SILLYIMAGE.ICPP
P:\LIBS\CEGUI-CEGUI-DEPENDENCIES-0ECDF3A9E49B\SRC\SILLY\INCLUDE\SILLYIMAGELOADERMANAGER.H
C:\PROGRAM FILES (X86)\VC\INCLUDE\VECTOR
C:\PROGRAM FILES (X86)\VC\INCLUDE\XMEMORY
C:\PROGRAM FILES (X86)\VC\INCLUDE\XMEMORY0
C:\PROGRAM FILES (X86)\VC\INCLUDE\CSTDINT
C:\PROGRAM FILES (X86)\VC\INCLUDE\STDINT.H
C:\PROGRAM FILES (X86)\VC\INCLUDE\CSTDLIB
C:\PROGRAM FILES (X86)\WINDOWS KITS\10\INCLUDE\10.0.10240.0\UCRT\STDLIB.H
C:\PROGRAM FILES (X86)\WINDOWS KITS\10\INCLUDE\10.0.10240.0\UCRT\CORECRT_MALLOC.H
C:\PROGRAM FILES (X86)\WINDOWS KITS\10\INCLUDE\10.0.10240.0\UCRT\CORECRT_SEARCH.H
C:\PROGRAM FILES (X86)\WINDOWS KITS\10\INCLUDE\10.0.10240.0\UCRT\CORECRT_WSTDLIB.H
C:\PROGRAM FILES (X86)\VC\INCLUDE\LIMITS.H
C:\PROGRAM FILES (X86)\VC\INCLUDE\LIMITS
C:\PROGRAM FILES (X86)\VC\INCLUDE\YMATH.H
C:\PROGRAM FILES (X86)\VC\INCLUDE\CFLOAT
C:\PROGRAM FILES (X86)\WINDOWS KITS\10\INCLUDE\10.0.10240.0\UCRT\FLOAT.H
C:\PROGRAM FILES (X86)\VC\INCLUDE\CLIMITS
C:\PROGRAM FILES (X86)\VC\INCLUDE\CMATH
C:\PROGRAM FILES (X86)\WINDOWS KITS\10\INCLUDE\10.0.10240.0\UCRT\MATH.H
C:\PROGRAM FILES (X86)\VC\INCLUDE\XTGMATH.H
C:\PROGRAM FILES (X86)\VC\INCLUDE\XTR1COMMON
C:\PROGRAM FILES (X86)\VC\INCLUDE\CWCHAR
C:\PROGRAM FILES (X86)\WINDOWS KITS\10\INCLUDE\10.0.10240.0\UCRT\WCHAR.H
C:\PROGRAM FILES (X86)\WINDOWS KITS\10\INCLUDE\10.0.10240.0\UCRT\CORECRT_MEMCPY_S.H
C:\PROGRAM FILES (X86)\WINDOWS KITS\10\INCLUDE\10.0.10240.0\UCRT\ERRNO.H
C:\PROGRAM FILES (X86)\VC\INCLUDE\VCRUNTIME_STRING.H
C:\PROGRAM FILES (X86)\WINDOWS KITS\10\INCLUDE\10.0.10240.0\UCRT\CORECRT_WCONIO.H
C:\PROGRAM FILES (X86)\WINDOWS KITS\10\INCLUDE\10.0.10240.0\UCRT\CORECRT_STDIO_CONFIG.H
C:\PROGRAM FILES (X86)\WINDOWS KITS\10\INCLUDE\10.0.10240.0\UCRT\CORECRT_WCTYPE.H
C:\PROGRAM FILES (X86)\WINDOWS KITS\10\INCLUDE\10.0.10240.0\UCRT\CORECRT_WDIRECT.H
C:\PROGRAM FILES (X86)\WINDOWS KITS\10\INCLUDE\10.0.10240.0\UCRT\CORECRT_WIO.H
C:\PROGRAM FILES (X86)\WINDOWS KITS\10\INCLUDE\10.0.10240.0\UCRT\CORECRT_SHARE.H
C:\PROGRAM FILES (X86)\WINDOWS KITS\10\INCLUDE\10.0.10240.0\UCRT\CORECRT_WPROCESS.H
C:\PROGRAM FILES (X86)\WINDOWS KITS\10\INCLUDE\10.0.10240.0\UCRT\CORECRT_WSTDIO.H
C:\PROGRAM FILES (X86)\WINDOWS KITS\10\INCLUDE\10.0.10240.0\UCRT\CORECRT_WSTRING.H
C:\PROGRAM FILES (X86)\WINDOWS KITS\10\INCLUDE\10.0.10240.0\UCRT\CORECRT_WTIME.H
C:\PROGRAM FILES (X86)\WINDOWS KITS\10\INCLUDE\10.0.10240.0\UCRT\SYS\STAT.H
C:\PROGRAM FILES (X86)\WINDOWS KITS\10\INCLUDE\10.0.10240.0\UCRT\SYS\TYPES.H
C:\PROGRAM FILES (X86)\VC\INCLUDE\XSTDDEF
C:\PROGRAM FILES (X86)\VC\INCLUDE\INITIALIZER_LIST
C:\PROGRAM FILES (X86)\VC\INCLUDE\NEW
C:\PROGRAM FILES (X86)\VC\INCLUDE\EXCEPTION
C:\PROGRAM FILES (X86)\VC\INCLUDE\TYPE_TRAITS
C:\PROGRAM FILES (X86)\WINDOWS KITS\10\INCLUDE\10.0.10240.0\UCRT\MALLOC.H
C:\PROGRAM FILES (X86)\VC\INCLUDE\VCRUNTIME_EXCEPTION.H
C:\PROGRAM FILES (X86)\VC\INCLUDE\EH.H
C:\PROGRAM FILES (X86)\WINDOWS KITS\10\INCLUDE\10.0.10240.0\UCRT\CORECRT_TERMINATE.H
C:\PROGRAM FILES (X86)\VC\INCLUDE\VCRUNTIME_NEW.H
C:\PROGRAM FILES (X86)\VC\INCLUDE\XUTILITY
C:\PROGRAM FILES (X86)\VC\INCLUDE\UTILITY
C:\PROGRAM FILES (X86)\VC\INCLUDE\IOSFWD
C:\PROGRAM FILES (X86)\VC\INCLUDE\CSTDIO
C:\PROGRAM FILES (X86)\WINDOWS KITS\10\INCLUDE\10.0.10240.0\UCRT\STDIO.H
C:\PROGRAM FILES (X86)\VC\INCLUDE\CSTRING
C:\PROGRAM FILES (X86)\WINDOWS KITS\10\INCLUDE\10.0.10240.0\UCRT\STRING.H
C:\PROGRAM FILES (X86)\WINDOWS KITS\10\INCLUDE\10.0.10240.0\UCRT\CORECRT_MEMORY.H
C:\PROGRAM FILES (X86)\WINDOWS KITS\10\INCLUDE\10.0.10240.0\UCRT\CRTDBG.H
C:\PROGRAM FILES (X86)\VC\INCLUDE\VCRUNTIME_NEW_DEBUG.H
C:\PROGRAM FILES (X86)\VC\INCLUDE\XATOMIC0.H
C:\PROGRAM FILES (X86)\VC\INCLUDE\INTRIN.H
C:\PROGRAM FILES (X86)\VC\INCLUDE\SETJMP.H
C:\PROGRAM FILES (X86)\VC\INCLUDE\IMMINTRIN.H
C:\PROGRAM FILES (X86)\VC\INCLUDE\WMMINTRIN.H
C:\PROGRAM FILES (X86)\VC\INCLUDE\NMMINTRIN.H
C:\PROGRAM FILES (X86)\VC\INCLUDE\SMMINTRIN.H
C:\PROGRAM FILES (X86)\VC\INCLUDE\TMMINTRIN.H
C:\PROGRAM FILES (X86)\VC\INCLUDE\PMMINTRIN.H
C:\PROGRAM FILES (X86)\VC\INCLUDE\EMMINTRIN.H
C:\PROGRAM FILES (X86)\VC\INCLUDE\XMMINTRIN.H
C:\PROGRAM FILES (X86)\VC\INCLUDE\MMINTRIN.H
C:\PROGRAM FILES (X86)\VC\INCLUDE\AMMINTRIN.H
C:\PROGRAM FILES (X86)\VC\INCLUDE\MM3DNOW.H
C:\PROGRAM FILES (X86)\VC\INCLUDE\STDEXCEPT
C:\PROGRAM FILES (X86)\VC\INCLUDE\XSTRING
^P:\LIBS\CEGUI-CEGUI-DEPENDENCIES-0ECDF3A9E49B\SRC\SILLY\SRC\SILLYIMAGECONTEXT.CPP
P:\LIBS\CEGUI-CEGUI-DEPENDENCIES-0ECDF3A9E49B\SRC\SILLY\INCLUDE\SILLYIMAGECONTEXT.H
P:\LIBS\CEGUI-CEGUI-DEPENDENCIES-0ECDF3A9E49B\SRC\SILLY\INCLUDE\SILLYBASE.H
C:\PROGRAM FILES (X86)\VC\INCLUDE\CASSERT
C:\PROGRAM FILES (X86)\VC\INCLUDE\YVALS.H
C:\PROGRAM FILES (X86)\VC\INCLUDE\XKEYCHECK.H
C:\PROGRAM FILES (X86)\VC\INCLUDE\CRTDEFS.H
C:\PROGRAM FILES (X86)\VC\INCLUDE\VCRUNTIME.H
C:\PROGRAM FILES (X86)\VC\INCLUDE\SAL.H
C:\PROGRAM FILES (X86)\VC\INCLUDE\CONCURRENCYSAL.H
C:\PROGRAM FILES (X86)\VC\INCLUDE\VADEFS.H
C:\PROGRAM FILES (X86)\WINDOWS KITS\10\INCLUDE\10.0.10240.0\UCRT\CORECRT.H
C:\PROGRAM FILES (X86)\VC\INCLUDE\USE_ANSI.H
C:\PROGRAM FILES (X86)\WINDOWS KITS\10\INCLUDE\10.0.10240.0\UCRT\ASSERT.H
C:\PROGRAM FILES (X86)\VC\INCLUDE\CSTDDEF
C:\PROGRAM FILES (X86)\WINDOWS KITS\10\INCLUDE\10.0.10240.0\UCRT\STDDEF.H
P:\LIBS\CEGUI-CEGUI-DEPENDENCIES-0ECDF3A9E49B\SRC\SILLY\INCLUDE\SILLYIMAGECONTEXT.ICPP
C:\PROGRAM FILES (X86)\VC\INCLUDE\CSTRING
C:\PROGRAM FILES (X86)\WINDOWS KITS\10\INCLUDE\10.0.10240.0\UCRT\STRING.H
C:\PROGRAM FILES (X86)\WINDOWS KITS\10\INCLUDE\10.0.10240.0\UCRT\CORECRT_MEMORY.H
C:\PROGRAM FILES (X86)\WINDOWS KITS\10\INCLUDE\10.0.10240.0\UCRT\CORECRT_MEMCPY_S.H
C:\PROGRAM FILES (X86)\WINDOWS KITS\10\INCLUDE\10.0.10240.0\UCRT\ERRNO.H
C:\PROGRAM FILES (X86)\VC\INCLUDE\VCRUNTIME_STRING.H
C:\PROGRAM FILES (X86)\WINDOWS KITS\10\INCLUDE\10.0.10240.0\UCRT\CORECRT_WSTRING.H
^P:\LIBS\CEGUI-CEGUI-DEPENDENCIES-0ECDF3A9E49B\SRC\SILLY\SRC\SILLYIMAGELOADER.CPP
P:\LIBS\CEGUI-CEGUI-DEPENDENCIES-0ECDF3A9E49B\SRC\SILLY\INCLUDE\SILLYIMAGELOADER.H
P:\LIBS\CEGUI-CEGUI-DEPENDENCIES-0ECDF3A9E49B\SRC\SILLY\INCLUDE\SILLYBASE.H
C:\PROGRAM FILES (X86)\VC\INCLUDE\CASSERT
C:\PROGRAM FILES (X86)\VC\INCLUDE\YVALS.H
C:\PROGRAM FILES (X86)\VC\INCLUDE\XKEYCHECK.H
C:\PROGRAM FILES (X86)\VC\INCLUDE\CRTDEFS.H
C:\PROGRAM FILES (X86)\VC\INCLUDE\VCRUNTIME.H
C:\PROGRAM FILES (X86)\VC\INCLUDE\SAL.H
C:\PROGRAM FILES (X86)\VC\INCLUDE\CONCURRENCYSAL.H
C:\PROGRAM FILES (X86)\VC\INCLUDE\VADEFS.H
C:\PROGRAM FILES (X86)\WINDOWS KITS\10\INCLUDE\10.0.10240.0\UCRT\CORECRT.H
C:\PROGRAM FILES (X86)\VC\INCLUDE\USE_ANSI.H
C:\PROGRAM FILES (X86)\WINDOWS KITS\10\INCLUDE\10.0.10240.0\UCRT\ASSERT.H
C:\PROGRAM FILES (X86)\VC\INCLUDE\CSTDDEF
C:\PROGRAM FILES (X86)\WINDOWS KITS\10\INCLUDE\10.0.10240.0\UCRT\STDDEF.H
P:\LIBS\CEGUI-CEGUI-DEPENDENCIES-0ECDF3A9E49B\SRC\SILLY\INCLUDE\SILLYIMAGELOADER.ICPP
P:\LIBS\CEGUI-CEGUI-DEPENDENCIES-0ECDF3A9E49B\SRC\SILLY\INCLUDE\SILLYIMAGECONTEXT.H
^P:\LIBS\CEGUI-CEGUI-DEPENDENCIES-0ECDF3A9E49B\SRC\SILLY\SRC\SILLYIMAGELOADERMANAGER.CPP
P:\LIBS\CEGUI-CEGUI-DEPENDENCIES-0ECDF3A9E49B\SRC\SILLY\INCLUDE\SILLYIMAGELOADERMANAGER.H
P:\LIBS\CEGUI-CEGUI-DEPENDENCIES-0ECDF3A9E49B\SRC\SILLY\INCLUDE\SILLYBASE.H
C:\PROGRAM FILES (X86)\VC\INCLUDE\CASSERT
C:\PROGRAM FILES (X86)\VC\INCLUDE\YVALS.H
C:\PROGRAM FILES (X86)\VC\INCLUDE\XKEYCHECK.H
C:\PROGRAM FILES (X86)\VC\INCLUDE\CRTDEFS.H
C:\PROGRAM FILES (X86)\VC\INCLUDE\VCRUNTIME.H
C:\PROGRAM FILES (X86)\VC\INCLUDE\SAL.H
C:\PROGRAM FILES (X86)\VC\INCLUDE\CONCURRENCYSAL.H
C:\PROGRAM FILES (X86)\VC\INCLUDE\VADEFS.H
C:\PROGRAM FILES (X86)\WINDOWS KITS\10\INCLUDE\10.0.10240.0\UCRT\CORECRT.H
C:\PROGRAM FILES (X86)\VC\INCLUDE\USE_ANSI.H
C:\PROGRAM FILES (X86)\WINDOWS KITS\10\INCLUDE\10.0.10240.0\UCRT\ASSERT.H
C:\PROGRAM FILES (X86)\VC\INCLUDE\CSTDDEF
C:\PROGRAM FILES (X86)\WINDOWS KITS\10\INCLUDE\10.0.10240.0\UCRT\STDDEF.H
C:\PROGRAM FILES (X86)\VC\INCLUDE\VECTOR
C:\PROGRAM FILES (X86)\VC\INCLUDE\XMEMORY
C:\PROGRAM FILES (X86)\VC\INCLUDE\XMEMORY0
C:\PROGRAM FILES (X86)\VC\INCLUDE\CSTDINT
C:\PROGRAM FILES (X86)\VC\INCLUDE\STDINT.H
C:\PROGRAM FILES (X86)\VC\INCLUDE\CSTDLIB
C:\PROGRAM FILES (X86)\WINDOWS KITS\10\INCLUDE\10.0.10240.0\UCRT\STDLIB.H
C:\PROGRAM FILES (X86)\WINDOWS KITS\10\INCLUDE\10.0.10240.0\UCRT\CORECRT_MALLOC.H
C:\PROGRAM FILES (X86)\WINDOWS KITS\10\INCLUDE\10.0.10240.0\UCRT\CORECRT_SEARCH.H
C:\PROGRAM FILES (X86)\WINDOWS KITS\10\INCLUDE\10.0.10240.0\UCRT\CORECRT_WSTDLIB.H
C:\PROGRAM FILES (X86)\VC\INCLUDE\LIMITS.H
C:\PROGRAM FILES (X86)\VC\INCLUDE\LIMITS
C:\PROGRAM FILES (X86)\VC\INCLUDE\YMATH.H
C:\PROGRAM FILES (X86)\VC\INCLUDE\CFLOAT
C:\PROGRAM FILES (X86)\WINDOWS KITS\10\INCLUDE\10.0.10240.0\UCRT\FLOAT.H
C:\PROGRAM FILES (X86)\VC\INCLUDE\CLIMITS
C:\PROGRAM FILES (X86)\VC\INCLUDE\CMATH
C:\PROGRAM FILES (X86)\WINDOWS KITS\10\INCLUDE\10.0.10240.0\UCRT\MATH.H
C:\PROGRAM FILES (X86)\VC\INCLUDE\XTGMATH.H
C:\PROGRAM FILES (X86)\VC\INCLUDE\XTR1COMMON
C:\PROGRAM FILES (X86)\VC\INCLUDE\CWCHAR
C:\PROGRAM FILES (X86)\WINDOWS KITS\10\INCLUDE\10.0.10240.0\UCRT\WCHAR.H
C:\PROGRAM FILES (X86)\WINDOWS KITS\10\INCLUDE\10.0.10240.0\UCRT\CORECRT_MEMCPY_S.H
C:\PROGRAM FILES (X86)\WINDOWS KITS\10\INCLUDE\10.0.10240.0\UCRT\ERRNO.H
C:\PROGRAM FILES (X86)\VC\INCLUDE\VCRUNTIME_STRING.H
C:\PROGRAM FILES (X86)\WINDOWS KITS\10\INCLUDE\10.0.10240.0\UCRT\CORECRT_WCONIO.H
C:\PROGRAM FILES (X86)\WINDOWS KITS\10\INCLUDE\10.0.10240.0\UCRT\CORECRT_STDIO_CONFIG.H
C:\PROGRAM FILES (X86)\WINDOWS KITS\10\INCLUDE\10.0.10240.0\UCRT\CORECRT_WCTYPE.H
C:\PROGRAM FILES (X86)\WINDOWS KITS\10\INCLUDE\10.0.10240.0\UCRT\CORECRT_WDIRECT.H
C:\PROGRAM FILES (X86)\WINDOWS KITS\10\INCLUDE\10.0.10240.0\UCRT\CORECRT_WIO.H
C:\PROGRAM FILES (X86)\WINDOWS KITS\10\INCLUDE\10.0.10240.0\UCRT\CORECRT_SHARE.H
C:\PROGRAM FILES (X86)\WINDOWS KITS\10\INCLUDE\10.0.10240.0\UCRT\CORECRT_WPROCESS.H
C:\PROGRAM FILES (X86)\WINDOWS KITS\10\INCLUDE\10.0.10240.0\UCRT\CORECRT_WSTDIO.H
C:\PROGRAM FILES (X86)\WINDOWS KITS\10\INCLUDE\10.0.10240.0\UCRT\CORECRT_WSTRING.H
C:\PROGRAM FILES (X86)\WINDOWS KITS\10\INCLUDE\10.0.10240.0\UCRT\CORECRT_WTIME.H
C:\PROGRAM FILES (X86)\WINDOWS KITS\10\INCLUDE\10.0.10240.0\UCRT\SYS\STAT.H
C:\PROGRAM FILES (X86)\WINDOWS KITS\10\INCLUDE\10.0.10240.0\UCRT\SYS\TYPES.H
C:\PROGRAM FILES (X86)\VC\INCLUDE\XSTDDEF
C:\PROGRAM FILES (X86)\VC\INCLUDE\INITIALIZER_LIST
C:\PROGRAM FILES (X86)\VC\INCLUDE\NEW
C:\PROGRAM FILES (X86)\VC\INCLUDE\EXCEPTION
C:\PROGRAM FILES (X86)\VC\INCLUDE\TYPE_TRAITS
C:\PROGRAM FILES (X86)\WINDOWS KITS\10\INCLUDE\10.0.10240.0\UCRT\MALLOC.H
C:\PROGRAM FILES (X86)\VC\INCLUDE\VCRUNTIME_EXCEPTION.H
C:\PROGRAM FILES (X86)\VC\INCLUDE\EH.H
C:\PROGRAM FILES (X86)\WINDOWS KITS\10\INCLUDE\10.0.10240.0\UCRT\CORECRT_TERMINATE.H
C:\PROGRAM FILES (X86)\VC\INCLUDE\VCRUNTIME_NEW.H
C:\PROGRAM FILES (X86)\VC\INCLUDE\XUTILITY
C:\PROGRAM FILES (X86)\VC\INCLUDE\UTILITY
C:\PROGRAM FILES (X86)\VC\INCLUDE\IOSFWD
C:\PROGRAM FILES (X86)\VC\INCLUDE\CSTDIO
C:\PROGRAM FILES (X86)\WINDOWS KITS\10\INCLUDE\10.0.10240.0\UCRT\STDIO.H
C:\PROGRAM FILES (X86)\VC\INCLUDE\CSTRING
C:\PROGRAM FILES (X86)\WINDOWS KITS\10\INCLUDE\10.0.10240.0\UCRT\STRING.H
C:\PROGRAM FILES (X86)\WINDOWS KITS\10\INCLUDE\10.0.10240.0\UCRT\CORECRT_MEMORY.H
C:\PROGRAM FILES (X86)\WINDOWS KITS\10\INCLUDE\10.0.10240.0\UCRT\CRTDBG.H
C:\PROGRAM FILES (X86)\VC\INCLUDE\VCRUNTIME_NEW_DEBUG.H
C:\PROGRAM FILES (X86)\VC\INCLUDE\XATOMIC0.H
C:\PROGRAM FILES (X86)\VC\INCLUDE\INTRIN.H
C:\PROGRAM FILES (X86)\VC\INCLUDE\SETJMP.H
C:\PROGRAM FILES (X86)\VC\INCLUDE\IMMINTRIN.H
C:\PROGRAM FILES (X86)\VC\INCLUDE\WMMINTRIN.H
C:\PROGRAM FILES (X86)\VC\INCLUDE\NMMINTRIN.H
C:\PROGRAM FILES (X86)\VC\INCLUDE\SMMINTRIN.H
C:\PROGRAM FILES (X86)\VC\INCLUDE\TMMINTRIN.H
C:\PROGRAM FILES (X86)\VC\INCLUDE\PMMINTRIN.H
C:\PROGRAM FILES (X86)\VC\INCLUDE\EMMINTRIN.H
C:\PROGRAM FILES (X86)\VC\INCLUDE\XMMINTRIN.H
C:\PROGRAM FILES (X86)\VC\INCLUDE\MMINTRIN.H
C:\PROGRAM FILES (X86)\VC\INCLUDE\AMMINTRIN.H
C:\PROGRAM FILES (X86)\VC\INCLUDE\MM3DNOW.H
C:\PROGRAM FILES (X86)\VC\INCLUDE\STDEXCEPT
C:\PROGRAM FILES (X86)\VC\INCLUDE\XSTRING
P:\LIBS\CEGUI-CEGUI-DEPENDENCIES-0ECDF3A9E49B\SRC\SILLY\INCLUDE\SILLYIMAGELOADERMANAGER.ICPP
P:\LIBS\CEGUI-CEGUI-DEPENDENCIES-0ECDF3A9E49B\SRC\SILLY\INCLUDE\SILLYIMAGELOADER.H
P:\LIBS\CEGUI-CEGUI-DEPENDENCIES-0ECDF3A9E49B\SRC\SILLY\INCLUDE\LOADERS\SILLYTGAIMAGELOADER.H
P:\LIBS\CEGUI-CEGUI-DEPENDENCIES-0ECDF3A9E49B\SRC\SILLY\INCLUDE\LOADERS\SILLYJPGIMAGELOADER.H
P:\LIBS\CEGUI-CEGUI-DEPENDENCIES-0ECDF3A9E49B\SRC\SILLY\INCLUDE\LOADERS\SILLYPNGIMAGELOADER.H
P:\LIBS\CEGUI-CEGUI-DEPENDENCIES-0ECDF3A9E49B\SRC\SILLY\INCLUDE\SILLYDATASOURCE.H
^P:\LIBS\CEGUI-CEGUI-DEPENDENCIES-0ECDF3A9E49B\SRC\SILLY\SRC\SILLYMEMORYDATASOURCE.CPP
P:\LIBS\CEGUI-CEGUI-DEPENDENCIES-0ECDF3A9E49B\SRC\SILLY\INCLUDE\SILLYMEMORYDATASOURCE.H
P:\LIBS\CEGUI-CEGUI-DEPENDENCIES-0ECDF3A9E49B\SRC\SILLY\INCLUDE\SILLYBASE.H
C:\PROGRAM FILES (X86)\VC\INCLUDE\CASSERT
C:\PROGRAM FILES (X86)\VC\INCLUDE\YVALS.H
C:\PROGRAM FILES (X86)\VC\INCLUDE\XKEYCHECK.H
C:\PROGRAM FILES (X86)\VC\INCLUDE\CRTDEFS.H
C:\PROGRAM FILES (X86)\VC\INCLUDE\VCRUNTIME.H
C:\PROGRAM FILES (X86)\VC\INCLUDE\SAL.H
C:\PROGRAM FILES (X86)\VC\INCLUDE\CONCURRENCYSAL.H
C:\PROGRAM FILES (X86)\VC\INCLUDE\VADEFS.H
C:\PROGRAM FILES (X86)\WINDOWS KITS\10\INCLUDE\10.0.10240.0\UCRT\CORECRT.H
C:\PROGRAM FILES (X86)\VC\INCLUDE\USE_ANSI.H
C:\PROGRAM FILES (X86)\WINDOWS KITS\10\INCLUDE\10.0.10240.0\UCRT\ASSERT.H
C:\PROGRAM FILES (X86)\VC\INCLUDE\CSTDDEF
C:\PROGRAM FILES (X86)\WINDOWS KITS\10\INCLUDE\10.0.10240.0\UCRT\STDDEF.H
P:\LIBS\CEGUI-CEGUI-DEPENDENCIES-0ECDF3A9E49B\SRC\SILLY\INCLUDE\SILLYDATASOURCE.H
P:\LIBS\CEGUI-CEGUI-DEPENDENCIES-0ECDF3A9E49B\SRC\SILLY\INCLUDE\SILLYMEMORYDATASOURCE.ICPP
^P:\LIBS\CEGUI-CEGUI-DEPENDENCIES-0ECDF3A9E49B\SRC\SILLY\SRC\LOADERS\SILLYJPGIMAGECONTEXT.CPP
P:\LIBS\CEGUI-CEGUI-DEPENDENCIES-0ECDF3A9E49B\SRC\SILLY\INCLUDE\LOADERS\SILLYJPGIMAGECONTEXT.H
P:\LIBS\CEGUI-CEGUI-DEPENDENCIES-0ECDF3A9E49B\SRC\SILLY\INCLUDE\SILLYBASE.H
C:\PROGRAM FILES (X86)\VC\INCLUDE\CASSERT
C:\PROGRAM FILES (X86)\VC\INCLUDE\YVALS.H
C:\PROGRAM FILES (X86)\VC\INCLUDE\XKEYCHECK.H
C:\PROGRAM FILES (X86)\VC\INCLUDE\CRTDEFS.H
C:\PROGRAM FILES (X86)\VC\INCLUDE\VCRUNTIME.H
C:\PROGRAM FILES (X86)\VC\INCLUDE\SAL.H
C:\PROGRAM FILES (X86)\VC\INCLUDE\CONCURRENCYSAL.H
C:\PROGRAM FILES (X86)\VC\INCLUDE\VADEFS.H
C:\PROGRAM FILES (X86)\WINDOWS KITS\10\INCLUDE\10.0.10240.0\UCRT\CORECRT.H
C:\PROGRAM FILES (X86)\VC\INCLUDE\USE_ANSI.H
C:\PROGRAM FILES (X86)\WINDOWS KITS\10\INCLUDE\10.0.10240.0\UCRT\ASSERT.H
C:\PROGRAM FILES (X86)\VC\INCLUDE\CSTDDEF
C:\PROGRAM FILES (X86)\WINDOWS KITS\10\INCLUDE\10.0.10240.0\UCRT\STDDEF.H
P:\LIBS\CEGUI-CEGUI-DEPENDENCIES-0ECDF3A9E49B\SRC\SILLY\INCLUDE\SILLYIMAGECONTEXT.H
P:\LIBS\CEGUI-CEGUI-DEPENDENCIES-0ECDF3A9E49B\SRC\SILLY\INCLUDE\SILLYDATASOURCE.H
C:\PROGRAM FILES (X86)\VC\INCLUDE\SETJMP.H
C:\PROGRAM FILES (X86)\WINDOWS KITS\10\INCLUDE\10.0.10240.0\UCRT\STDIO.H
C:\PROGRAM FILES (X86)\WINDOWS KITS\10\INCLUDE\10.0.10240.0\UCRT\CORECRT_WSTDIO.H
C:\PROGRAM FILES (X86)\WINDOWS KITS\10\INCLUDE\10.0.10240.0\UCRT\CORECRT_STDIO_CONFIG.H
C:\PROGRAM FILES (X86)\WINDOWS KITS\10\INCLUDE\10.0.10240.0\UCRT\STRING.H
C:\PROGRAM FILES (X86)\WINDOWS KITS\10\INCLUDE\10.0.10240.0\UCRT\CORECRT_MEMORY.H
C:\PROGRAM FILES (X86)\WINDOWS KITS\10\INCLUDE\10.0.10240.0\UCRT\CORECRT_MEMCPY_S.H
C:\PROGRAM FILES (X86)\WINDOWS KITS\10\INCLUDE\10.0.10240.0\UCRT\ERRNO.H
C:\PROGRAM FILES (X86)\VC\INCLUDE\VCRUNTIME_STRING.H
C:\PROGRAM FILES (X86)\WINDOWS KITS\10\INCLUDE\10.0.10240.0\UCRT\CORECRT_WSTRING.H
P:\LIBS\CEGUI-CEGUI-DEPENDENCIES-0ECDF3A9E49B\BUILD\DEPENDENCIES\INCLUDE\JPEGLIB.H
P:\LIBS\CEGUI-CEGUI-DEPENDENCIES-0ECDF3A9E49B\BUILD\DEPENDENCIES\INCLUDE\JCONFIG.H
P:\LIBS\CEGUI-CEGUI-DEPENDENCIES-0ECDF3A9E49B\BUILD\DEPENDENCIES\INCLUDE\JMORECFG.H
P:\LIBS\CEGUI-CEGUI-DEPENDENCIES-0ECDF3A9E49B\SRC\SILLY\INCLUDE\LOADERS\SILLYJPGIMAGECONTEXT.ICPP
^P:\LIBS\CEGUI-CEGUI-DEPENDENCIES-0ECDF3A9E49B\SRC\SILLY\SRC\LOADERS\SILLYJPGIMAGELOADER.CPP
P:\LIBS\CEGUI-CEGUI-DEPENDENCIES-0ECDF3A9E49B\SRC\SILLY\INCLUDE\LOADERS\SILLYJPGIMAGELOADER.H
P:\LIBS\CEGUI-CEGUI-DEPENDENCIES-0ECDF3A9E49B\SRC\SILLY\INCLUDE\SILLYBASE.H
C:\PROGRAM FILES (X86)\VC\INCLUDE\CASSERT
C:\PROGRAM FILES (X86)\VC\INCLUDE\YVALS.H
C:\PROGRAM FILES (X86)\VC\INCLUDE\XKEYCHECK.H
C:\PROGRAM FILES (X86)\VC\INCLUDE\CRTDEFS.H
C:\PROGRAM FILES (X86)\VC\INCLUDE\VCRUNTIME.H
C:\PROGRAM FILES (X86)\VC\INCLUDE\SAL.H
C:\PROGRAM FILES (X86)\VC\INCLUDE\CONCURRENCYSAL.H
C:\PROGRAM FILES (X86)\VC\INCLUDE\VADEFS.H
C:\PROGRAM FILES (X86)\WINDOWS KITS\10\INCLUDE\10.0.10240.0\UCRT\CORECRT.H
C:\PROGRAM FILES (X86)\VC\INCLUDE\USE_ANSI.H
C:\PROGRAM FILES (X86)\WINDOWS KITS\10\INCLUDE\10.0.10240.0\UCRT\ASSERT.H
C:\PROGRAM FILES (X86)\VC\INCLUDE\CSTDDEF
C:\PROGRAM FILES (X86)\WINDOWS KITS\10\INCLUDE\10.0.10240.0\UCRT\STDDEF.H
P:\LIBS\CEGUI-CEGUI-DEPENDENCIES-0ECDF3A9E49B\SRC\SILLY\INCLUDE\SILLYIMAGELOADER.H
P:\LIBS\CEGUI-CEGUI-DEPENDENCIES-0ECDF3A9E49B\SRC\SILLY\INCLUDE\LOADERS\SILLYJPGIMAGELOADER.ICPP
P:\LIBS\CEGUI-CEGUI-DEPENDENCIES-0ECDF3A9E49B\SRC\SILLY\INCLUDE\LOADERS\SILLYJPGIMAGECONTEXT.H
P:\LIBS\CEGUI-CEGUI-DEPENDENCIES-0ECDF3A9E49B\SRC\SILLY\INCLUDE\SILLYIMAGECONTEXT.H
P:\LIBS\CEGUI-CEGUI-DEPENDENCIES-0ECDF3A9E49B\SRC\SILLY\INCLUDE\SILLYDATASOURCE.H
C:\PROGRAM FILES (X86)\VC\INCLUDE\SETJMP.H
C:\PROGRAM FILES (X86)\WINDOWS KITS\10\INCLUDE\10.0.10240.0\UCRT\STDIO.H
C:\PROGRAM FILES (X86)\WINDOWS KITS\10\INCLUDE\10.0.10240.0\UCRT\CORECRT_WSTDIO.H
C:\PROGRAM FILES (X86)\WINDOWS KITS\10\INCLUDE\10.0.10240.0\UCRT\CORECRT_STDIO_CONFIG.H
C:\PROGRAM FILES (X86)\WINDOWS KITS\10\INCLUDE\10.0.10240.0\UCRT\STRING.H
C:\PROGRAM FILES (X86)\WINDOWS KITS\10\INCLUDE\10.0.10240.0\UCRT\CORECRT_MEMORY.H
C:\PROGRAM FILES (X86)\WINDOWS KITS\10\INCLUDE\10.0.10240.0\UCRT\CORECRT_MEMCPY_S.H
C:\PROGRAM FILES (X86)\WINDOWS KITS\10\INCLUDE\10.0.10240.0\UCRT\ERRNO.H
C:\PROGRAM FILES (X86)\VC\INCLUDE\VCRUNTIME_STRING.H
C:\PROGRAM FILES (X86)\WINDOWS KITS\10\INCLUDE\10.0.10240.0\UCRT\CORECRT_WSTRING.H
P:\LIBS\CEGUI-CEGUI-DEPENDENCIES-0ECDF3A9E49B\BUILD\DEPENDENCIES\INCLUDE\JPEGLIB.H
P:\LIBS\CEGUI-CEGUI-DEPENDENCIES-0ECDF3A9E49B\BUILD\DEPENDENCIES\INCLUDE\JCONFIG.H
P:\LIBS\CEGUI-CEGUI-DEPENDENCIES-0ECDF3A9E49B\BUILD\DEPENDENCIES\INCLUDE\JMORECFG.H
^P:\LIBS\CEGUI-CEGUI-DEPENDENCIES-0ECDF3A9E49B\SRC\SILLY\SRC\LOADERS\SILLYPNGIMAGECONTEXT.CPP
P:\LIBS\CEGUI-CEGUI-DEPENDENCIES-0ECDF3A9E49B\SRC\SILLY\INCLUDE\LOADERS\SILLYPNGIMAGECONTEXT.H
P:\LIBS\CEGUI-CEGUI-DEPENDENCIES-0ECDF3A9E49B\SRC\SILLY\INCLUDE\SILLYBASE.H
C:\PROGRAM FILES (X86)\VC\INCLUDE\CASSERT
C:\PROGRAM FILES (X86)\VC\INCLUDE\YVALS.H
C:\PROGRAM FILES (X86)\VC\INCLUDE\XKEYCHECK.H
C:\PROGRAM FILES (X86)\VC\INCLUDE\CRTDEFS.H
C:\PROGRAM FILES (X86)\VC\INCLUDE\VCRUNTIME.H
C:\PROGRAM FILES (X86)\VC\INCLUDE\SAL.H
C:\PROGRAM FILES (X86)\VC\INCLUDE\CONCURRENCYSAL.H
C:\PROGRAM FILES (X86)\VC\INCLUDE\VADEFS.H
C:\PROGRAM FILES (X86)\WINDOWS KITS\10\INCLUDE\10.0.10240.0\UCRT\CORECRT.H
C:\PROGRAM FILES (X86)\VC\INCLUDE\USE_ANSI.H
C:\PROGRAM FILES (X86)\WINDOWS KITS\10\INCLUDE\10.0.10240.0\UCRT\ASSERT.H
C:\PROGRAM FILES (X86)\VC\INCLUDE\CSTDDEF
C:\PROGRAM FILES (X86)\WINDOWS KITS\10\INCLUDE\10.0.10240.0\UCRT\STDDEF.H
P:\LIBS\CEGUI-CEGUI-DEPENDENCIES-0ECDF3A9E49B\SRC\SILLY\INCLUDE\SILLYIMAGECONTEXT.H
P:\LIBS\CEGUI-CEGUI-DEPENDENCIES-0ECDF3A9E49B\SRC\SILLY\INCLUDE\SILLYDATASOURCE.H
P:\LIBS\CEGUI-CEGUI-DEPENDENCIES-0ECDF3A9E49B\BUILD\DEPENDENCIES\INCLUDE\PNG.H
P:\LIBS\CEGUI-CEGUI-DEPENDENCIES-0ECDF3A9E49B\BUILD\DEPENDENCIES\INCLUDE\ZLIB.H
P:\LIBS\CEGUI-CEGUI-DEPENDENCIES-0ECDF3A9E49B\BUILD\DEPENDENCIES\INCLUDE\ZCONF.H
C:\PROGRAM FILES (X86)\WINDOWS KITS\10\INCLUDE\10.0.10240.0\UCRT\SYS\TYPES.H
P:\LIBS\CEGUI-CEGUI-DEPENDENCIES-0ECDF3A9E49B\BUILD\DEPENDENCIES\INCLUDE\PNGCONF.H
C:\PROGRAM FILES (X86)\VC\INCLUDE\LIMITS.H
C:\PROGRAM FILES (X86)\WINDOWS KITS\10\INCLUDE\10.0.10240.0\UCRT\STDIO.H
C:\PROGRAM FILES (X86)\WINDOWS KITS\10\INCLUDE\10.0.10240.0\UCRT\CORECRT_WSTDIO.H
C:\PROGRAM FILES (X86)\WINDOWS KITS\10\INCLUDE\10.0.10240.0\UCRT\CORECRT_STDIO_CONFIG.H
C:\PROGRAM FILES (X86)\VC\INCLUDE\SETJMP.H
C:\PROGRAM FILES (X86)\WINDOWS KITS\10\INCLUDE\10.0.10240.0\UCRT\STRING.H
C:\PROGRAM FILES (X86)\WINDOWS KITS\10\INCLUDE\10.0.10240.0\UCRT\CORECRT_MEMORY.H
C:\PROGRAM FILES (X86)\WINDOWS KITS\10\INCLUDE\10.0.10240.0\UCRT\CORECRT_MEMCPY_S.H
C:\PROGRAM FILES (X86)\WINDOWS KITS\10\INCLUDE\10.0.10240.0\UCRT\ERRNO.H
C:\PROGRAM FILES (X86)\VC\INCLUDE\VCRUNTIME_STRING.H
C:\PROGRAM FILES (X86)\WINDOWS KITS\10\INCLUDE\10.0.10240.0\UCRT\CORECRT_WSTRING.H
C:\PROGRAM FILES (X86)\WINDOWS KITS\10\INCLUDE\10.0.10240.0\UCRT\TIME.H
C:\PROGRAM FILES (X86)\WINDOWS KITS\10\INCLUDE\10.0.10240.0\UCRT\CORECRT_WTIME.H
P:\LIBS\CEGUI-CEGUI-DEPENDENCIES-0ECDF3A9E49B\SRC\SILLY\INCLUDE\LOADERS\SILLYPNGIMAGECONTEXT.ICPP
^P:\LIBS\CEGUI-CEGUI-DEPENDENCIES-0ECDF3A9E49B\SRC\SILLY\SRC\LOADERS\SILLYPNGIMAGELOADER.CPP
P:\LIBS\CEGUI-CEGUI-DEPENDENCIES-0ECDF3A9E49B\SRC\SILLY\INCLUDE\LOADERS\SILLYPNGIMAGELOADER.H
P:\LIBS\CEGUI-CEGUI-DEPENDENCIES-0ECDF3A9E49B\SRC\SILLY\INCLUDE\SILLYBASE.H
C:\PROGRAM FILES (X86)\VC\INCLUDE\CASSERT
C:\PROGRAM FILES (X86)\VC\INCLUDE\YVALS.H
C:\PROGRAM FILES (X86)\VC\INCLUDE\XKEYCHECK.H
C:\PROGRAM FILES (X86)\VC\INCLUDE\CRTDEFS.H
C:\PROGRAM FILES (X86)\VC\INCLUDE\VCRUNTIME.H
C:\PROGRAM FILES (X86)\VC\INCLUDE\SAL.H
C:\PROGRAM FILES (X86)\VC\INCLUDE\CONCURRENCYSAL.H
C:\PROGRAM FILES (X86)\VC\INCLUDE\VADEFS.H
C:\PROGRAM FILES (X86)\WINDOWS KITS\10\INCLUDE\10.0.10240.0\UCRT\CORECRT.H
C:\PROGRAM FILES (X86)\VC\INCLUDE\USE_ANSI.H
C:\PROGRAM FILES (X86)\WINDOWS KITS\10\INCLUDE\10.0.10240.0\UCRT\ASSERT.H
C:\PROGRAM FILES (X86)\VC\INCLUDE\CSTDDEF
C:\PROGRAM FILES (X86)\WINDOWS KITS\10\INCLUDE\10.0.10240.0\UCRT\STDDEF.H
P:\LIBS\CEGUI-CEGUI-DEPENDENCIES-0ECDF3A9E49B\SRC\SILLY\INCLUDE\SILLYIMAGELOADER.H
P:\LIBS\CEGUI-CEGUI-DEPENDENCIES-0ECDF3A9E49B\SRC\SILLY\INCLUDE\SILLYDATASOURCE.H
P:\LIBS\CEGUI-CEGUI-DEPENDENCIES-0ECDF3A9E49B\SRC\SILLY\INCLUDE\LOADERS\SILLYPNGIMAGELOADER.ICPP
P:\LIBS\CEGUI-CEGUI-DEPENDENCIES-0ECDF3A9E49B\SRC\SILLY\INCLUDE\LOADERS\SILLYPNGIMAGECONTEXT.H
P:\LIBS\CEGUI-CEGUI-DEPENDENCIES-0ECDF3A9E49B\SRC\SILLY\INCLUDE\SILLYIMAGECONTEXT.H
P:\LIBS\CEGUI-CEGUI-DEPENDENCIES-0ECDF3A9E49B\BUILD\DEPENDENCIES\INCLUDE\PNG.H
P:\LIBS\CEGUI-CEGUI-DEPENDENCIES-0ECDF3A9E49B\BUILD\DEPENDENCIES\INCLUDE\ZLIB.H
P:\LIBS\CEGUI-CEGUI-DEPENDENCIES-0ECDF3A9E49B\BUILD\DEPENDENCIES\INCLUDE\ZCONF.H
C:\PROGRAM FILES (X86)\WINDOWS KITS\10\INCLUDE\10.0.10240.0\UCRT\SYS\TYPES.H
P:\LIBS\CEGUI-CEGUI-DEPENDENCIES-0ECDF3A9E49B\BUILD\DEPENDENCIES\INCLUDE\PNGCONF.H
C:\PROGRAM FILES (X86)\VC\INCLUDE\LIMITS.H
C:\PROGRAM FILES (X86)\WINDOWS KITS\10\INCLUDE\10.0.10240.0\UCRT\STDIO.H
C:\PROGRAM FILES (X86)\WINDOWS KITS\10\INCLUDE\10.0.10240.0\UCRT\CORECRT_WSTDIO.H
C:\PROGRAM FILES (X86)\WINDOWS KITS\10\INCLUDE\10.0.10240.0\UCRT\CORECRT_STDIO_CONFIG.H
C:\PROGRAM FILES (X86)\VC\INCLUDE\SETJMP.H
C:\PROGRAM FILES (X86)\WINDOWS KITS\10\INCLUDE\10.0.10240.0\UCRT\STRING.H
C:\PROGRAM FILES (X86)\WINDOWS KITS\10\INCLUDE\10.0.10240.0\UCRT\CORECRT_MEMORY.H
C:\PROGRAM FILES (X86)\WINDOWS KITS\10\INCLUDE\10.0.10240.0\UCRT\CORECRT_MEMCPY_S.H
C:\PROGRAM FILES (X86)\WINDOWS KITS\10\INCLUDE\10.0.10240.0\UCRT\ERRNO.H
C:\PROGRAM FILES (X86)\VC\INCLUDE\VCRUNTIME_STRING.H
C:\PROGRAM FILES (X86)\WINDOWS KITS\10\INCLUDE\10.0.10240.0\UCRT\CORECRT_WSTRING.H
C:\PROGRAM FILES (X86)\WINDOWS KITS\10\INCLUDE\10.0.10240.0\UCRT\TIME.H
C:\PROGRAM FILES (X86)\WINDOWS KITS\10\INCLUDE\10.0.10240.0\UCRT\CORECRT_WTIME.H
^P:\LIBS\CEGUI-CEGUI-DEPENDENCIES-0ECDF3A9E49B\SRC\SILLY\SRC\LOADERS\SILLYTGAIMAGECONTEXT.CPP
P:\LIBS\CEGUI-CEGUI-DEPENDENCIES-0ECDF3A9E49B\SRC\SILLY\INCLUDE\LOADERS\SILLYTGAIMAGECONTEXT.H
P:\LIBS\CEGUI-CEGUI-DEPENDENCIES-0ECDF3A9E49B\SRC\SILLY\INCLUDE\SILLYBASE.H
C:\PROGRAM FILES (X86)\VC\INCLUDE\CASSERT
C:\PROGRAM FILES (X86)\VC\INCLUDE\YVALS.H
C:\PROGRAM FILES (X86)\VC\INCLUDE\XKEYCHECK.H
C:\PROGRAM FILES (X86)\VC\INCLUDE\CRTDEFS.H
C:\PROGRAM FILES (X86)\VC\INCLUDE\VCRUNTIME.H
C:\PROGRAM FILES (X86)\VC\INCLUDE\SAL.H
C:\PROGRAM FILES (X86)\VC\INCLUDE\CONCURRENCYSAL.H
C:\PROGRAM FILES (X86)\VC\INCLUDE\VADEFS.H
C:\PROGRAM FILES (X86)\WINDOWS KITS\10\INCLUDE\10.0.10240.0\UCRT\CORECRT.H
C:\PROGRAM FILES (X86)\VC\INCLUDE\USE_ANSI.H
C:\PROGRAM FILES (X86)\WINDOWS KITS\10\INCLUDE\10.0.10240.0\UCRT\ASSERT.H
C:\PROGRAM FILES (X86)\VC\INCLUDE\CSTDDEF
C:\PROGRAM FILES (X86)\WINDOWS KITS\10\INCLUDE\10.0.10240.0\UCRT\STDDEF.H
P:\LIBS\CEGUI-CEGUI-DEPENDENCIES-0ECDF3A9E49B\SRC\SILLY\INCLUDE\SILLYIMAGECONTEXT.H
P:\LIBS\CEGUI-CEGUI-DEPENDENCIES-0ECDF3A9E49B\SRC\SILLY\INCLUDE\LOADERS\SILLYTGAIMAGECONTEXT.ICPP
C:\PROGRAM FILES (X86)\VC\INCLUDE\CSTRING
C:\PROGRAM FILES (X86)\WINDOWS KITS\10\INCLUDE\10.0.10240.0\UCRT\STRING.H
C:\PROGRAM FILES (X86)\WINDOWS KITS\10\INCLUDE\10.0.10240.0\UCRT\CORECRT_MEMORY.H
C:\PROGRAM FILES (X86)\WINDOWS KITS\10\INCLUDE\10.0.10240.0\UCRT\CORECRT_MEMCPY_S.H
C:\PROGRAM FILES (X86)\WINDOWS KITS\10\INCLUDE\10.0.10240.0\UCRT\ERRNO.H
C:\PROGRAM FILES (X86)\VC\INCLUDE\VCRUNTIME_STRING.H
C:\PROGRAM FILES (X86)\WINDOWS KITS\10\INCLUDE\10.0.10240.0\UCRT\CORECRT_WSTRING.H
C:\PROGRAM FILES (X86)\VC\INCLUDE\CSTDIO
C:\PROGRAM FILES (X86)\WINDOWS KITS\10\INCLUDE\10.0.10240.0\UCRT\STDIO.H
C:\PROGRAM FILES (X86)\WINDOWS KITS\10\INCLUDE\10.0.10240.0\UCRT\CORECRT_WSTDIO.H
C:\PROGRAM FILES (X86)\WINDOWS KITS\10\INCLUDE\10.0.10240.0\UCRT\CORECRT_STDIO_CONFIG.H
^P:\LIBS\CEGUI-CEGUI-DEPENDENCIES-0ECDF3A9E49B\SRC\SILLY\SRC\LOADERS\SILLYTGAIMAGELOADER.CPP
P:\LIBS\CEGUI-CEGUI-DEPENDENCIES-0ECDF3A9E49B\SRC\SILLY\INCLUDE\LOADERS\SILLYTGAIMAGELOADER.H
P:\LIBS\CEGUI-CEGUI-DEPENDENCIES-0ECDF3A9E49B\SRC\SILLY\INCLUDE\SILLYBASE.H
C:\PROGRAM FILES (X86)\VC\INCLUDE\CASSERT
C:\PROGRAM FILES (X86)\VC\INCLUDE\YVALS.H
C:\PROGRAM FILES (X86)\VC\INCLUDE\XKEYCHECK.H
C:\PROGRAM FILES (X86)\VC\INCLUDE\CRTDEFS.H
C:\PROGRAM FILES (X86)\VC\INCLUDE\VCRUNTIME.H
C:\PROGRAM FILES (X86)\VC\INCLUDE\SAL.H
C:\PROGRAM FILES (X86)\VC\INCLUDE\CONCURRENCYSAL.H
C:\PROGRAM FILES (X86)\VC\INCLUDE\VADEFS.H
C:\PROGRAM FILES (X86)\WINDOWS KITS\10\INCLUDE\10.0.10240.0\UCRT\CORECRT.H
C:\PROGRAM FILES (X86)\VC\INCLUDE\USE_ANSI.H
C:\PROGRAM FILES (X86)\WINDOWS KITS\10\INCLUDE\10.0.10240.0\UCRT\ASSERT.H
C:\PROGRAM FILES (X86)\VC\INCLUDE\CSTDDEF
C:\PROGRAM FILES (X86)\WINDOWS KITS\10\INCLUDE\10.0.10240.0\UCRT\STDDEF.H
P:\LIBS\CEGUI-CEGUI-DEPENDENCIES-0ECDF3A9E49B\SRC\SILLY\INCLUDE\SILLYIMAGELOADER.H
P:\LIBS\CEGUI-CEGUI-DEPENDENCIES-0ECDF3A9E49B\SRC\SILLY\INCLUDE\LOADERS\SILLYTGAIMAGELOADER.ICPP
P:\LIBS\CEGUI-CEGUI-DEPENDENCIES-0ECDF3A9E49B\SRC\SILLY\INCLUDE\SILLYDATASOURCE.H
P:\LIBS\CEGUI-CEGUI-DEPENDENCIES-0ECDF3A9E49B\SRC\SILLY\INCLUDE\LOADERS\SILLYTGAIMAGECONTEXT.H
P:\LIBS\CEGUI-CEGUI-DEPENDENCIES-0ECDF3A9E49B\SRC\SILLY\INCLUDE\SILLYIMAGECONTEXT.H
C:\PROGRAM FILES (X86)\VC\INCLUDE\CSTRING
C:\PROGRAM FILES (X86)\WINDOWS KITS\10\INCLUDE\10.0.10240.0\UCRT\STRING.H
C:\PROGRAM FILES (X86)\WINDOWS KITS\10\INCLUDE\10.0.10240.0\UCRT\CORECRT_MEMORY.H
C:\PROGRAM FILES (X86)\WINDOWS KITS\10\INCLUDE\10.0.10240.0\UCRT\CORECRT_MEMCPY_S.H
C:\PROGRAM FILES (X86)\WINDOWS KITS\10\INCLUDE\10.0.10240.0\UCRT\ERRNO.H
C:\PROGRAM FILES (X86)\VC\INCLUDE\VCRUNTIME_STRING.H
C:\PROGRAM FILES (X86)\WINDOWS KITS\10\INCLUDE\10.0.10240.0\UCRT\CORECRT_WSTRING.H
C:\PROGRAM FILES (X86)\VC\INCLUDE\CSTDIO
C:\PROGRAM FILES (X86)\WINDOWS KITS\10\INCLUDE\10.0.10240.0\UCRT\STDIO.H
C:\PROGRAM FILES (X86)\WINDOWS KITS\10\INCLUDE\10.0.10240.0\UCRT\CORECRT_WSTDIO.H
C:\PROGRAM FILES (X86)\WINDOWS KITS\10\INCLUDE\10.0.10240.0\UCRT\CORECRT_STDIO_CONFIG.H
