^P:\LIBS\CEGUI-0.8.7\BUILD\SAMPLES\EDITBOXVALIDATIONDEMO\CEGUIEDITBOXVALIDATIONDEMO.DIR\DEBUG\EDITBOXVALIDATION.OBJ
C:\WINDOWS\GLOBALIZATION\SORTING\SORTDEFAULT.NLS
C:\PROGRAM FILES (X86)\WINDOWS KITS\8.1\LIB\WINV6.3\UM\X86\KERNEL32.LIB
C:\PROGRAM FILES (X86)\WINDOWS KITS\8.1\LIB\WINV6.3\UM\X86\USER32.LIB
C:\PROGRAM FILES (X86)\WINDOWS KITS\8.1\LIB\WINV6.3\UM\X86\GDI32.LIB
C:\PROGRAM FILES (X86)\WINDOWS KITS\8.1\LIB\WINV6.3\UM\X86\WINSPOOL.LIB
C:\PROGRAM FILES (X86)\WINDOWS KITS\8.1\LIB\WINV6.3\UM\X86\SHELL32.LIB
C:\PROGRAM FILES (X86)\WINDOWS KITS\8.1\LIB\WINV6.3\UM\X86\OLE32.LIB
C:\PROGRAM FILES (X86)\WINDOWS KITS\8.1\LIB\WINV6.3\UM\X86\OLEAUT32.LIB
C:\PROGRAM FILES (X86)\WINDOWS KITS\8.1\LIB\WINV6.3\UM\X86\UUID.LIB
C:\PROGRAM FILES (X86)\WINDOWS KITS\8.1\LIB\WINV6.3\UM\X86\COMDLG32.LIB
C:\PROGRAM FILES (X86)\WINDOWS KITS\8.1\LIB\WINV6.3\UM\X86\ADVAPI32.LIB
P:\LIBS\CEGUI-0.8.7\BUILD\LIB\CEGUIBASE-0_D.LIB
P:\LIBS\CEGUI-0.8.7\DEPENDENCIES\LIB\DYNAMIC\FREETYPE_D.LIB
P:\LIBS\CEGUI-0.8.7\DEPENDENCIES\LIB\DYNAMIC\PCRE_D.LIB
C:\PROGRAM FILES (X86)\WINDOWS KITS\8.1\LIB\WINV6.3\UM\X86\WINMM.LIB
C:\PROGRAM FILES (X86)\WINDOWS KITS\8.1\LIB\WINV6.3\UM\X86\DBGHELP.LIB
P:\LIBS\CEGUI-0.8.7\BUILD\SAMPLES\EDITBOXVALIDATIONDEMO\CEGUIEDITBOXVALIDATIONDEMO.DIR\DEBUG\EDITBOXVALIDATION.OBJ
C:\PROGRAM FILES (X86)\VC\LIB\MSVCPRTD.LIB
C:\PROGRAM FILES (X86)\VC\LIB\MSVCRTD.LIB
C:\PROGRAM FILES (X86)\VC\LIB\OLDNAMES.LIB
C:\PROGRAM FILES (X86)\VC\LIB\VCRUNTIMED.LIB
C:\PROGRAM FILES (X86)\WINDOWS KITS\10\LIB\10.0.10240.0\UCRT\X86\UCRTD.LIB
C:\WINDOWS\SYSTEM32\TZRES.DLL
C:\PROGRAM FILES (X86)\VC\BIN\1033\LINKUI.DLL
C:\PROGRAM FILES (X86)\WINDOWS KITS\8.1\BIN\X86\RC.EXE
C:\PROGRAM FILES (X86)\VC\BIN\CVTRES.EXE
