^P:\LIBS\CEGUI-CEGUI-DEPENDENCIES-0ECDF3A9E49B\BUILD\SRC\PCRE-8.12\CEGUI-BUILD\DFTABLES.DIR\DEBUG\DFTABLES.OBJ
P:\LIBS\CEGUI-CEGUI-DEPENDENCIES-0ECDF3A9E49B\BUILD\SRC\PCRE-8.12\DFTABLES.ILK
P:\LIBS\CEGUI-CEGUI-DEPENDENCIES-0ECDF3A9E49B\BUILD\SRC\PCRE-8.12\DFTABLES.EXE
P:\LIBS\CEGUI-CEGUI-DEPENDENCIES-0ECDF3A9E49B\BUILD\SRC\PCRE-8.12\DFTABLES.PDB
