^P:\LIBS\CEGUI-CEGUI-DEPENDENCIES-0ECDF3A9E49B\SRC\GLEW-1.7.0\SRC\GLEW.C
P:\LIBS\CEGUI-CEGUI-DEPENDENCIES-0ECDF3A9E49B\BUILD\SRC\GLEW-1.7.0\CEGUI-BUILD\GLEW_STATIC.DIR\DEBUG\GLEW_STATIC.PDB
P:\LIBS\CEGUI-CEGUI-DEPENDENCIES-0ECDF3A9E49B\BUILD\SRC\GLEW-1.7.0\CEGUI-BUILD\GLEW_STATIC.DIR\DEBUG\GLEW.OBJ
