^P:\LIBS\CEGUI-CEGUI-DEPENDENCIES-0ECDF3A9E49B\BUILD\SRC\GLFW-2.7.2\CEGUI-BUILD\GLFW_STATIC.DIR\DEBUG\ENABLE.OBJ|P:\LIBS\CEGUI-CEGUI-DEPENDENCIES-0ECDF3A9E49B\BUILD\SRC\GLFW-2.7.2\CEGUI-BUILD\GLFW_STATIC.DIR\DEBUG\FULLSCREEN.OBJ|P:\LIBS\CEGUI-CEGUI-DEPENDENCIES-0ECDF3A9E49B\BUILD\SRC\GLFW-2.7.2\CEGUI-BUILD\GLFW_STATIC.DIR\DEBUG\GLEXT.OBJ|P:\LIBS\CEGUI-CEGUI-DEPENDENCIES-0ECDF3A9E49B\BUILD\SRC\GLFW-2.7.2\CEGUI-BUILD\GLFW_STATIC.DIR\DEBUG\IMAGE.OBJ|P:\LIBS\CEGUI-CEGUI-DEPENDENCIES-0ECDF3A9E49B\BUILD\SRC\GLFW-2.7.2\CEGUI-BUILD\GLFW_STATIC.DIR\DEBUG\INIT.OBJ|P:\LIBS\CEGUI-CEGUI-DEPENDENCIES-0ECDF3A9E49B\BUILD\SRC\GLFW-2.7.2\CEGUI-BUILD\GLFW_STATIC.DIR\DEBUG\INPUT.OBJ|P:\LIBS\CEGUI-CEGUI-DEPENDENCIES-0ECDF3A9E49B\BUILD\SRC\GLFW-2.7.2\CEGUI-BUILD\GLFW_STATIC.DIR\DEBUG\JOYSTICK.OBJ|P:\LIBS\CEGUI-CEGUI-DEPENDENCIES-0ECDF3A9E49B\BUILD\SRC\GLFW-2.7.2\CEGUI-BUILD\GLFW_STATIC.DIR\DEBUG\STREAM.OBJ|P:\LIBS\CEGUI-CEGUI-DEPENDENCIES-0ECDF3A9E49B\BUILD\SRC\GLFW-2.7.2\CEGUI-BUILD\GLFW_STATIC.DIR\DEBUG\TGA.OBJ|P:\LIBS\CEGUI-CEGUI-DEPENDENCIES-0ECDF3A9E49B\BUILD\SRC\GLFW-2.7.2\CEGUI-BUILD\GLFW_STATIC.DIR\DEBUG\THREAD.OBJ|P:\LIBS\CEGUI-CEGUI-DEPENDENCIES-0ECDF3A9E49B\BUILD\SRC\GLFW-2.7.2\CEGUI-BUILD\GLFW_STATIC.DIR\DEBUG\TIME.OBJ|P:\LIBS\CEGUI-CEGUI-DEPENDENCIES-0ECDF3A9E49B\BUILD\SRC\GLFW-2.7.2\CEGUI-BUILD\GLFW_STATIC.DIR\DEBUG\WIN32_DLLMAIN.OBJ|P:\LIBS\CEGUI-CEGUI-DEPENDENCIES-0ECDF3A9E49B\BUILD\SRC\GLFW-2.7.2\CEGUI-BUILD\GLFW_STATIC.DIR\DEBUG\WIN32_ENABLE.OBJ|P:\LIBS\CEGUI-CEGUI-DEPENDENCIES-0ECDF3A9E49B\BUILD\SRC\GLFW-2.7.2\CEGUI-BUILD\GLFW_STATIC.DIR\DEBUG\WIN32_FULLSCREEN.OBJ|P:\LIBS\CEGUI-CEGUI-DEPENDENCIES-0ECDF3A9E49B\BUILD\SRC\GLFW-2.7.2\CEGUI-BUILD\GLFW_STATIC.DIR\DEBUG\WIN32_GLEXT.OBJ|P:\LIBS\CEGUI-CEGUI-DEPENDENCIES-0ECDF3A9E49B\BUILD\SRC\GLFW-2.7.2\CEGUI-BUILD\GLFW_STATIC.DIR\DEBUG\WIN32_INIT.OBJ|P:\LIBS\CEGUI-CEGUI-DEPENDENCIES-0ECDF3A9E49B\BUILD\SRC\GLFW-2.7.2\CEGUI-BUILD\GLFW_STATIC.DIR\DEBUG\WIN32_JOYSTICK.OBJ|P:\LIBS\CEGUI-CEGUI-DEPENDENCIES-0ECDF3A9E49B\BUILD\SRC\GLFW-2.7.2\CEGUI-BUILD\GLFW_STATIC.DIR\DEBUG\WIN32_THREAD.OBJ|P:\LIBS\CEGUI-CEGUI-DEPENDENCIES-0ECDF3A9E49B\BUILD\SRC\GLFW-2.7.2\CEGUI-BUILD\GLFW_STATIC.DIR\DEBUG\WIN32_TIME.OBJ|P:\LIBS\CEGUI-CEGUI-DEPENDENCIES-0ECDF3A9E49B\BUILD\SRC\GLFW-2.7.2\CEGUI-BUILD\GLFW_STATIC.DIR\DEBUG\WIN32_WINDOW.OBJ|P:\LIBS\CEGUI-CEGUI-DEPENDENCIES-0ECDF3A9E49B\BUILD\SRC\GLFW-2.7.2\CEGUI-BUILD\GLFW_STATIC.DIR\DEBUG\WINDOW.OBJ
C:\WINDOWS\GLOBALIZATION\SORTING\SORTDEFAULT.NLS
P:\LIBS\CEGUI-CEGUI-DEPENDENCIES-0ECDF3A9E49B\BUILD\SRC\GLFW-2.7.2\CEGUI-BUILD\GLFW_STATIC.DIR\DEBUG\ENABLE.OBJ
C:\WINDOWS\SYSTEM32\TZRES.DLL
P:\LIBS\CEGUI-CEGUI-DEPENDENCIES-0ECDF3A9E49B\BUILD\SRC\GLFW-2.7.2\CEGUI-BUILD\GLFW_STATIC.DIR\DEBUG\FULLSCREEN.OBJ
P:\LIBS\CEGUI-CEGUI-DEPENDENCIES-0ECDF3A9E49B\BUILD\SRC\GLFW-2.7.2\CEGUI-BUILD\GLFW_STATIC.DIR\DEBUG\GLEXT.OBJ
P:\LIBS\CEGUI-CEGUI-DEPENDENCIES-0ECDF3A9E49B\BUILD\SRC\GLFW-2.7.2\CEGUI-BUILD\GLFW_STATIC.DIR\DEBUG\IMAGE.OBJ
P:\LIBS\CEGUI-CEGUI-DEPENDENCIES-0ECDF3A9E49B\BUILD\SRC\GLFW-2.7.2\CEGUI-BUILD\GLFW_STATIC.DIR\DEBUG\INIT.OBJ
P:\LIBS\CEGUI-CEGUI-DEPENDENCIES-0ECDF3A9E49B\BUILD\SRC\GLFW-2.7.2\CEGUI-BUILD\GLFW_STATIC.DIR\DEBUG\INPUT.OBJ
P:\LIBS\CEGUI-CEGUI-DEPENDENCIES-0ECDF3A9E49B\BUILD\SRC\GLFW-2.7.2\CEGUI-BUILD\GLFW_STATIC.DIR\DEBUG\JOYSTICK.OBJ
P:\LIBS\CEGUI-CEGUI-DEPENDENCIES-0ECDF3A9E49B\BUILD\SRC\GLFW-2.7.2\CEGUI-BUILD\GLFW_STATIC.DIR\DEBUG\STREAM.OBJ
P:\LIBS\CEGUI-CEGUI-DEPENDENCIES-0ECDF3A9E49B\BUILD\SRC\GLFW-2.7.2\CEGUI-BUILD\GLFW_STATIC.DIR\DEBUG\TGA.OBJ
P:\LIBS\CEGUI-CEGUI-DEPENDENCIES-0ECDF3A9E49B\BUILD\SRC\GLFW-2.7.2\CEGUI-BUILD\GLFW_STATIC.DIR\DEBUG\THREAD.OBJ
P:\LIBS\CEGUI-CEGUI-DEPENDENCIES-0ECDF3A9E49B\BUILD\SRC\GLFW-2.7.2\CEGUI-BUILD\GLFW_STATIC.DIR\DEBUG\TIME.OBJ
P:\LIBS\CEGUI-CEGUI-DEPENDENCIES-0ECDF3A9E49B\BUILD\SRC\GLFW-2.7.2\CEGUI-BUILD\GLFW_STATIC.DIR\DEBUG\WINDOW.OBJ
P:\LIBS\CEGUI-CEGUI-DEPENDENCIES-0ECDF3A9E49B\BUILD\SRC\GLFW-2.7.2\CEGUI-BUILD\GLFW_STATIC.DIR\DEBUG\WIN32_DLLMAIN.OBJ
P:\LIBS\CEGUI-CEGUI-DEPENDENCIES-0ECDF3A9E49B\BUILD\SRC\GLFW-2.7.2\CEGUI-BUILD\GLFW_STATIC.DIR\DEBUG\WIN32_ENABLE.OBJ
P:\LIBS\CEGUI-CEGUI-DEPENDENCIES-0ECDF3A9E49B\BUILD\SRC\GLFW-2.7.2\CEGUI-BUILD\GLFW_STATIC.DIR\DEBUG\WIN32_FULLSCREEN.OBJ
P:\LIBS\CEGUI-CEGUI-DEPENDENCIES-0ECDF3A9E49B\BUILD\SRC\GLFW-2.7.2\CEGUI-BUILD\GLFW_STATIC.DIR\DEBUG\WIN32_GLEXT.OBJ
P:\LIBS\CEGUI-CEGUI-DEPENDENCIES-0ECDF3A9E49B\BUILD\SRC\GLFW-2.7.2\CEGUI-BUILD\GLFW_STATIC.DIR\DEBUG\WIN32_INIT.OBJ
P:\LIBS\CEGUI-CEGUI-DEPENDENCIES-0ECDF3A9E49B\BUILD\SRC\GLFW-2.7.2\CEGUI-BUILD\GLFW_STATIC.DIR\DEBUG\WIN32_JOYSTICK.OBJ
P:\LIBS\CEGUI-CEGUI-DEPENDENCIES-0ECDF3A9E49B\BUILD\SRC\GLFW-2.7.2\CEGUI-BUILD\GLFW_STATIC.DIR\DEBUG\WIN32_THREAD.OBJ
P:\LIBS\CEGUI-CEGUI-DEPENDENCIES-0ECDF3A9E49B\BUILD\SRC\GLFW-2.7.2\CEGUI-BUILD\GLFW_STATIC.DIR\DEBUG\WIN32_TIME.OBJ
P:\LIBS\CEGUI-CEGUI-DEPENDENCIES-0ECDF3A9E49B\BUILD\SRC\GLFW-2.7.2\CEGUI-BUILD\GLFW_STATIC.DIR\DEBUG\WIN32_WINDOW.OBJ
