^P:\LIBS\CEGUI-0.8.7\CEGUI\SRC\IMAGECODECMODULES\SILLY\IMAGECODEC.CPP|P:\LIBS\CEGUI-0.8.7\CEGUI\SRC\IMAGECODECMODULES\SILLY\IMAGECODECMODULE.CPP
P:\LIBS\CEGUI-0.8.7\BUILD\CEGUI\SRC\IMAGECODECMODULES\SILLY\CEGUISILLYIMAGECODEC.DIR\RELEASE\IMAGECODECMODULE.OBJ
P:\LIBS\CEGUI-0.8.7\BUILD\CEGUI\SRC\IMAGECODECMODULES\SILLY\CEGUISILLYIMAGECODEC.DIR\RELEASE\IMAGECODEC.OBJ
